xof 0303txt 0032
template ColorRGBA {
 <35ff44e0-6c7c-11cf-8f52-0040333594a3>
 FLOAT red;
 FLOAT green;
 FLOAT blue;
 FLOAT alpha;
}

template ColorRGB {
 <d3e16e81-7835-11cf-8f52-0040333594a3>
 FLOAT red;
 FLOAT green;
 FLOAT blue;
}

template Material {
 <3d82ab4d-62da-11cf-ab39-0020af71e433>
 ColorRGBA faceColor;
 FLOAT power;
 ColorRGB specularColor;
 ColorRGB emissiveColor;
 [...]
}

template TextureFilename {
 <a42790e1-7810-11cf-8f52-0040333594a3>
 STRING filename;
}

template Frame {
 <3d82ab46-62da-11cf-ab39-0020af71e433>
 [...]
}

template Matrix4x4 {
 <f6f23f45-7686-11cf-8f52-0040333594a3>
 array FLOAT matrix[16];
}

template FrameTransformMatrix {
 <f6f23f41-7686-11cf-8f52-0040333594a3>
 Matrix4x4 frameMatrix;
}

template Vector {
 <3d82ab5e-62da-11cf-ab39-0020af71e433>
 FLOAT x;
 FLOAT y;
 FLOAT z;
}

template MeshFace {
 <3d82ab5f-62da-11cf-ab39-0020af71e433>
 DWORD nFaceVertexIndices;
 array DWORD faceVertexIndices[nFaceVertexIndices];
}

template Mesh {
 <3d82ab44-62da-11cf-ab39-0020af71e433>
 DWORD nVertices;
 array Vector vertices[nVertices];
 DWORD nFaces;
 array MeshFace faces[nFaces];
 [...]
}

template MeshNormals {
 <f6f23f43-7686-11cf-8f52-0040333594a3>
 DWORD nNormals;
 array Vector normals[nNormals];
 DWORD nFaceNormals;
 array MeshFace faceNormals[nFaceNormals];
}

template MeshMaterialList {
 <f6f23f42-7686-11cf-8f52-0040333594a3>
 DWORD nMaterials;
 DWORD nFaceIndexes;
 array DWORD faceIndexes[nFaceIndexes];
 [Material <3d82ab4d-62da-11cf-ab39-0020af71e433>]
}

template Coords2d {
 <f6f23f44-7686-11cf-8f52-0040333594a3>
 FLOAT u;
 FLOAT v;
}

template MeshTextureCoords {
 <f6f23f40-7686-11cf-8f52-0040333594a3>
 DWORD nTextureCoords;
 array Coords2d textureCoords[nTextureCoords];
}


Material MI_rockS_4 {
 1.000000;1.000000;1.000000;1.000000;;
 10.000000;
 0.000000;0.000000;0.000000;;
 0.000000;0.000000;0.000000;;

 TextureFilename {
  "rock2_1.tga";
 }
}

Frame SM_rockS_4 {
 

 FrameTransformMatrix {
  1.000000,0.000000,0.000000,0.000000,0.000000,1.000000,0.000000,0.000000,0.000000,0.000000,1.000000,0.000000,0.000000,0.000000,0.000000,1.000000;;
 }

 Mesh SM_rockS_4 {
  374;
  19.147150;0.326567;7.053089;,
  18.559450;3.313429;10.333989;,
  15.874950;1.200660;11.453839;,
  16.491850;-1.928751;8.896478;,
  15.088451;-2.072480;12.243998;,
  19.153150;-2.782660;3.675969;,
  14.398150;-4.126740;9.426539;,
  15.799950;-5.689781;6.573179;,
  12.447850;-4.696351;11.655110;,
  13.440250;-3.510401;13.910198;,
  12.273250;-7.313830;14.501099;,
  11.398450;-7.056770;10.465239;,
  9.303650;-10.087601;10.975510;,
  10.967650;-10.905901;14.101499;,
  13.003050;-8.838221;5.252379;,
  17.453251;-6.828960;2.837002;,
  18.422150;-5.068151;0.891439;,
  14.444651;-8.927180;-0.182981;,
  18.107250;-6.294281;-2.496691;,
  16.984350;-5.358030;-5.094901;,
  8.441210;-12.754901;8.344119;,
  13.086950;-7.257270;-4.584541;,
  16.155651;-3.030101;-8.395701;,
  11.038950;-11.800501;2.617595;,
  13.888050;-4.276111;-8.925901;,
  14.370051;0.171657;-11.394900;,
  11.479750;-1.855211;-11.202201;,
  11.362250;1.578133;-14.276301;,
  10.584750;-4.862421;-9.913200;,
  7.794260;-2.901150;-12.288401;,
  8.570741;1.541579;-16.424702;,
  5.381820;0.122781;-16.901301;,
  8.528090;-7.540260;-7.221190;,
  6.597550;-5.704290;-11.648101;,
  3.155850;-4.368950;-13.714402;,
  2.755990;-2.351270;-16.410400;,
  1.391250;0.807553;-16.946002;,
  2.901090;-7.367340;-11.868301;,
  -0.995807;-3.044760;-17.716101;,
  -4.945500;2.920349;-17.036301;,
  -5.932870;-0.825561;-18.098301;,
  -0.735534;-6.728431;-13.048000;,
  -4.214970;-4.197771;-18.041200;,
  -7.602940;-4.137741;-15.907800;,
  0.316900;-9.049561;-11.172300;,
  -6.117830;-6.494501;-15.815901;,
  0.848250;-10.061300;-8.935801;,
  -8.400000;-9.147711;-12.913101;,
  -10.304940;-9.396101;-11.790901;,
  -3.890870;-7.942531;-12.637900;,
  -6.812090;-12.527401;-11.278801;,
  -2.238930;-8.581330;-11.682701;,
  -3.216490;-9.547401;-9.329801;,
  -10.093230;-14.966400;-9.189701;,
  -12.074150;-14.208701;-8.737600;,
  -4.194280;-11.844801;-9.147601;,
  -12.874350;-17.430302;-6.507380;,
  -15.665550;-15.535800;-5.598231;,
  -5.627980;-14.058000;-6.278320;,
  -9.112090;-16.746701;-3.633641;,
  -15.468150;-19.554699;-3.743711;,
  -17.992750;-16.046600;-3.530041;,
  -18.539549;-20.326598;-0.989861;,
  -0.621607;-11.239301;-7.574711;,
  -13.138150;-21.522899;1.659942;,
  -19.786350;-24.150902;1.442588;,
  -18.447950;-25.125702;3.626209;,
  -16.929750;-26.351299;5.959229;,
  -15.533450;-29.346000;9.982849;,
  -16.840750;-28.076202;8.538318;,
  -12.151650;-29.079299;10.535030;,
  -11.616150;-23.062203;5.245420;,
  -7.461650;-28.213901;12.970899;,
  -7.596280;-19.767800;2.970185;,
  -5.823380;-23.640102;9.098570;,
  -3.215190;-25.005402;11.858409;,
  1.982730;-20.344600;15.880099;,
  -2.027370;-19.887802;6.499399;,
  -4.033100;-15.475002;-1.460731;,
  2.804040;-19.139000;13.018199;,
  5.963010;-15.538202;15.997400;,
  3.453100;-11.655601;-3.062671;,
  1.099860;-16.868598;3.913999;,
  6.768930;-12.052501;0.183769;,
  7.403670;-15.237701;5.778509;,
  3.930050;-18.381600;7.713329;,
  5.251790;-16.738301;10.279841;,
  0.980580;-21.465400;10.455540;,
  5.127610;-16.032699;13.424299;,
  7.327010;-13.059401;11.979919;,
  1.391250;0.807553;-16.946002;,
  -4.945500;2.920349;-17.036301;,
  -3.205530;4.510789;-16.944901;,
  0.047670;4.311039;-16.487202;,
  -2.067590;6.912759;-16.647701;,
  -0.868115;9.223459;-17.078301;,
  5.860370;2.569679;-17.327701;,
  5.381820;0.122781;-16.901301;,
  8.570741;1.541579;-16.424702;,
  4.432660;7.158649;-16.185101;,
  1.832060;10.791799;-17.282101;,
  -0.194621;12.005099;-20.266501;,
  9.564950;6.324619;-13.422501;,
  11.362250;1.578133;-14.276301;,
  7.787360;7.533498;-15.567301;,
  6.359190;11.867800;-16.383701;,
  2.435320;11.974899;-20.048200;,
  0.048526;15.234299;-22.732501;,
  10.502350;10.476010;-15.796400;,
  3.610640;16.102200;-22.296501;,
  0.862610;17.730099;-22.070301;,
  6.486440;13.290799;-19.829402;,
  9.334450;13.086399;-17.033002;,
  6.369860;15.896798;-20.246000;,
  5.908490;20.047501;-21.498402;,
  1.347720;21.598998;-20.187602;,
  9.539650;17.332901;-16.498600;,
  8.575410;22.141202;-19.039301;,
  2.013530;24.158798;-16.521501;,
  3.670640;26.876099;-13.038401;,
  8.280240;25.582000;-13.455101;,
  7.493731;27.267200;-10.281102;,
  9.814050;23.077301;-16.557402;,
  10.147350;24.489098;-10.604900;,
  11.702650;22.254398;-12.795601;,
  11.393150;24.349098;-5.727811;,
  8.715680;27.568598;-6.187621;,
  9.820150;27.038301;-0.869131;,
  13.278350;21.899602;-8.208800;,
  11.604950;18.220299;-12.266601;,
  12.474051;23.133000;-0.120411;,
  10.366350;26.169499;3.825039;,
  14.896950;20.537301;-2.186181;,
  12.822750;22.173699;5.873429;,
  10.287251;26.165501;8.710139;,
  16.102051;18.644798;4.132019;,
  14.143350;17.000499;-5.873291;,
  15.580750;14.978600;0.191899;,
  12.902250;21.805099;10.835550;,
  10.486550;25.318402;11.988590;,
  9.337350;23.723000;13.545200;,
  10.551450;20.749402;13.124098;,
  12.859550;16.497101;12.384199;,
  16.881250;17.180198;9.793829;,
  15.041250;12.912199;12.440499;,
  16.463251;13.456499;5.258939;,
  16.972851;13.579099;11.156499;,
  15.756850;8.971970;12.258900;,
  16.573050;9.065220;0.744709;,
  17.599451;8.857119;11.409120;,
  17.588650;8.959370;6.204569;,
  19.599051;5.083439;9.183430;,
  18.559450;3.313429;10.333989;,
  19.786350;3.831660;5.291939;,
  19.147150;0.326567;7.053089;,
  18.293850;6.445899;3.513679;,
  19.720650;0.361245;3.293109;,
  19.153150;-2.782660;3.675969;,
  18.992651;-3.340870;-0.485851;,
  18.422150;-5.068151;0.891439;,
  18.107250;-6.294281;-2.496691;,
  16.984350;-5.358030;-5.094901;,
  17.670750;-0.986841;-3.420961;,
  16.155651;-3.030101;-8.395701;,
  17.908451;5.566080;-1.183761;,
  16.712550;2.759680;-5.006151;,
  14.747950;2.548100;-10.106701;,
  14.370051;0.171657;-11.394900;,
  16.265550;8.204450;-5.235721;,
  12.188050;6.052680;-11.946200;,
  15.432251;5.505610;-8.428701;,
  10.846150;8.308290;-14.488202;,
  13.071950;7.571089;-11.721201;,
  11.801050;12.470099;-12.952801;,
  14.200350;11.181999;-8.937901;,
  15.154050;14.463400;-6.597211;,
  16.484450;11.697299;-3.969391;,
  16.010950;12.679700;-2.186811;,
  17.582950;8.604149;-1.436521;,
  -15.148950;-11.552100;-6.395131;,
  -12.074150;-14.208701;-8.737600;,
  -15.665550;-15.535800;-5.598231;,
  -10.304940;-9.396101;-11.790901;,
  -18.146050;-12.008901;-3.184801;,
  -17.992750;-16.046600;-3.530041;,
  -13.898749;-8.446200;-8.686401;,
  -17.484450;-9.268681;-5.406541;,
  -10.850450;-3.407181;-10.924501;,
  -7.602940;-4.137741;-15.907800;,
  -16.332149;-7.036490;-6.641311;,
  -14.424350;-4.949831;-8.765801;,
  -11.326150;-1.376801;-10.849701;,
  -16.107349;-6.461030;-1.887381;,
  -15.439250;-3.717680;-4.580101;,
  -13.323650;-2.112381;-6.482751;,
  -9.109380;0.646864;-13.971501;,
  -5.932870;-0.825561;-18.098301;,
  -4.945500;2.920349;-17.036301;,
  -9.856490;1.888389;-7.545731;,
  -6.887820;3.552999;-14.842301;,
  -3.205530;4.510789;-16.944901;,
  -9.275570;2.501879;-10.123901;,
  -2.401980;7.771719;-13.438901;,
  -2.067590;6.912759;-16.647701;,
  -0.868115;9.223459;-17.078301;,
  -5.599760;5.772490;-11.667601;,
  -7.499250;6.635429;-8.879601;,
  -5.611600;9.610419;-8.311101;,
  -7.395810;7.466149;-6.375851;,
  -10.909250;1.802130;-5.272371;,
  -12.203450;2.368700;-2.860521;,
  -9.394550;9.076599;-4.633901;,
  -12.832150;-1.000861;2.924031;,
  -10.142430;6.162570;-0.149471;,
  -6.552500;9.644730;-5.708891;,
  -7.624920;13.332999;-2.235921;,
  -10.394680;5.007040;4.109969;,
  -5.119120;13.546200;-3.664241;,
  -7.765970;12.420599;2.771829;,
  -4.882420;19.383598;1.150419;,
  -3.778530;14.151400;-5.503821;,
  -3.668340;18.117099;-1.962751;,
  -4.892640;19.158901;4.808599;,
  -1.033657;12.814299;-9.275601;,
  -1.739291;23.509400;1.899362;,
  -0.705105;12.010099;-15.101000;,
  -0.194621;12.005099;-20.266501;,
  -0.281606;16.794800;-17.808501;,
  0.048526;15.234299;-22.732501;,
  0.862610;17.730099;-22.070301;,
  0.179760;15.501200;-11.437601;,
  0.797170;17.990498;-18.649301;,
  1.347720;21.598998;-20.187602;,
  0.437430;18.760701;-13.397700;,
  1.860690;21.936002;-14.949099;,
  2.013530;24.158798;-16.521501;,
  3.670640;26.876099;-13.038401;,
  0.793550;19.305402;-9.259101;,
  3.041680;24.298000;-10.198801;,
  1.573030;21.491898;-10.155201;,
  0.161783;19.337101;-6.858171;,
  1.392530;24.466000;-6.014750;,
  -1.856500;18.853600;-4.242131;,
  -0.241771;24.924198;-2.382021;,
  3.397980;27.639600;-7.889101;,
  7.493731;27.267200;-10.281102;,
  8.715680;27.568598;-6.187621;,
  2.402430;29.346000;-3.803341;,
  5.112190;29.252800;0.303529;,
  9.820150;27.038301;-0.869131;,
  0.250810;27.637299;-0.340191;,
  10.366350;26.169499;3.825039;,
  1.865880;27.613200;2.411022;,
  5.974990;28.239498;5.094159;,
  10.287251;26.165501;8.710139;,
  -0.165847;25.654499;4.935419;,
  7.035840;27.070400;9.633809;,
  10.486550;25.318402;11.988590;,
  4.121770;26.694698;7.183829;,
  6.541170;23.626499;13.960400;,
  9.337350;23.723000;13.545200;,
  3.153690;24.941898;10.781159;,
  -1.396443;23.359798;7.439569;,
  3.123040;21.794598;13.274599;,
  -5.582560;16.311101;8.817450;,
  1.629260;22.528000;11.613309;,
  -1.975200;19.801701;12.124449;,
  -8.368000;8.752110;8.316469;,
  -5.711220;14.142699;13.542499;,
  2.369520;19.175198;14.767598;,
  -0.680079;15.644699;16.812698;,
  5.554540;20.765099;12.919799;,
  10.551450;20.749402;13.124098;,
  7.822380;17.093098;12.691599;,
  12.859550;16.497101;12.384199;,
  3.628620;14.266000;15.469198;,
  8.776981;13.655800;13.652800;,
  13.297350;13.288899;13.455099;,
  15.041250;12.912199;12.440499;,
  11.628850;9.309389;15.240099;,
  15.756850;8.971970;12.258900;,
  5.399660;10.646939;16.171200;,
  7.617431;9.783710;15.145998;,
  10.663350;6.804500;15.831299;,
  14.061350;3.545229;12.624098;,
  18.559450;3.313429;10.333989;,
  15.874950;1.200660;11.453839;,
  7.104060;5.506390;17.208398;,
  10.786850;4.186489;16.767800;,
  12.305650;0.346908;15.852499;,
  15.088451;-2.072480;12.243998;,
  9.242950;0.775414;17.292698;,
  3.533130;3.709219;17.897000;,
  11.627750;-3.036091;15.753899;,
  13.440250;-3.510401;13.910198;,
  9.769550;-2.524511;17.188499;,
  12.273250;-7.313830;14.501099;,
  4.907120;-1.009201;18.761699;,
  8.625930;-4.153700;17.689499;,
  9.101470;-7.952010;18.759499;,
  5.281990;-4.369680;18.919198;,
  12.355950;-8.961480;16.030400;,
  10.967650;-10.905901;14.101499;,
  7.079880;-11.428001;17.814499;,
  5.963010;-15.538202;15.997400;,
  4.560150;-8.269961;20.677598;,
  3.469680;-15.280501;17.623899;,
  1.982730;-20.344600;15.880099;,
  1.431550;-12.411902;20.083800;,
  -0.264593;-19.236901;17.306400;,
  -4.965180;-24.365699;15.254899;,
  -7.461650;-28.213901;12.970899;,
  -4.178140;-13.861400;21.171998;,
  -13.680750;-28.959501;12.483699;,
  -12.151650;-29.079299;10.535030;,
  -15.533450;-29.346000;9.982849;,
  -5.329960;-18.356800;18.951800;,
  -10.593599;-26.061302;15.562099;,
  -7.372020;-22.303798;17.453800;,
  -16.759251;-26.875402;9.909310;,
  -16.840750;-28.076202;8.538318;,
  -16.929750;-26.351299;5.959229;,
  -14.814250;-26.521802;14.496299;,
  -11.549250;-23.898899;16.279099;,
  -16.716949;-24.263302;7.011589;,
  -18.447950;-25.125702;3.626209;,
  -15.157949;-23.448002;10.726899;,
  -13.151150;-22.571701;13.968800;,
  -18.712349;-22.760902;5.155319;,
  -19.786350;-24.150902;1.442588;,
  -18.539549;-20.326598;-0.989861;,
  -16.635150;-21.522998;8.684349;,
  -15.650050;-19.876000;13.442899;,
  -16.510750;-18.362499;5.323549;,
  -16.849150;-16.514000;1.349031;,
  -13.740650;-13.982600;11.164769;,
  -14.564350;-12.253100;4.796489;,
  -17.284250;-12.930501;-1.249831;,
  -17.610350;-10.456600;-1.209531;,
  -14.113350;-8.736050;3.696069;,
  -15.668350;-7.349930;2.397371;,
  -12.100250;-5.098930;7.948198;,
  -12.678349;-2.944071;7.554489;,
  -9.494940;4.238349;11.423958;,
  -10.944150;-0.540681;12.110970;,
  -11.240849;-6.912820;15.433899;,
  -10.052859;-2.295800;13.780198;,
  -9.949781;0.410441;16.538701;,
  -7.572380;7.470089;15.669600;,
  -9.431110;-1.927820;17.407699;,
  -4.467330;11.354999;18.800998;,
  -6.234640;7.884130;19.451899;,
  -0.783148;9.042279;17.891998;,
  -8.555170;2.492310;20.256299;,
  -3.650790;3.201579;19.335101;,
  -0.486088;2.017149;18.801600;,
  -4.598820;-2.263801;20.318600;,
  -8.295450;-1.790841;20.946499;,
  0.317610;-1.830991;19.754099;,
  -9.921830;-4.591910;21.266400;,
  -3.992840;-6.820880;21.411400;,
  1.193600;-6.070021;20.519798;,
  0.662820;-9.664500;21.492800;,
  -6.747980;-12.010301;22.732501;,
  -9.925580;-8.570491;21.814299;,
  -12.456550;-10.795900;18.252198;,
  -10.502980;-10.852700;20.523800;,
  -8.390400;-14.550701;21.381800;,
  -10.845550;-13.574000;19.178899;,
  -14.938550;-18.097802;15.892598;,
  -12.725950;-17.763901;18.139198;,
  -8.505950;-19.962101;18.718800;,
  -13.746150;-19.228302;16.998200;,
  -14.755850;-21.008202;14.567499;;
  632;
  3;0,1,2;,
  3;2,3,0;,
  3;4,3,2;,
  3;5,0,3;,
  3;3,4,6;,
  3;3,7,5;,
  3;7,3,6;,
  3;8,6,4;,
  3;9,8,4;,
  3;8,9,10;,
  3;11,6,8;,
  3;10,11,8;,
  3;7,6,11;,
  3;12,11,10;,
  3;10,13,12;,
  3;14,7,11;,
  3;12,14,11;,
  3;5,7,15;,
  3;7,14,15;,
  3;15,16,5;,
  3;16,15,17;,
  3;17,15,14;,
  3;17,18,16;,
  3;19,18,17;,
  3;14,12,20;,
  3;17,21,19;,
  3;22,19,21;,
  3;14,23,17;,
  3;21,17,23;,
  3;23,14,20;,
  3;21,24,22;,
  3;24,25,22;,
  3;26,25,24;,
  3;25,26,27;,
  3;28,26,24;,
  3;28,24,21;,
  3;26,29,27;,
  3;29,26,28;,
  3;27,29,30;,
  3;30,29,31;,
  3;21,32,28;,
  3;33,29,28;,
  3;32,33,28;,
  3;34,31,29;,
  3;29,33,34;,
  3;31,34,35;,
  3;35,36,31;,
  3;37,34,33;,
  3;38,36,35;,
  3;39,36,38;,
  3;38,40,39;,
  3;35,34,41;,
  3;41,38,35;,
  3;34,37,41;,
  3;40,38,42;,
  3;41,42,38;,
  3;43,40,42;,
  3;37,44,41;,
  3;45,43,42;,
  3;46,37,33;,
  3;44,37,46;,
  3;33,32,46;,
  3;43,45,47;,
  3;43,47,48;,
  3;49,45,42;,
  3;49,47,45;,
  3;42,41,49;,
  3;50,48,47;,
  3;49,50,47;,
  3;41,51,49;,
  3;44,51,41;,
  3;49,51,52;,
  3;44,52,51;,
  3;50,49,52;,
  3;52,44,46;,
  3;48,50,53;,
  3;53,54,48;,
  3;50,52,55;,
  3;56,54,53;,
  3;56,57,54;,
  3;53,50,58;,
  3;50,55,58;,
  3;59,56,53;,
  3;59,53,58;,
  3;60,57,56;,
  3;59,60,56;,
  3;60,61,57;,
  3;60,62,61;,
  3;52,63,55;,
  3;58,55,63;,
  3;46,63,52;,
  3;62,60,64;,
  3;60,59,64;,
  3;65,62,64;,
  3;65,64,66;,
  3;67,66,64;,
  3;68,69,67;,
  3;70,68,67;,
  3;70,67,71;,
  3;64,71,67;,
  3;72,70,71;,
  3;73,71,64;,
  3;59,73,64;,
  3;71,74,72;,
  3;71,73,74;,
  3;75,72,74;,
  3;72,75,76;,
  3;77,74,73;,
  3;75,74,77;,
  3;73,59,78;,
  3;77,73,78;,
  3;58,78,59;,
  3;79,76,75;,
  3;76,79,80;,
  3;78,58,81;,
  3;58,63,81;,
  3;81,63,46;,
  3;32,81,46;,
  3;82,78,81;,
  3;78,82,77;,
  3;83,81,32;,
  3;81,83,82;,
  3;83,32,21;,
  3;23,83,21;,
  3;84,83,23;,
  3;83,84,82;,
  3;20,84,23;,
  3;84,85,82;,
  3;77,82,85;,
  3;84,20,86;,
  3;85,84,86;,
  3;85,87,77;,
  3;87,85,86;,
  3;77,87,75;,
  3;75,87,79;,
  3;86,79,87;,
  3;86,88,79;,
  3;79,88,80;,
  3;86,89,88;,
  3;89,80,88;,
  3;20,89,86;,
  3;80,89,13;,
  3;12,89,20;,
  3;89,12,13;,
  3;90,91,92;,
  3;92,93,90;,
  3;93,92,94;,
  3;95,93,94;,
  3;96,90,93;,
  3;90,96,97;,
  3;97,96,98;,
  3;95,99,93;,
  3;93,99,96;,
  3;95,100,99;,
  3;101,100,95;,
  3;102,98,96;,
  3;102,103,98;,
  3;104,96,99;,
  3;96,104,102;,
  3;99,100,105;,
  3;105,104,99;,
  3;106,100,101;,
  3;105,100,106;,
  3;107,106,101;,
  3;108,104,105;,
  3;109,106,107;,
  3;110,109,107;,
  3;106,111,105;,
  3;111,106,109;,
  3;111,112,105;,
  3;105,112,108;,
  3;109,113,111;,
  3;112,111,113;,
  3;114,109,110;,
  3;114,113,109;,
  3;115,114,110;,
  3;113,116,112;,
  3;116,113,114;,
  3;115,117,114;,
  3;116,114,117;,
  3;115,118,117;,
  3;118,119,117;,
  3;119,120,117;,
  3;120,119,121;,
  3;120,122,117;,
  3;116,117,122;,
  3;123,120,121;,
  3;120,124,122;,
  3;124,120,123;,
  3;124,116,122;,
  3;125,123,121;,
  3;121,126,125;,
  3;127,125,126;,
  3;128,124,123;,
  3;125,128,123;,
  3;124,129,116;,
  3;129,124,128;,
  3;125,127,130;,
  3;130,127,131;,
  3;132,128,125;,
  3;130,132,125;,
  3;130,131,133;,
  3;134,133,131;,
  3;135,132,130;,
  3;133,135,130;,
  3;132,136,128;,
  3;136,129,128;,
  3;137,132,135;,
  3;132,137,136;,
  3;133,134,138;,
  3;134,139,138;,
  3;138,139,140;,
  3;140,141,138;,
  3;142,138,141;,
  3;138,143,133;,
  3;138,142,143;,
  3;133,143,135;,
  3;143,142,144;,
  3;145,135,143;,
  3;135,145,137;,
  3;144,146,143;,
  3;146,145,143;,
  3;146,144,147;,
  3;148,137,145;,
  3;147,149,146;,
  3;146,150,145;,
  3;146,149,150;,
  3;148,145,150;,
  3;151,149,147;,
  3;150,149,151;,
  3;147,152,151;,
  3;153,151,152;,
  3;150,151,153;,
  3;152,154,153;,
  3;153,155,150;,
  3;150,155,148;,
  3;156,153,154;,
  3;155,153,156;,
  3;157,156,154;,
  3;157,158,156;,
  3;159,158,157;,
  3;159,160,158;,
  3;158,160,161;,
  3;162,156,158;,
  3;161,162,158;,
  3;155,156,162;,
  3;161,163,162;,
  3;162,164,155;,
  3;164,148,155;,
  3;162,163,165;,
  3;165,164,162;,
  3;163,166,165;,
  3;163,167,166;,
  3;166,167,103;,
  3;164,165,168;,
  3;103,169,166;,
  3;103,102,169;,
  3;166,170,165;,
  3;166,169,170;,
  3;165,170,168;,
  3;169,102,171;,
  3;102,104,171;,
  3;108,171,104;,
  3;170,169,172;,
  3;172,169,171;,
  3;171,108,173;,
  3;172,171,173;,
  3;112,173,108;,
  3;173,112,116;,
  3;116,129,173;,
  3;170,172,174;,
  3;174,172,173;,
  3;174,168,170;,
  3;175,173,129;,
  3;175,174,173;,
  3;175,129,136;,
  3;168,174,176;,
  3;176,174,175;,
  3;177,175,136;,
  3;175,177,176;,
  3;137,177,136;,
  3;148,177,137;,
  3;168,176,178;,
  3;176,177,178;,
  3;148,178,177;,
  3;178,164,168;,
  3;178,148,164;,
  3;179,180,181;,
  3;182,180,179;,
  3;183,179,181;,
  3;181,184,183;,
  3;179,185,182;,
  3;179,183,186;,
  3;185,179,186;,
  3;187,182,185;,
  3;182,187,188;,
  3;186,189,185;,
  3;185,190,187;,
  3;190,185,189;,
  3;188,187,191;,
  3;190,191,187;,
  3;192,189,186;,
  3;193,190,189;,
  3;189,192,193;,
  3;194,191,190;,
  3;190,193,194;,
  3;191,195,188;,
  3;195,196,188;,
  3;197,196,195;,
  3;194,198,191;,
  3;195,199,197;,
  3;199,200,197;,
  3;195,191,201;,
  3;199,195,201;,
  3;198,201,191;,
  3;202,200,199;,
  3;200,202,203;,
  3;204,203,202;,
  3;201,205,199;,
  3;199,205,202;,
  3;206,205,201;,
  3;201,198,206;,
  3;205,206,207;,
  3;207,202,205;,
  3;198,208,206;,
  3;208,207,206;,
  3;209,198,194;,
  3;208,198,209;,
  3;209,194,193;,
  3;208,209,210;,
  3;193,210,209;,
  3;210,211,208;,
  3;212,210,193;,
  3;212,193,192;,
  3;210,213,211;,
  3;213,210,212;,
  3;211,214,208;,
  3;207,208,214;,
  3;213,215,211;,
  3;215,214,211;,
  3;212,216,213;,
  3;214,215,217;,
  3;218,215,213;,
  3;216,218,213;,
  3;217,215,219;,
  3;218,219,215;,
  3;214,217,220;,
  3;220,207,214;,
  3;219,221,217;,
  3;220,217,221;,
  3;222,219,218;,
  3;223,207,220;,
  3;202,207,223;,
  3;224,219,222;,
  3;224,221,219;,
  3;223,225,202;,
  3;202,225,204;,
  3;226,204,225;,
  3;225,227,226;,
  3;227,228,226;,
  3;227,229,228;,
  3;225,223,230;,
  3;227,225,230;,
  3;227,231,229;,
  3;231,232,229;,
  3;230,233,227;,
  3;231,227,233;,
  3;234,232,231;,
  3;233,234,231;,
  3;232,234,235;,
  3;235,234,236;,
  3;230,237,233;,
  3;234,238,236;,
  3;234,233,239;,
  3;237,239,233;,
  3;234,239,238;,
  3;240,237,230;,
  3;239,237,240;,
  3;240,230,223;,
  3;220,240,223;,
  3;241,238,239;,
  3;239,240,241;,
  3;242,240,220;,
  3;242,241,240;,
  3;221,242,220;,
  3;221,243,242;,
  3;243,241,242;,
  3;224,243,221;,
  3;244,238,241;,
  3;236,238,244;,
  3;245,236,244;,
  3;245,244,246;,
  3;241,247,244;,
  3;246,244,247;,
  3;247,241,243;,
  3;246,247,248;,
  3;248,249,246;,
  3;247,243,250;,
  3;247,250,248;,
  3;250,243,224;,
  3;251,249,248;,
  3;224,252,250;,
  3;248,250,252;,
  3;253,251,248;,
  3;248,252,253;,
  3;254,251,253;,
  3;224,255,252;,
  3;256,254,253;,
  3;257,254,256;,
  3;258,253,252;,
  3;253,258,256;,
  3;258,252,255;,
  3;257,256,259;,
  3;257,259,260;,
  3;261,256,258;,
  3;255,261,258;,
  3;259,256,261;,
  3;224,262,255;,
  3;255,262,261;,
  3;224,222,262;,
  3;261,263,259;,
  3;262,222,264;,
  3;264,222,218;,
  3;262,265,261;,
  3;265,263,261;,
  3;264,266,262;,
  3;262,266,265;,
  3;264,218,267;,
  3;267,218,216;,
  3;264,268,266;,
  3;267,268,264;,
  3;265,266,269;,
  3;269,263,265;,
  3;266,268,270;,
  3;270,269,266;,
  3;263,271,259;,
  3;271,263,269;,
  3;260,259,271;,
  3;271,272,260;,
  3;271,273,272;,
  3;273,271,269;,
  3;272,273,274;,
  3;269,275,273;,
  3;270,275,269;,
  3;274,273,276;,
  3;275,276,273;,
  3;276,277,274;,
  3;278,274,277;,
  3;278,277,279;,
  3;276,279,277;,
  3;279,280,278;,
  3;275,281,276;,
  3;279,276,282;,
  3;276,281,282;,
  3;280,279,283;,
  3;279,282,283;,
  3;284,280,283;,
  3;280,284,285;,
  3;285,284,286;,
  3;282,287,283;,
  3;282,281,287;,
  3;284,283,288;,
  3;288,283,287;,
  3;286,284,289;,
  3;288,289,284;,
  3;289,290,286;,
  3;291,288,287;,
  3;288,291,289;,
  3;287,281,292;,
  3;291,287,292;,
  3;290,289,293;,
  3;293,294,290;,
  3;291,295,289;,
  3;289,295,293;,
  3;296,294,293;,
  3;291,297,295;,
  3;292,297,291;,
  3;293,295,298;,
  3;296,293,298;,
  3;297,298,295;,
  3;296,298,299;,
  3;297,300,298;,
  3;300,299,298;,
  3;299,301,296;,
  3;302,296,301;,
  3;299,302,301;,
  3;299,303,302;,
  3;302,303,304;,
  3;299,300,305;,
  3;303,299,305;,
  3;303,306,304;,
  3;304,306,307;,
  3;305,308,303;,
  3;308,306,303;,
  3;306,309,307;,
  3;308,309,306;,
  3;307,309,310;,
  3;307,310,311;,
  3;308,312,309;,
  3;313,311,310;,
  3;313,314,311;,
  3;313,315,314;,
  3;310,309,316;,
  3;312,316,309;,
  3;317,313,310;,
  3;316,318,310;,
  3;317,310,318;,
  3;315,313,319;,
  3;315,319,320;,
  3;321,320,319;,
  3;317,322,313;,
  3;319,313,322;,
  3;318,323,317;,
  3;322,317,323;,
  3;319,324,321;,
  3;324,325,321;,
  3;319,322,326;,
  3;324,319,326;,
  3;322,327,326;,
  3;323,327,322;,
  3;325,324,328;,
  3;328,329,325;,
  3;328,330,329;,
  3;324,326,331;,
  3;328,324,331;,
  3;332,326,327;,
  3;326,332,331;,
  3;330,328,333;,
  3;333,328,331;,
  3;333,334,330;,
  3;330,334,184;,
  3;335,333,331;,
  3;331,332,335;,
  3;336,334,333;,
  3;333,335,336;,
  3;184,334,337;,
  3;336,337,334;,
  3;337,183,184;,
  3;337,338,183;,
  3;186,183,338;,
  3;338,192,186;,
  3;338,337,339;,
  3;337,336,339;,
  3;192,338,340;,
  3;339,340,338;,
  3;212,192,340;,
  3;341,339,336;,
  3;340,339,341;,
  3;340,342,212;,
  3;341,342,340;,
  3;212,342,343;,
  3;212,343,216;,
  3;216,343,267;,
  3;344,342,341;,
  3;342,344,343;,
  3;345,341,336;,
  3;336,335,345;,
  3;341,346,344;,
  3;345,346,341;,
  3;343,344,347;,
  3;344,346,347;,
  3;343,348,267;,
  3;348,343,347;,
  3;267,348,268;,
  3;346,349,347;,
  3;349,346,345;,
  3;348,350,268;,
  3;268,350,270;,
  3;348,351,350;,
  3;350,352,270;,
  3;352,350,351;,
  3;352,275,270;,
  3;352,281,275;,
  3;281,352,292;,
  3;351,348,353;,
  3;347,353,348;,
  3;352,351,354;,
  3;353,354,351;,
  3;355,292,352;,
  3;352,354,355;,
  3;297,292,355;,
  3;354,353,356;,
  3;355,354,356;,
  3;353,347,357;,
  3;353,357,356;,
  3;347,349,357;,
  3;355,358,297;,
  3;356,358,355;,
  3;358,300,297;,
  3;349,359,357;,
  3;356,357,359;,
  3;359,349,345;,
  3;356,360,358;,
  3;359,360,356;,
  3;358,361,300;,
  3;358,360,361;,
  3;361,305,300;,
  3;305,361,362;,
  3;360,362,361;,
  3;362,308,305;,
  3;362,312,308;,
  3;360,363,362;,
  3;363,312,362;,
  3;359,364,360;,
  3;363,360,364;,
  3;365,359,345;,
  3;364,359,365;,
  3;335,365,345;,
  3;366,363,364;,
  3;364,365,366;,
  3;312,363,367;,
  3;367,363,366;,
  3;312,367,316;,
  3;365,368,366;,
  3;367,366,368;,
  3;335,369,365;,
  3;369,368,365;,
  3;335,332,369;,
  3;367,368,370;,
  3;369,370,368;,
  3;316,367,371;,
  3;367,370,371;,
  3;371,318,316;,
  3;323,318,371;,
  3;371,370,372;,
  3;323,371,372;,
  3;369,372,370;,
  3;323,372,373;,
  3;373,372,369;,
  3;332,373,369;,
  3;373,327,323;,
  3;327,373,332;;

  MeshNormals {
   374;
   0.881806;-0.292575;0.369889;,
   0.692693;-0.247865;0.677303;,
   0.729359;-0.164088;0.664162;,
   0.766908;-0.426927;0.479150;,
   0.810938;-0.310150;0.496172;,
   0.918144;-0.329457;0.220160;,
   0.675459;-0.561578;0.477897;,
   0.673994;-0.551392;0.491629;,
   0.837086;-0.535421;0.112305;,
   0.866659;-0.342691;0.362581;,
   0.979988;-0.163057;0.114177;,
   0.819793;-0.540411;0.189463;,
   0.829667;-0.556995;-0.037538;,
   0.797112;-0.603777;-0.008113;,
   0.654893;-0.689658;0.309009;,
   0.736469;-0.657572;0.158787;,
   0.890101;-0.455230;0.022046;,
   0.509907;-0.842015;-0.176082;,
   0.810609;-0.520414;-0.268483;,
   0.726172;-0.472456;-0.499459;,
   0.785439;-0.567376;0.247325;,
   0.337502;-0.816830;-0.467848;,
   0.771315;-0.324125;-0.547737;,
   0.575184;-0.806781;-0.135156;,
   0.401327;-0.659079;-0.636043;,
   0.658874;-0.211117;-0.722021;,
   0.349992;-0.531558;-0.771331;,
   0.596845;-0.190240;-0.779478;,
   0.366418;-0.636539;-0.678643;,
   0.408051;-0.523882;-0.747691;,
   0.499121;-0.220605;-0.837980;,
   0.209347;-0.388534;-0.897338;,
   0.348218;-0.812488;-0.467555;,
   0.387074;-0.594238;-0.705021;,
   0.342068;-0.613448;-0.711808;,
   0.352380;-0.493154;-0.795379;,
   0.043966;0.027788;-0.998647;,
   0.298569;-0.675104;-0.674604;,
   0.270464;-0.326908;-0.905528;,
   -0.161492;0.255202;-0.953306;,
   -0.434279;0.124352;-0.892154;,
   0.210894;-0.680954;-0.701303;,
   -0.031811;-0.443991;-0.895466;,
   -0.683805;-0.185600;-0.705665;,
   0.137876;-0.795154;-0.590525;,
   -0.141352;-0.648691;-0.747810;,
   0.221421;-0.853345;-0.471990;,
   -0.211086;-0.521845;-0.826511;,
   -0.558961;-0.269266;-0.784256;,
   0.270649;-0.739536;-0.616308;,
   0.241383;-0.643170;-0.726682;,
   -0.004701;-0.813054;-0.582170;,
   0.342615;-0.674311;-0.654156;,
   0.027520;-0.721293;-0.692084;,
   -0.544636;-0.294938;-0.785101;,
   0.521160;-0.596152;-0.610733;,
   -0.054885;-0.753764;-0.654849;,
   -0.618710;-0.207545;-0.757709;,
   0.389269;-0.840478;-0.376917;,
   0.387127;-0.834007;-0.393147;,
   -0.159999;-0.753141;-0.638106;,
   -0.867363;-0.150775;-0.474288;,
   -0.846403;-0.329884;-0.418066;,
   0.282534;-0.792427;-0.540586;,
   0.313185;-0.798318;-0.514397;,
   -0.696477;-0.549162;-0.461888;,
   -0.436886;-0.892920;-0.108739;,
   -0.628444;-0.707953;-0.322274;,
   -0.363103;-0.928083;-0.082575;,
   -0.742994;-0.634741;-0.212283;,
   0.245845;-0.922267;-0.298302;,
   0.362689;-0.731622;-0.577222;,
   0.345609;-0.924066;0.163270;,
   0.343591;-0.787357;-0.511873;,
   0.327935;-0.711665;-0.621283;,
   0.532609;-0.796416;-0.286441;,
   0.603696;-0.665589;0.438797;,
   0.330563;-0.762487;-0.556185;,
   0.350273;-0.823800;-0.445716;,
   0.748489;-0.662880;0.018804;,
   0.708070;-0.623486;0.331515;,
   0.345650;-0.832861;-0.432284;,
   0.331679;-0.787159;-0.519972;,
   0.334096;-0.819650;-0.465354;,
   0.632684;-0.759444;-0.151512;,
   0.555062;-0.783413;-0.279590;,
   0.773119;-0.620038;0.133568;,
   0.591260;-0.782167;-0.196535;,
   0.803100;-0.595715;-0.012365;,
   0.771913;-0.633845;-0.048896;,
   0.043966;0.027788;-0.998647;,
   -0.161492;0.255202;-0.953306;,
   -0.301548;0.403141;-0.864029;,
   0.055610;0.080430;-0.995208;,
   -0.575353;0.236511;-0.782963;,
   -0.575749;-0.071584;-0.814487;,
   0.183467;0.070734;-0.980478;,
   0.209347;-0.388534;-0.897338;,
   0.499121;-0.220605;-0.837980;,
   0.114179;0.030834;-0.992982;,
   0.230049;-0.626192;-0.744957;,
   -0.648012;-0.527046;-0.549821;,
   0.546150;-0.158488;-0.822558;,
   0.596845;-0.190240;-0.779478;,
   0.383351;-0.153535;-0.910752;,
   0.226076;-0.581942;-0.781174;,
   0.176229;-0.778364;-0.602572;,
   -0.613429;-0.080631;-0.785623;,
   0.620472;-0.161814;-0.767353;,
   0.271028;-0.152434;-0.950425;,
   -0.609276;0.390487;-0.690147;,
   0.491420;-0.537755;-0.685074;,
   0.636594;-0.253668;-0.728286;,
   0.677046;-0.094437;-0.729856;,
   0.375018;0.287834;-0.881200;,
   -0.681882;0.559346;-0.471348;,
   0.842871;-0.023422;-0.537607;,
   0.579009;0.421088;-0.698164;,
   -0.661456;0.689077;-0.296056;,
   -0.428828;0.846017;-0.316800;,
   0.461070;0.810519;-0.361213;,
   0.315588;0.925608;-0.208937;,
   0.745834;0.473711;-0.468327;,
   0.703032;0.687889;-0.180432;,
   0.889383;0.318873;-0.327593;,
   0.756652;0.645162;-0.106033;,
   0.513368;0.839345;-0.178755;,
   0.646998;0.762414;0.010887;,
   0.896855;0.371286;-0.240413;,
   0.910252;0.026114;-0.413231;,
   0.788611;0.614612;0.018590;,
   0.664201;0.746236;0.044374;,
   0.918947;0.379565;-0.107087;,
   0.800827;0.597456;0.041501;,
   0.630576;0.769772;0.099125;,
   0.927977;0.369326;-0.049563;,
   0.951621;0.205319;-0.228608;,
   0.982971;0.125513;-0.134217;,
   0.781601;0.440232;0.441923;,
   0.503111;0.686311;0.525221;,
   0.382062;0.244860;0.891107;,
   0.341049;0.027457;0.939645;,
   0.338431;0.228510;0.912824;,
   0.877488;0.326250;0.351533;,
   0.528397;0.187194;0.828103;,
   0.984412;0.120718;-0.127909;,
   0.836180;0.196469;0.512058;,
   0.520325;-0.018105;0.853776;,
   0.953962;0.298913;0.024666;,
   0.771331;0.032736;0.635591;,
   0.943776;0.315880;-0.097505;,
   0.950308;0.060715;0.305334;,
   0.692693;-0.247865;0.677303;,
   0.985057;0.142272;-0.097064;,
   0.881806;-0.292575;0.369889;,
   0.920766;0.337483;-0.195690;,
   0.994570;0.015523;-0.102909;,
   0.918144;-0.329457;0.220160;,
   0.976942;-0.094618;-0.191397;,
   0.890101;-0.455230;0.022046;,
   0.810609;-0.520414;-0.268483;,
   0.726172;-0.472456;-0.499459;,
   0.943395;0.072404;-0.323672;,
   0.771315;-0.324125;-0.547737;,
   0.980834;0.107902;-0.162237;,
   0.936115;0.077471;-0.343055;,
   0.839354;0.143570;-0.524283;,
   0.658874;-0.211117;-0.722021;,
   0.929102;0.092500;-0.358070;,
   0.667423;-0.071778;-0.741212;,
   0.887034;0.078242;-0.455027;,
   0.620531;-0.345820;-0.703811;,
   0.787581;-0.086571;-0.610099;,
   0.867365;0.069682;-0.492769;,
   0.880384;0.103916;-0.462738;,
   0.927353;0.251201;-0.277336;,
   0.950332;0.248161;-0.187842;,
   0.948652;0.316179;0.009505;,
   0.979076;0.196457;0.053048;,
   -0.667580;-0.197797;-0.717784;,
   -0.544636;-0.294938;-0.785101;,
   -0.618710;-0.207545;-0.757709;,
   -0.558961;-0.269266;-0.784256;,
   -0.988924;-0.025631;-0.146192;,
   -0.867363;-0.150775;-0.474288;,
   -0.643089;-0.144809;-0.751976;,
   -0.911722;0.051939;-0.407511;,
   -0.704401;-0.078919;-0.705401;,
   -0.683805;-0.185600;-0.705665;,
   -0.874528;0.191895;-0.445395;,
   -0.736417;0.207735;-0.643845;,
   -0.838948;0.274252;-0.470056;,
   -0.922196;0.368815;0.116318;,
   -0.890158;0.442415;-0.109033;,
   -0.760736;0.566049;-0.317599;,
   -0.816779;0.286996;-0.500506;,
   -0.434279;0.124352;-0.892154;,
   -0.161492;0.255202;-0.953306;,
   -0.838683;0.493446;-0.230484;,
   -0.673373;0.562716;-0.479499;,
   -0.301548;0.403141;-0.864029;,
   -0.834575;0.504925;-0.220307;,
   -0.769858;0.521120;-0.368445;,
   -0.575353;0.236511;-0.782963;,
   -0.575749;-0.071584;-0.814487;,
   -0.660100;0.613647;-0.433249;,
   -0.793721;0.493944;-0.355002;,
   -0.704275;0.547826;-0.451534;,
   -0.780287;0.401631;-0.479421;,
   -0.765783;0.482024;-0.425711;,
   -0.882832;0.437791;-0.170136;,
   -0.776259;0.394365;-0.491832;,
   -0.912355;0.379000;0.154813;,
   -0.925153;0.371885;0.076119;,
   -0.653749;0.510858;-0.558243;,
   -0.770230;0.522114;-0.366255;,
   -0.931190;0.350743;0.099322;,
   -0.648327;0.513635;-0.562006;,
   -0.931219;0.357194;0.072415;,
   -0.813087;0.537955;-0.222474;,
   -0.727683;0.466094;-0.503223;,
   -0.776707;0.441816;-0.448915;,
   -0.861790;0.496278;0.105010;,
   -0.795467;0.446251;-0.409990;,
   -0.833557;0.550196;-0.049670;,
   -0.974795;0.204769;-0.088567;,
   -0.648012;-0.527046;-0.549821;,
   -0.943664;0.324593;-0.064331;,
   -0.613429;-0.080631;-0.785623;,
   -0.609276;0.390487;-0.690147;,
   -0.973174;0.223927;-0.052805;,
   -0.899132;0.434545;-0.052275;,
   -0.681882;0.559346;-0.471348;,
   -0.959716;0.280852;0.008183;,
   -0.952937;0.299218;0.048778;,
   -0.661456;0.689077;-0.296056;,
   -0.428828;0.846017;-0.316800;,
   -0.953985;0.263236;-0.143597;,
   -0.927953;0.343406;-0.144830;,
   -0.918963;0.374281;-0.124181;,
   -0.856554;0.309134;-0.413221;,
   -0.858917;0.342591;-0.380647;,
   -0.777631;0.387702;-0.494951;,
   -0.867446;0.374948;-0.327034;,
   -0.521221;0.790520;-0.321569;,
   0.315588;0.925608;-0.208937;,
   0.513368;0.839345;-0.178755;,
   -0.417609;0.878889;-0.230557;,
   0.072672;0.990472;0.116983;,
   0.646998;0.762414;0.010887;,
   -0.737601;0.672855;0.056666;,
   0.664201;0.746236;0.044374;,
   -0.478025;0.838635;0.261119;,
   0.032346;0.975621;0.217065;,
   0.630576;0.769772;0.099125;,
   -0.654739;0.734141;0.179872;,
   -0.029541;0.924490;0.380060;,
   0.503111;0.686311;0.525221;,
   -0.374807;0.868461;0.324492;,
   -0.074680;0.270448;0.959834;,
   0.382062;0.244860;0.891107;,
   -0.440562;0.724866;0.529598;,
   -0.703991;0.642329;0.303003;,
   -0.262060;0.435620;0.861138;,
   -0.875765;0.446351;0.183863;,
   -0.495226;0.603274;0.625149;,
   -0.588148;0.622268;0.516589;,
   -0.931113;0.336269;0.141253;,
   -0.803434;0.485128;0.345173;,
   0.056539;0.462882;0.884615;,
   -0.079042;0.461183;0.883778;,
   0.163313;-0.037357;0.985867;,
   0.341049;0.027457;0.939645;,
   0.197111;0.140134;0.970314;,
   0.338431;0.228510;0.912824;,
   0.335157;0.254943;0.907014;,
   0.196335;0.330052;0.923319;,
   0.342923;0.296814;0.891238;,
   0.528397;0.187194;0.828103;,
   0.314657;0.174411;0.933044;,
   0.520325;-0.018105;0.853776;,
   0.315743;0.266952;0.910518;,
   0.294333;0.307277;0.904958;,
   0.411668;0.212181;0.886289;,
   0.642158;0.048376;0.765045;,
   0.692693;-0.247865;0.677303;,
   0.729359;-0.164088;0.664162;,
   0.174956;0.224940;0.958537;,
   0.495367;0.180890;0.849641;,
   0.654609;0.005443;0.755948;,
   0.810938;-0.310150;0.496172;,
   0.308654;0.056535;0.949493;,
   0.158685;0.177677;0.971211;,
   0.638375;-0.134734;0.757842;,
   0.866659;-0.342691;0.362581;,
   0.466077;-0.051711;0.883232;,
   0.979988;-0.163057;0.114177;,
   0.229940;0.145040;0.962336;,
   0.473969;0.107485;0.873957;,
   0.571632;-0.076184;0.816965;,
   0.288307;0.214592;0.933182;,
   0.871421;-0.241168;0.427158;,
   0.797112;-0.603777;-0.008113;,
   0.515015;-0.460811;0.722781;,
   0.708070;-0.623486;0.331515;,
   0.319110;-0.016207;0.947579;,
   0.417260;-0.423599;0.804026;,
   0.603696;-0.665589;0.438797;,
   0.331881;-0.402990;0.852909;,
   0.267431;-0.472412;0.839826;,
   0.246079;-0.590182;0.768850;,
   0.345609;-0.924066;0.163270;,
   0.213546;-0.436298;0.874095;,
   -0.233465;-0.857153;0.459112;,
   0.245845;-0.922267;-0.298302;,
   -0.363103;-0.928083;-0.082575;,
   0.181607;-0.466429;0.865716;,
   0.057408;-0.638526;0.767456;,
   0.149035;-0.496218;0.855311;,
   -0.941315;-0.048810;0.333981;,
   -0.742994;-0.634741;-0.212283;,
   -0.628444;-0.707953;-0.322274;,
   -0.672669;-0.225158;0.704855;,
   -0.389375;-0.304996;0.869117;,
   -0.910244;-0.115126;0.397747;,
   -0.436886;-0.892920;-0.108739;,
   -0.912965;-0.003238;0.408026;,
   -0.865000;-0.280406;0.416110;,
   -0.923126;0.031554;0.383200;,
   -0.696477;-0.549162;-0.461888;,
   -0.846403;-0.329884;-0.418066;,
   -0.937022;0.024315;0.348423;,
   -0.963898;-0.085697;0.252105;,
   -0.912249;0.340710;0.227416;,
   -0.936443;0.232632;0.262597;,
   -0.948998;0.288821;0.126431;,
   -0.929407;0.250937;0.270618;,
   -0.921733;0.003634;0.387809;,
   -0.936486;0.104767;0.334692;,
   -0.879041;-0.017979;0.476408;,
   -0.901820;0.074054;0.425720;,
   -0.926724;0.043152;0.373256;,
   -0.933686;0.119716;0.337489;,
   -0.930134;0.330284;0.160511;,
   -0.960957;0.097632;0.258901;,
   -0.946152;0.303329;0.113086;,
   -0.971177;0.039910;0.234996;,
   -0.970348;0.089361;0.224588;,
   -0.903261;0.366379;0.223352;,
   -0.971034;0.118088;0.207724;,
   -0.317899;0.400212;0.859518;,
   -0.431112;0.361614;0.826667;,
   0.252094;0.146578;0.956537;,
   -0.577653;0.238662;0.780613;,
   0.201943;0.122363;0.971723;,
   0.165310;0.183969;0.968931;,
   0.125412;0.193321;0.973087;,
   -0.386013;0.205691;0.899269;,
   0.152018;0.227130;0.961927;,
   -0.606751;0.316098;0.729339;,
   0.079678;0.216720;0.972977;,
   0.171275;0.251245;0.952649;,
   0.215631;-0.077498;0.973395;,
   -0.081039;-0.169098;0.982262;,
   -0.492234;0.028193;0.870006;,
   -0.913550;0.127716;0.386153;,
   -0.676828;-0.213336;0.704551;,
   -0.286798;-0.321820;0.902319;,
   -0.668836;-0.072133;0.739902;,
   -0.909962;0.056114;0.410878;,
   -0.564078;-0.145684;0.812768;,
   -0.083166;-0.424282;0.901703;,
   -0.617840;-0.279646;0.734896;,
   -0.800826;-0.539485;0.260063;;
   632;
   3;0,1,2;,
   3;2,3,0;,
   3;4,3,2;,
   3;5,0,3;,
   3;3,4,6;,
   3;3,7,5;,
   3;7,3,6;,
   3;8,6,4;,
   3;9,8,4;,
   3;8,9,10;,
   3;11,6,8;,
   3;10,11,8;,
   3;7,6,11;,
   3;12,11,10;,
   3;10,13,12;,
   3;14,7,11;,
   3;12,14,11;,
   3;5,7,15;,
   3;7,14,15;,
   3;15,16,5;,
   3;16,15,17;,
   3;17,15,14;,
   3;17,18,16;,
   3;19,18,17;,
   3;14,12,20;,
   3;17,21,19;,
   3;22,19,21;,
   3;14,23,17;,
   3;21,17,23;,
   3;23,14,20;,
   3;21,24,22;,
   3;24,25,22;,
   3;26,25,24;,
   3;25,26,27;,
   3;28,26,24;,
   3;28,24,21;,
   3;26,29,27;,
   3;29,26,28;,
   3;27,29,30;,
   3;30,29,31;,
   3;21,32,28;,
   3;33,29,28;,
   3;32,33,28;,
   3;34,31,29;,
   3;29,33,34;,
   3;31,34,35;,
   3;35,36,31;,
   3;37,34,33;,
   3;38,36,35;,
   3;39,36,38;,
   3;38,40,39;,
   3;35,34,41;,
   3;41,38,35;,
   3;34,37,41;,
   3;40,38,42;,
   3;41,42,38;,
   3;43,40,42;,
   3;37,44,41;,
   3;45,43,42;,
   3;46,37,33;,
   3;44,37,46;,
   3;33,32,46;,
   3;43,45,47;,
   3;43,47,48;,
   3;49,45,42;,
   3;49,47,45;,
   3;42,41,49;,
   3;50,48,47;,
   3;49,50,47;,
   3;41,51,49;,
   3;44,51,41;,
   3;49,51,52;,
   3;44,52,51;,
   3;50,49,52;,
   3;52,44,46;,
   3;48,50,53;,
   3;53,54,48;,
   3;50,52,55;,
   3;56,54,53;,
   3;56,57,54;,
   3;53,50,58;,
   3;50,55,58;,
   3;59,56,53;,
   3;59,53,58;,
   3;60,57,56;,
   3;59,60,56;,
   3;60,61,57;,
   3;60,62,61;,
   3;52,63,55;,
   3;58,55,63;,
   3;46,63,52;,
   3;62,60,64;,
   3;60,59,64;,
   3;65,62,64;,
   3;65,64,66;,
   3;67,66,64;,
   3;68,69,67;,
   3;70,68,67;,
   3;70,67,71;,
   3;64,71,67;,
   3;72,70,71;,
   3;73,71,64;,
   3;59,73,64;,
   3;71,74,72;,
   3;71,73,74;,
   3;75,72,74;,
   3;72,75,76;,
   3;77,74,73;,
   3;75,74,77;,
   3;73,59,78;,
   3;77,73,78;,
   3;58,78,59;,
   3;79,76,75;,
   3;76,79,80;,
   3;78,58,81;,
   3;58,63,81;,
   3;81,63,46;,
   3;32,81,46;,
   3;82,78,81;,
   3;78,82,77;,
   3;83,81,32;,
   3;81,83,82;,
   3;83,32,21;,
   3;23,83,21;,
   3;84,83,23;,
   3;83,84,82;,
   3;20,84,23;,
   3;84,85,82;,
   3;77,82,85;,
   3;84,20,86;,
   3;85,84,86;,
   3;85,87,77;,
   3;87,85,86;,
   3;77,87,75;,
   3;75,87,79;,
   3;86,79,87;,
   3;86,88,79;,
   3;79,88,80;,
   3;86,89,88;,
   3;89,80,88;,
   3;20,89,86;,
   3;80,89,13;,
   3;12,89,20;,
   3;89,12,13;,
   3;90,91,92;,
   3;92,93,90;,
   3;93,92,94;,
   3;95,93,94;,
   3;96,90,93;,
   3;90,96,97;,
   3;97,96,98;,
   3;95,99,93;,
   3;93,99,96;,
   3;95,100,99;,
   3;101,100,95;,
   3;102,98,96;,
   3;102,103,98;,
   3;104,96,99;,
   3;96,104,102;,
   3;99,100,105;,
   3;105,104,99;,
   3;106,100,101;,
   3;105,100,106;,
   3;107,106,101;,
   3;108,104,105;,
   3;109,106,107;,
   3;110,109,107;,
   3;106,111,105;,
   3;111,106,109;,
   3;111,112,105;,
   3;105,112,108;,
   3;109,113,111;,
   3;112,111,113;,
   3;114,109,110;,
   3;114,113,109;,
   3;115,114,110;,
   3;113,116,112;,
   3;116,113,114;,
   3;115,117,114;,
   3;116,114,117;,
   3;115,118,117;,
   3;118,119,117;,
   3;119,120,117;,
   3;120,119,121;,
   3;120,122,117;,
   3;116,117,122;,
   3;123,120,121;,
   3;120,124,122;,
   3;124,120,123;,
   3;124,116,122;,
   3;125,123,121;,
   3;121,126,125;,
   3;127,125,126;,
   3;128,124,123;,
   3;125,128,123;,
   3;124,129,116;,
   3;129,124,128;,
   3;125,127,130;,
   3;130,127,131;,
   3;132,128,125;,
   3;130,132,125;,
   3;130,131,133;,
   3;134,133,131;,
   3;135,132,130;,
   3;133,135,130;,
   3;132,136,128;,
   3;136,129,128;,
   3;137,132,135;,
   3;132,137,136;,
   3;133,134,138;,
   3;134,139,138;,
   3;138,139,140;,
   3;140,141,138;,
   3;142,138,141;,
   3;138,143,133;,
   3;138,142,143;,
   3;133,143,135;,
   3;143,142,144;,
   3;145,135,143;,
   3;135,145,137;,
   3;144,146,143;,
   3;146,145,143;,
   3;146,144,147;,
   3;148,137,145;,
   3;147,149,146;,
   3;146,150,145;,
   3;146,149,150;,
   3;148,145,150;,
   3;151,149,147;,
   3;150,149,151;,
   3;147,152,151;,
   3;153,151,152;,
   3;150,151,153;,
   3;152,154,153;,
   3;153,155,150;,
   3;150,155,148;,
   3;156,153,154;,
   3;155,153,156;,
   3;157,156,154;,
   3;157,158,156;,
   3;159,158,157;,
   3;159,160,158;,
   3;158,160,161;,
   3;162,156,158;,
   3;161,162,158;,
   3;155,156,162;,
   3;161,163,162;,
   3;162,164,155;,
   3;164,148,155;,
   3;162,163,165;,
   3;165,164,162;,
   3;163,166,165;,
   3;163,167,166;,
   3;166,167,103;,
   3;164,165,168;,
   3;103,169,166;,
   3;103,102,169;,
   3;166,170,165;,
   3;166,169,170;,
   3;165,170,168;,
   3;169,102,171;,
   3;102,104,171;,
   3;108,171,104;,
   3;170,169,172;,
   3;172,169,171;,
   3;171,108,173;,
   3;172,171,173;,
   3;112,173,108;,
   3;173,112,116;,
   3;116,129,173;,
   3;170,172,174;,
   3;174,172,173;,
   3;174,168,170;,
   3;175,173,129;,
   3;175,174,173;,
   3;175,129,136;,
   3;168,174,176;,
   3;176,174,175;,
   3;177,175,136;,
   3;175,177,176;,
   3;137,177,136;,
   3;148,177,137;,
   3;168,176,178;,
   3;176,177,178;,
   3;148,178,177;,
   3;178,164,168;,
   3;178,148,164;,
   3;179,180,181;,
   3;182,180,179;,
   3;183,179,181;,
   3;181,184,183;,
   3;179,185,182;,
   3;179,183,186;,
   3;185,179,186;,
   3;187,182,185;,
   3;182,187,188;,
   3;186,189,185;,
   3;185,190,187;,
   3;190,185,189;,
   3;188,187,191;,
   3;190,191,187;,
   3;192,189,186;,
   3;193,190,189;,
   3;189,192,193;,
   3;194,191,190;,
   3;190,193,194;,
   3;191,195,188;,
   3;195,196,188;,
   3;197,196,195;,
   3;194,198,191;,
   3;195,199,197;,
   3;199,200,197;,
   3;195,191,201;,
   3;199,195,201;,
   3;198,201,191;,
   3;202,200,199;,
   3;200,202,203;,
   3;204,203,202;,
   3;201,205,199;,
   3;199,205,202;,
   3;206,205,201;,
   3;201,198,206;,
   3;205,206,207;,
   3;207,202,205;,
   3;198,208,206;,
   3;208,207,206;,
   3;209,198,194;,
   3;208,198,209;,
   3;209,194,193;,
   3;208,209,210;,
   3;193,210,209;,
   3;210,211,208;,
   3;212,210,193;,
   3;212,193,192;,
   3;210,213,211;,
   3;213,210,212;,
   3;211,214,208;,
   3;207,208,214;,
   3;213,215,211;,
   3;215,214,211;,
   3;212,216,213;,
   3;214,215,217;,
   3;218,215,213;,
   3;216,218,213;,
   3;217,215,219;,
   3;218,219,215;,
   3;214,217,220;,
   3;220,207,214;,
   3;219,221,217;,
   3;220,217,221;,
   3;222,219,218;,
   3;223,207,220;,
   3;202,207,223;,
   3;224,219,222;,
   3;224,221,219;,
   3;223,225,202;,
   3;202,225,204;,
   3;226,204,225;,
   3;225,227,226;,
   3;227,228,226;,
   3;227,229,228;,
   3;225,223,230;,
   3;227,225,230;,
   3;227,231,229;,
   3;231,232,229;,
   3;230,233,227;,
   3;231,227,233;,
   3;234,232,231;,
   3;233,234,231;,
   3;232,234,235;,
   3;235,234,236;,
   3;230,237,233;,
   3;234,238,236;,
   3;234,233,239;,
   3;237,239,233;,
   3;234,239,238;,
   3;240,237,230;,
   3;239,237,240;,
   3;240,230,223;,
   3;220,240,223;,
   3;241,238,239;,
   3;239,240,241;,
   3;242,240,220;,
   3;242,241,240;,
   3;221,242,220;,
   3;221,243,242;,
   3;243,241,242;,
   3;224,243,221;,
   3;244,238,241;,
   3;236,238,244;,
   3;245,236,244;,
   3;245,244,246;,
   3;241,247,244;,
   3;246,244,247;,
   3;247,241,243;,
   3;246,247,248;,
   3;248,249,246;,
   3;247,243,250;,
   3;247,250,248;,
   3;250,243,224;,
   3;251,249,248;,
   3;224,252,250;,
   3;248,250,252;,
   3;253,251,248;,
   3;248,252,253;,
   3;254,251,253;,
   3;224,255,252;,
   3;256,254,253;,
   3;257,254,256;,
   3;258,253,252;,
   3;253,258,256;,
   3;258,252,255;,
   3;257,256,259;,
   3;257,259,260;,
   3;261,256,258;,
   3;255,261,258;,
   3;259,256,261;,
   3;224,262,255;,
   3;255,262,261;,
   3;224,222,262;,
   3;261,263,259;,
   3;262,222,264;,
   3;264,222,218;,
   3;262,265,261;,
   3;265,263,261;,
   3;264,266,262;,
   3;262,266,265;,
   3;264,218,267;,
   3;267,218,216;,
   3;264,268,266;,
   3;267,268,264;,
   3;265,266,269;,
   3;269,263,265;,
   3;266,268,270;,
   3;270,269,266;,
   3;263,271,259;,
   3;271,263,269;,
   3;260,259,271;,
   3;271,272,260;,
   3;271,273,272;,
   3;273,271,269;,
   3;272,273,274;,
   3;269,275,273;,
   3;270,275,269;,
   3;274,273,276;,
   3;275,276,273;,
   3;276,277,274;,
   3;278,274,277;,
   3;278,277,279;,
   3;276,279,277;,
   3;279,280,278;,
   3;275,281,276;,
   3;279,276,282;,
   3;276,281,282;,
   3;280,279,283;,
   3;279,282,283;,
   3;284,280,283;,
   3;280,284,285;,
   3;285,284,286;,
   3;282,287,283;,
   3;282,281,287;,
   3;284,283,288;,
   3;288,283,287;,
   3;286,284,289;,
   3;288,289,284;,
   3;289,290,286;,
   3;291,288,287;,
   3;288,291,289;,
   3;287,281,292;,
   3;291,287,292;,
   3;290,289,293;,
   3;293,294,290;,
   3;291,295,289;,
   3;289,295,293;,
   3;296,294,293;,
   3;291,297,295;,
   3;292,297,291;,
   3;293,295,298;,
   3;296,293,298;,
   3;297,298,295;,
   3;296,298,299;,
   3;297,300,298;,
   3;300,299,298;,
   3;299,301,296;,
   3;302,296,301;,
   3;299,302,301;,
   3;299,303,302;,
   3;302,303,304;,
   3;299,300,305;,
   3;303,299,305;,
   3;303,306,304;,
   3;304,306,307;,
   3;305,308,303;,
   3;308,306,303;,
   3;306,309,307;,
   3;308,309,306;,
   3;307,309,310;,
   3;307,310,311;,
   3;308,312,309;,
   3;313,311,310;,
   3;313,314,311;,
   3;313,315,314;,
   3;310,309,316;,
   3;312,316,309;,
   3;317,313,310;,
   3;316,318,310;,
   3;317,310,318;,
   3;315,313,319;,
   3;315,319,320;,
   3;321,320,319;,
   3;317,322,313;,
   3;319,313,322;,
   3;318,323,317;,
   3;322,317,323;,
   3;319,324,321;,
   3;324,325,321;,
   3;319,322,326;,
   3;324,319,326;,
   3;322,327,326;,
   3;323,327,322;,
   3;325,324,328;,
   3;328,329,325;,
   3;328,330,329;,
   3;324,326,331;,
   3;328,324,331;,
   3;332,326,327;,
   3;326,332,331;,
   3;330,328,333;,
   3;333,328,331;,
   3;333,334,330;,
   3;330,334,184;,
   3;335,333,331;,
   3;331,332,335;,
   3;336,334,333;,
   3;333,335,336;,
   3;184,334,337;,
   3;336,337,334;,
   3;337,183,184;,
   3;337,338,183;,
   3;186,183,338;,
   3;338,192,186;,
   3;338,337,339;,
   3;337,336,339;,
   3;192,338,340;,
   3;339,340,338;,
   3;212,192,340;,
   3;341,339,336;,
   3;340,339,341;,
   3;340,342,212;,
   3;341,342,340;,
   3;212,342,343;,
   3;212,343,216;,
   3;216,343,267;,
   3;344,342,341;,
   3;342,344,343;,
   3;345,341,336;,
   3;336,335,345;,
   3;341,346,344;,
   3;345,346,341;,
   3;343,344,347;,
   3;344,346,347;,
   3;343,348,267;,
   3;348,343,347;,
   3;267,348,268;,
   3;346,349,347;,
   3;349,346,345;,
   3;348,350,268;,
   3;268,350,270;,
   3;348,351,350;,
   3;350,352,270;,
   3;352,350,351;,
   3;352,275,270;,
   3;352,281,275;,
   3;281,352,292;,
   3;351,348,353;,
   3;347,353,348;,
   3;352,351,354;,
   3;353,354,351;,
   3;355,292,352;,
   3;352,354,355;,
   3;297,292,355;,
   3;354,353,356;,
   3;355,354,356;,
   3;353,347,357;,
   3;353,357,356;,
   3;347,349,357;,
   3;355,358,297;,
   3;356,358,355;,
   3;358,300,297;,
   3;349,359,357;,
   3;356,357,359;,
   3;359,349,345;,
   3;356,360,358;,
   3;359,360,356;,
   3;358,361,300;,
   3;358,360,361;,
   3;361,305,300;,
   3;305,361,362;,
   3;360,362,361;,
   3;362,308,305;,
   3;362,312,308;,
   3;360,363,362;,
   3;363,312,362;,
   3;359,364,360;,
   3;363,360,364;,
   3;365,359,345;,
   3;364,359,365;,
   3;335,365,345;,
   3;366,363,364;,
   3;364,365,366;,
   3;312,363,367;,
   3;367,363,366;,
   3;312,367,316;,
   3;365,368,366;,
   3;367,366,368;,
   3;335,369,365;,
   3;369,368,365;,
   3;335,332,369;,
   3;367,368,370;,
   3;369,370,368;,
   3;316,367,371;,
   3;367,370,371;,
   3;371,318,316;,
   3;323,318,371;,
   3;371,370,372;,
   3;323,371,372;,
   3;369,372,370;,
   3;323,372,373;,
   3;373,372,369;,
   3;332,373,369;,
   3;373,327,323;,
   3;327,373,332;;
  }

  MeshMaterialList {
   1;
   632;
   0,
   0,
   0,
   0,
   0,
   0,
   0,
   0,
   0,
   0,
   0,
   0,
   0,
   0,
   0,
   0,
   0,
   0,
   0,
   0,
   0,
   0,
   0,
   0,
   0,
   0,
   0,
   0,
   0,
   0,
   0,
   0,
   0,
   0,
   0,
   0,
   0,
   0,
   0,
   0,
   0,
   0,
   0,
   0,
   0,
   0,
   0,
   0,
   0,
   0,
   0,
   0,
   0,
   0,
   0,
   0,
   0,
   0,
   0,
   0,
   0,
   0,
   0,
   0,
   0,
   0,
   0,
   0,
   0,
   0,
   0,
   0,
   0,
   0,
   0,
   0,
   0,
   0,
   0,
   0,
   0,
   0,
   0,
   0,
   0,
   0,
   0,
   0,
   0,
   0,
   0,
   0,
   0,
   0,
   0,
   0,
   0,
   0,
   0,
   0,
   0,
   0,
   0,
   0,
   0,
   0,
   0,
   0,
   0,
   0,
   0,
   0,
   0,
   0,
   0,
   0,
   0,
   0,
   0,
   0,
   0,
   0,
   0,
   0,
   0,
   0,
   0,
   0,
   0,
   0,
   0,
   0,
   0,
   0,
   0,
   0,
   0,
   0,
   0,
   0,
   0,
   0,
   0,
   0,
   0,
   0,
   0,
   0,
   0,
   0,
   0,
   0,
   0,
   0,
   0,
   0,
   0,
   0,
   0,
   0,
   0,
   0,
   0,
   0,
   0,
   0,
   0,
   0,
   0,
   0,
   0,
   0,
   0,
   0,
   0,
   0,
   0,
   0,
   0,
   0,
   0,
   0,
   0,
   0,
   0,
   0,
   0,
   0,
   0,
   0,
   0,
   0,
   0,
   0,
   0,
   0,
   0,
   0,
   0,
   0,
   0,
   0,
   0,
   0,
   0,
   0,
   0,
   0,
   0,
   0,
   0,
   0,
   0,
   0,
   0,
   0,
   0,
   0,
   0,
   0,
   0,
   0,
   0,
   0,
   0,
   0,
   0,
   0,
   0,
   0,
   0,
   0,
   0,
   0,
   0,
   0,
   0,
   0,
   0,
   0,
   0,
   0,
   0,
   0,
   0,
   0,
   0,
   0,
   0,
   0,
   0,
   0,
   0,
   0,
   0,
   0,
   0,
   0,
   0,
   0,
   0,
   0,
   0,
   0,
   0,
   0,
   0,
   0,
   0,
   0,
   0,
   0,
   0,
   0,
   0,
   0,
   0,
   0,
   0,
   0,
   0,
   0,
   0,
   0,
   0,
   0,
   0,
   0,
   0,
   0,
   0,
   0,
   0,
   0,
   0,
   0,
   0,
   0,
   0,
   0,
   0,
   0,
   0,
   0,
   0,
   0,
   0,
   0,
   0,
   0,
   0,
   0,
   0,
   0,
   0,
   0,
   0,
   0,
   0,
   0,
   0,
   0,
   0,
   0,
   0,
   0,
   0,
   0,
   0,
   0,
   0,
   0,
   0,
   0,
   0,
   0,
   0,
   0,
   0,
   0,
   0,
   0,
   0,
   0,
   0,
   0,
   0,
   0,
   0,
   0,
   0,
   0,
   0,
   0,
   0,
   0,
   0,
   0,
   0,
   0,
   0,
   0,
   0,
   0,
   0,
   0,
   0,
   0,
   0,
   0,
   0,
   0,
   0,
   0,
   0,
   0,
   0,
   0,
   0,
   0,
   0,
   0,
   0,
   0,
   0,
   0,
   0,
   0,
   0,
   0,
   0,
   0,
   0,
   0,
   0,
   0,
   0,
   0,
   0,
   0,
   0,
   0,
   0,
   0,
   0,
   0,
   0,
   0,
   0,
   0,
   0,
   0,
   0,
   0,
   0,
   0,
   0,
   0,
   0,
   0,
   0,
   0,
   0,
   0,
   0,
   0,
   0,
   0,
   0,
   0,
   0,
   0,
   0,
   0,
   0,
   0,
   0,
   0,
   0,
   0,
   0,
   0,
   0,
   0,
   0,
   0,
   0,
   0,
   0,
   0,
   0,
   0,
   0,
   0,
   0,
   0,
   0,
   0,
   0,
   0,
   0,
   0,
   0,
   0,
   0,
   0,
   0,
   0,
   0,
   0,
   0,
   0,
   0,
   0,
   0,
   0,
   0,
   0,
   0,
   0,
   0,
   0,
   0,
   0,
   0,
   0,
   0,
   0,
   0,
   0,
   0,
   0,
   0,
   0,
   0,
   0,
   0,
   0,
   0,
   0,
   0,
   0,
   0,
   0,
   0,
   0,
   0,
   0,
   0,
   0,
   0,
   0,
   0,
   0,
   0,
   0,
   0,
   0,
   0,
   0,
   0,
   0,
   0,
   0,
   0,
   0,
   0,
   0,
   0,
   0,
   0,
   0,
   0,
   0,
   0,
   0,
   0,
   0,
   0,
   0,
   0,
   0,
   0,
   0,
   0,
   0,
   0,
   0,
   0,
   0,
   0,
   0,
   0,
   0,
   0,
   0,
   0,
   0,
   0,
   0,
   0,
   0,
   0,
   0,
   0,
   0,
   0,
   0,
   0,
   0,
   0,
   0,
   0,
   0,
   0,
   0,
   0,
   0,
   0,
   0,
   0,
   0,
   0,
   0,
   0,
   0,
   0,
   0,
   0,
   0,
   0,
   0,
   0,
   0,
   0,
   0,
   0,
   0,
   0,
   0,
   0,
   0,
   0,
   0,
   0,
   0,
   0,
   0,
   0,
   0,
   0,
   0,
   0,
   0,
   0,
   0,
   0,
   0,
   0,
   0,
   0,
   0,
   0,
   0,
   0,
   0,
   0,
   0,
   0,
   0,
   0,
   0;
   { MI_rockS_4 }
  }

  MeshTextureCoords c1 {
   374;
   0.049957;0.055969;,
   0.039520;0.011810;,
   0.075500;0.005932;,
   0.088867;0.045563;,
   0.108826;0.014519;,
   0.063293;0.100098;,
   0.120422;0.048645;,
   0.114624;0.083435;,
   0.143433;0.029510;,
   0.134277;0.003494;,
   0.174683;0.007282;,
   0.164795;0.048798;,
   0.202515;0.055786;,
   0.209717;0.019882;,
   0.154053;0.106812;,
   0.101624;0.122986;,
   0.076660;0.135376;,
   0.131104;0.160156;,
   0.080200;0.171875;,
   0.077454;0.201050;,
   0.221313;0.090637;,
   0.121216;0.209229;,
   0.062469;0.240234;,
   0.182495;0.142944;,
   0.086853;0.250977;,
   0.049225;0.286621;,
   0.084717;0.292480;,
   0.057556;0.330566;,
   0.113953;0.273682;,
   0.117310;0.316162;,
   0.075256;0.361816;,
   0.108032;0.376709;,
   0.152588;0.251953;,
   0.146240;0.304199;,
   0.159790;0.345215;,
   0.145020;0.377441;,
   0.131958;0.411133;,
   0.183838;0.318604;,
   0.177002;0.402344;,
   0.163940;0.473633;,
   0.200928;0.452393;,
   0.206787;0.350342;,
   0.207031;0.415771;,
   0.243408;0.431397;,
   0.214600;0.320068;,
   0.240601;0.402344;,
   0.223511;0.296143;,
   0.283203;0.385498;,
   0.306152;0.391846;,
   0.241089;0.360107;,
   0.295898;0.346191;,
   0.232178;0.340576;,
   0.252930;0.323975;,
   0.340088;0.337646;,
   0.356689;0.353271;,
   0.275879;0.317627;,
   0.382813;0.321533;,
   0.407959;0.346680;,
   0.306641;0.293457;,
   0.356689;0.280273;,
   0.422119;0.304199;,
   0.440918;0.343262;,
   0.463135;0.296387;,
   0.246704;0.288818;,
   0.430908;0.242188;,
   0.499512;0.266846;,
   0.499268;0.239868;,
   0.500000;0.209595;,
   0.516602;0.159546;,
   0.517090;0.183105;,
   0.489746;0.137939;,
   0.436768;0.199829;,
   0.453369;0.098083;,
   0.379639;0.208740;,
   0.403564;0.137207;,
   0.398193;0.096985;,
   0.338867;0.041534;,
   0.344727;0.151367;,
   0.314697;0.240723;,
   0.317627;0.066528;,
   0.279053;0.024963;,
   0.228271;0.229248;,
   0.295410;0.166382;,
   0.212158;0.184082;,
   0.240356;0.124084;,
   0.291748;0.115845;,
   0.276855;0.085327;,
   0.340820;0.098633;,
   0.280518;0.052673;,
   0.240479;0.056427;,
   0.584473;0.078369;,
   0.590332;0.010971;,
   0.610352;0.024231;,
   0.616211;0.057129;,
   0.636719;0.029755;,
   0.662598;0.035767;,
   0.611816;0.118652;,
   0.586426;0.119446;,
   0.607422;0.147949;,
   0.655273;0.094727;,
   0.685059;0.057190;,
   0.704590;0.022369;,
   0.663086;0.161621;,
   0.615723;0.182129;,
   0.667969;0.130127;,
   0.705566;0.100464;,
   0.713867;0.046295;,
   0.746582;0.007782;,
   0.707520;0.144287;,
   0.762207;0.041473;,
   0.779297;0.011986;,
   0.736328;0.081543;,
   0.731445;0.122375;,
   0.760742;0.076904;,
   0.800781;0.063171;,
   0.830078;0.022781;,
   0.775391;0.125244;,
   0.820313;0.095215;,
   0.876953;0.051605;,
   0.910156;0.097168;,
   0.873047;0.131592;,
   0.904297;0.151245;,
   0.832520;0.118225;,
   0.867188;0.167236;,
   0.832031;0.158936;,
   0.876465;0.217773;,
   0.915039;0.197266;,
   0.922363;0.254639;,
   0.837891;0.205566;,
   0.791992;0.169434;,
   0.878906;0.277588;,
   0.926758;0.305664;,
   0.837891;0.268555;,
   0.886719;0.339355;,
   0.939941;0.355713;,
   0.834961;0.335205;,
   0.793945;0.239746;,
   0.789063;0.305664;,
   0.895020;0.390869;,
   0.939941;0.390869;,
   0.937988;0.416260;,
   0.905762;0.424561;,
   0.855957;0.434570;,
   0.833496;0.393066;,
   0.810547;0.440430;,
   0.786621;0.359375;,
   0.805176;0.416748;,
   0.769531;0.451660;,
   0.731934;0.327881;,
   0.760254;0.433594;,
   0.745117;0.382324;,
   0.712891;0.423828;,
   0.701660;0.443604;,
   0.688965;0.391113;,
   0.659668;0.419189;,
   0.711426;0.364014;,
   0.650391;0.380859;,
   0.620117;0.392334;,
   0.604980;0.352051;,
   0.589844;0.369385;,
   0.570313;0.337891;,
   0.572754;0.307373;,
   0.620605;0.314209;,
   0.587891;0.267578;,
   0.690430;0.319336;,
   0.653320;0.286133;,
   0.638184;0.232544;,
   0.610840;0.225952;,
   0.706055;0.269531;,
   0.666992;0.192871;,
   0.671875;0.242554;,
   0.687988;0.160400;,
   0.685547;0.197754;,
   0.732422;0.172607;,
   0.727539;0.221558;,
   0.765137;0.241211;,
   0.743164;0.274902;,
   0.759277;0.289307;,
   0.718750;0.308105;,
   0.362305;0.430664;,
   0.336670;0.390869;,
   0.394043;0.399414;,
   0.279785;0.426270;,
   0.406982;0.447998;,
   0.435547;0.413086;,
   0.322510;0.451660;,
   0.371338;0.461914;,
   0.266357;0.488281;,
   0.210571;0.462891;,
   0.346191;0.476074;,
   0.310791;0.486328;,
   0.262451;0.511230;,
   0.381836;0.506836;,
   0.342529;0.515625;,
   0.310059;0.524902;,
   0.218384;0.517578;,
   0.170898;0.489990;,
   0.160034;0.532715;,
   0.268066;0.561523;,
   0.187866;0.543945;,
   0.143311;0.555664;,
   0.241333;0.554688;,
   0.155640;0.605957;,
   0.129883;0.583496;,
   0.111816;0.607910;,
   0.195923;0.585449;,
   0.227661;0.601074;,
   0.212769;0.635254;,
   0.244507;0.621094;,
   0.291748;0.569824;,
   0.316895;0.583496;,
   0.266846;0.640625;,
   0.385254;0.586914;,
   0.319092;0.635742;,
   0.237549;0.645996;,
   0.262451;0.691895;,
   0.359619;0.647461;,
   0.235107;0.693848;,
   0.307861;0.708984;,
   0.259521;0.767578;,
   0.212524;0.694336;,
   0.231445;0.746094;,
   0.291504;0.784180;,
   0.169556;0.673340;,
   0.243774;0.816895;,
   0.119080;0.643066;,
   0.069214;0.625488;,
   0.074890;0.680664;,
   0.033264;0.648926;,
   0.029404;0.677246;,
   0.138550;0.693359;,
   0.060394;0.693359;,
   0.032135;0.722168;,
   0.107666;0.718750;,
   0.080017;0.747559;,
   0.056488;0.762695;,
   0.079407;0.806641;,
   0.144653;0.739258;,
   0.115234;0.791016;,
   0.127441;0.759277;,
   0.168335;0.746094;,
   0.158447;0.800781;,
   0.201660;0.747070;,
   0.197021;0.813477;,
   0.126953;0.833984;,
   0.084473;0.857910;,
   0.114563;0.895508;,
   0.166748;0.854004;,
   0.193848;0.894531;,
   0.163452;0.937012;,
   0.206299;0.846191;,
   0.213867;0.963379;,
   0.226685;0.869629;,
   0.239868;0.918945;,
   0.271240;0.973145;,
   0.260010;0.855469;,
   0.285645;0.939941;,
   0.315186;0.978516;,
   0.269287;0.904297;,
   0.343018;0.937988;,
   0.347412;0.965820;,
   0.311279;0.901367;,
   0.292480;0.845215;,
   0.353760;0.898926;,
   0.337158;0.779297;,
   0.333252;0.882324;,
   0.348633;0.840332;,
   0.370850;0.706055;,
   0.384766;0.785156;,
   0.382080;0.882324;,
   0.410889;0.841797;,
   0.372803;0.922363;,
   0.388672;0.972168;,
   0.418945;0.935059;,
   0.447022;0.980469;,
   0.436523;0.880371;,
   0.460449;0.930176;,
   0.484619;0.970215;,
   0.493897;0.988281;,
   0.517578;0.934570;,
   0.539063;0.980957;,
   0.480469;0.881836;,
   0.496338;0.901367;,
   0.539551;0.913574;,
   0.589844;0.945313;,
   0.607422;0.993164;,
   0.620117;0.957031;,
   0.537109;0.873047;,
   0.566406;0.898438;,
   0.611816;0.897461;,
   0.649414;0.932617;,
   0.592285;0.869629;,
   0.539063;0.833008;,
   0.644043;0.875977;,
   0.658691;0.899414;,
   0.626465;0.858398;,
   0.692383;0.861816;,
   0.588867;0.820801;,
   0.637207;0.837402;,
   0.670898;0.811035;,
   0.620117;0.805176;,
   0.699219;0.838867;,
   0.727051;0.822754;,
   0.697754;0.773926;,
   0.733398;0.739258;,
   0.648926;0.770020;,
   0.709473;0.716309;,
   0.740234;0.664063;,
   0.666992;0.719238;,
   0.713867;0.656738;,
   0.719238;0.578613;,
   0.732910;0.525879;,
   0.639648;0.667480;,
   0.687500;0.475586;,
   0.709473;0.467773;,
   0.674316;0.444336;,
   0.667969;0.625488;,
   0.684570;0.527832;,
   0.680664;0.580078;,
   0.643066;0.447754;,
   0.647949;0.430420;,
   0.613281;0.416992;,
   0.662598;0.490967;,
   0.660645;0.534668;,
   0.599121;0.437744;,
   0.580566;0.401123;,
   0.615234;0.476807;,
   0.632813;0.514160;,
   0.564941;0.425781;,
   0.551270;0.386475;,
   0.497803;0.397705;,
   0.580078;0.466553;,
   0.594727;0.515625;,
   0.528320;0.461182;,
   0.480957;0.445068;,
   0.533203;0.538574;,
   0.476563;0.504883;,
   0.432129;0.453857;,
   0.412842;0.473389;,
   0.445313;0.526367;,
   0.420654;0.524414;,
   0.451172;0.585449;,
   0.433105;0.598145;,
   0.420410;0.685547;,
   0.452393;0.648926;,
   0.516602;0.622070;,
   0.476318;0.647461;,
   0.480957;0.684082;,
   0.434326;0.738281;,
   0.499756;0.675781;,
   0.440918;0.793457;,
   0.461426;0.764648;,
   0.472656;0.819336;,
   0.496094;0.722168;,
   0.512207;0.768066;,
   0.535645;0.790039;,
   0.552734;0.732422;,
   0.529297;0.701172;,
   0.572266;0.776855;,
   0.541504;0.677734;,
   0.590820;0.712891;,
   0.612305;0.758789;,
   0.639160;0.731445;,
   0.609863;0.660156;,
   0.566895;0.657715;,
   0.560547;0.610840;,
   0.574707;0.635254;,
   0.616211;0.632813;,
   0.591309;0.611816;,
   0.596191;0.543945;,
   0.611328;0.571289;,
   0.655273;0.590332;,
   0.612793;0.552734;,
   0.613281;0.520996;;
  }

  MeshTextureCoords c2 {
   374;
   0.974121;0.924805;,
   0.984863;0.968750;,
   0.948731;0.974609;,
   0.935547;0.935059;,
   0.915527;0.966309;,
   0.960938;0.880859;,
   0.903809;0.932129;,
   0.909668;0.897461;,
   0.880859;0.951172;,
   0.890137;0.977051;,
   0.849609;0.973633;,
   0.859375;0.932129;,
   0.821777;0.924805;,
   0.814453;0.960938;,
   0.870117;0.874023;,
   0.922852;0.857910;,
   0.947754;0.845215;,
   0.893066;0.820801;,
   0.944336;0.809082;,
   0.946777;0.779785;,
   0.803223;0.890137;,
   0.903320;0.771484;,
   0.961914;0.740723;,
   0.841797;0.837891;,
   0.937500;0.729980;,
   0.975098;0.694336;,
   0.939453;0.688477;,
   0.966797;0.650391;,
   0.910156;0.707520;,
   0.907227;0.665039;,
   0.949219;0.619141;,
   0.916016;0.604004;,
   0.871582;0.729004;,
   0.877930;0.676758;,
   0.864746;0.635742;,
   0.879395;0.603516;,
   0.892578;0.569824;,
   0.840332;0.662109;,
   0.847168;0.578613;,
   0.860352;0.507813;,
   0.823242;0.528809;,
   0.817383;0.630371;,
   0.817383;0.565430;,
   0.781250;0.549805;,
   0.810059;0.660645;,
   0.783691;0.578613;,
   0.800781;0.684570;,
   0.741211;0.595703;,
   0.718262;0.589355;,
   0.783203;0.621094;,
   0.728516;0.634766;,
   0.791992;0.640625;,
   0.771484;0.656738;,
   0.684570;0.643066;,
   0.667969;0.627441;,
   0.748535;0.663574;,
   0.641602;0.659180;,
   0.616699;0.634277;,
   0.717773;0.687500;,
   0.667969;0.700684;,
   0.602539;0.676758;,
   0.583496;0.637695;,
   0.561523;0.684570;,
   0.777832;0.691895;,
   0.593750;0.738770;,
   0.524902;0.713867;,
   0.525391;0.741211;,
   0.524902;0.771484;,
   0.507813;0.821289;,
   0.507324;0.797852;,
   0.535156;0.842773;,
   0.587891;0.780762;,
   0.571289;0.882813;,
   0.645020;0.771973;,
   0.620605;0.843750;,
   0.625977;0.883789;,
   0.685547;0.938965;,
   0.679688;0.829590;,
   0.709961;0.740234;,
   0.707031;0.914063;,
   0.745117;0.955566;,
   0.795898;0.751465;,
   0.729004;0.814453;,
   0.812012;0.796875;,
   0.784180;0.856934;,
   0.732910;0.864746;,
   0.747559;0.895508;,
   0.683594;0.882324;,
   0.743652;0.928223;,
   0.784180;0.924316;,
   0.380615;0.973145;,
   0.447998;0.967285;,
   0.434814;0.947266;,
   0.401855;0.940918;,
   0.429199;0.920898;,
   0.423096;0.895020;,
   0.340332;0.945801;,
   0.339600;0.971191;,
   0.311035;0.950195;,
   0.364258;0.902344;,
   0.401855;0.872559;,
   0.436523;0.853027;,
   0.297363;0.894531;,
   0.276855;0.941895;,
   0.328857;0.889160;,
   0.358643;0.851563;,
   0.412598;0.843262;,
   0.451172;0.810547;,
   0.314697;0.849609;,
   0.417480;0.794922;,
   0.447022;0.777832;,
   0.377441;0.820801;,
   0.336670;0.825684;,
   0.382080;0.796875;,
   0.395752;0.756348;,
   0.436279;0.727051;,
   0.333740;0.781738;,
   0.363770;0.736816;,
   0.407471;0.680176;,
   0.361816;0.646484;,
   0.327393;0.684082;,
   0.307861;0.652832;,
   0.340820;0.724609;,
   0.291992;0.689941;,
   0.300049;0.725098;,
   0.241455;0.680664;,
   0.261963;0.642090;,
   0.204468;0.634277;,
   0.253418;0.719238;,
   0.289795;0.765137;,
   0.181641;0.678223;,
   0.153442;0.630371;,
   0.190552;0.719238;,
   0.119812;0.670410;,
   0.103577;0.617188;,
   0.124084;0.722168;,
   0.219482;0.763184;,
   0.153564;0.768555;,
   0.068420;0.662109;,
   0.068542;0.617188;,
   0.043121;0.619141;,
   0.034882;0.651367;,
   0.024750;0.701172;,
   0.066345;0.723633;,
   0.019012;0.746582;,
   0.099792;0.770508;,
   0.042572;0.751953;,
   0.007813;0.787598;,
   0.131348;0.825195;,
   0.025879;0.797363;,
   0.077026;0.812012;,
   0.035645;0.844727;,
   0.015717;0.855469;,
   0.068298;0.868652;,
   0.040100;0.897461;,
   0.095398;0.846191;,
   0.078491;0.907227;,
   0.066895;0.937500;,
   0.107300;0.952637;,
   0.089844;0.967773;,
   0.121399;0.987305;,
   0.151978;0.984863;,
   0.145020;0.937012;,
   0.191528;0.969727;,
   0.139771;0.867188;,
   0.172974;0.904297;,
   0.226685;0.919434;,
   0.233276;0.946289;,
   0.189575;0.851563;,
   0.266357;0.890137;,
   0.216553;0.885742;,
   0.298584;0.869629;,
   0.261230;0.872070;,
   0.286377;0.824707;,
   0.237671;0.830078;,
   0.218018;0.792480;,
   0.184204;0.813965;,
   0.169922;0.797852;,
   0.151123;0.838867;,
   0.344482;0.052246;,
   0.318359;0.012238;,
   0.376465;0.020767;,
   0.260986;0.047638;,
   0.389404;0.069519;,
   0.418457;0.034515;,
   0.304199;0.073242;,
   0.353516;0.083435;,
   0.247437;0.109985;,
   0.191040;0.084473;,
   0.327881;0.097656;,
   0.292236;0.108093;,
   0.243408;0.133179;,
   0.364014;0.128540;,
   0.324463;0.137817;,
   0.291504;0.146851;,
   0.198853;0.139648;,
   0.150879;0.111694;,
   0.139893;0.154663;,
   0.249023;0.183594;,
   0.167969;0.166138;,
   0.122986;0.177612;,
   0.222046;0.176636;,
   0.135498;0.228027;,
   0.109436;0.205933;,
   0.091125;0.230103;,
   0.176147;0.207764;,
   0.208130;0.223145;,
   0.193237;0.257568;,
   0.225342;0.243408;,
   0.273193;0.192017;,
   0.298584;0.205933;,
   0.247925;0.262939;,
   0.367676;0.208984;,
   0.300537;0.258301;,
   0.218262;0.268555;,
   0.243408;0.314453;,
   0.341553;0.270020;,
   0.215698;0.316406;,
   0.289307;0.331787;,
   0.240479;0.390381;,
   0.192993;0.317139;,
   0.212036;0.368652;,
   0.272705;0.406982;,
   0.149414;0.296143;,
   0.224487;0.439941;,
   0.098450;0.265625;,
   0.048035;0.247803;,
   0.053802;0.303223;,
   0.011719;0.271240;,
   0.007813;0.299805;,
   0.118103;0.316162;,
   0.039124;0.316162;,
   0.010590;0.345215;,
   0.086914;0.341309;,
   0.058990;0.370361;,
   0.035187;0.385498;,
   0.058380;0.429932;,
   0.124268;0.361816;,
   0.094604;0.414063;,
   0.106934;0.382080;,
   0.148315;0.369141;,
   0.138306;0.423828;,
   0.181885;0.370117;,
   0.177246;0.436523;,
   0.106445;0.457275;,
   0.063477;0.481445;,
   0.093872;0.518555;,
   0.146606;0.477295;,
   0.174072;0.518066;,
   0.143311;0.560547;,
   0.186646;0.469238;,
   0.194214;0.586914;,
   0.207275;0.493164;,
   0.220581;0.542480;,
   0.252197;0.596680;,
   0.240967;0.478760;,
   0.266846;0.563477;,
   0.296631;0.602539;,
   0.250244;0.527832;,
   0.324951;0.561523;,
   0.329102;0.589844;,
   0.292725;0.524902;,
   0.273682;0.468750;,
   0.335693;0.521973;,
   0.318848;0.402344;,
   0.314941;0.505859;,
   0.330566;0.463623;,
   0.352783;0.328857;,
   0.367188;0.407959;,
   0.364258;0.505859;,
   0.393311;0.464844;,
   0.354980;0.545898;,
   0.371094;0.595703;,
   0.401611;0.558594;,
   0.430176;0.604004;,
   0.419434;0.503906;,
   0.443604;0.553711;,
   0.468018;0.593750;,
   0.477539;0.612305;,
   0.500977;0.558105;,
   0.522949;0.604492;,
   0.463867;0.505371;,
   0.479736;0.524902;,
   0.523438;0.537109;,
   0.574219;0.568848;,
   0.592285;0.617188;,
   0.604980;0.581055;,
   0.520996;0.496338;,
   0.550781;0.521973;,
   0.596191;0.520996;,
   0.634766;0.556152;,
   0.576660;0.493164;,
   0.522949;0.456543;,
   0.628906;0.499512;,
   0.644043;0.522461;,
   0.611816;0.481689;,
   0.678223;0.485352;,
   0.573242;0.443848;,
   0.622070;0.460693;,
   0.656250;0.434326;,
   0.604980;0.428223;,
   0.684570;0.462402;,
   0.713379;0.446289;,
   0.683105;0.396729;,
   0.719238;0.362061;,
   0.634277;0.393066;,
   0.695313;0.339111;,
   0.726074;0.286377;,
   0.652344;0.342041;,
   0.699707;0.279053;,
   0.705566;0.200806;,
   0.719238;0.147827;,
   0.625000;0.289795;,
   0.673340;0.097168;,
   0.695313;0.089478;,
   0.659668;0.065857;,
   0.653320;0.247925;,
   0.669922;0.149780;,
   0.666016;0.202148;,
   0.628418;0.069214;,
   0.632813;0.052002;,
   0.598145;0.038422;,
   0.647949;0.112793;,
   0.645996;0.156860;,
   0.583496;0.059265;,
   0.564941;0.022385;,
   0.599609;0.098511;,
   0.617676;0.135986;,
   0.548828;0.047180;,
   0.535645;0.007813;,
   0.481445;0.019043;,
   0.564453;0.088257;,
   0.579102;0.137573;,
   0.512207;0.082825;,
   0.464355;0.066711;,
   0.517090;0.160767;,
   0.459717;0.126953;,
   0.415039;0.075500;,
   0.395508;0.094971;,
   0.428223;0.148193;,
   0.403320;0.146118;,
   0.434326;0.207520;,
   0.416016;0.220215;,
   0.403076;0.308105;,
   0.435547;0.271240;,
   0.500488;0.244507;,
   0.459473;0.270020;,
   0.464355;0.306885;,
   0.417236;0.361084;,
   0.483154;0.298096;,
   0.423828;0.416504;,
   0.444336;0.387695;,
   0.455811;0.442383;,
   0.479736;0.345215;,
   0.496094;0.390869;,
   0.519531;0.413086;,
   0.537109;0.355225;,
   0.513184;0.323730;,
   0.556641;0.399658;,
   0.525391;0.300049;,
   0.575684;0.335449;,
   0.597168;0.381836;,
   0.624023;0.354492;,
   0.594727;0.282715;,
   0.551270;0.280273;,
   0.544922;0.233276;,
   0.559082;0.257568;,
   0.601074;0.255127;,
   0.575684;0.234131;,
   0.581055;0.165894;,
   0.595703;0.193359;,
   0.640625;0.212646;,
   0.597656;0.174805;,
   0.598145;0.142822;;
  }
 }
}