xof 0303txt 0032
template ColorRGBA {
 <35ff44e0-6c7c-11cf-8f52-0040333594a3>
 FLOAT red;
 FLOAT green;
 FLOAT blue;
 FLOAT alpha;
}

template ColorRGB {
 <d3e16e81-7835-11cf-8f52-0040333594a3>
 FLOAT red;
 FLOAT green;
 FLOAT blue;
}

template Material {
 <3d82ab4d-62da-11cf-ab39-0020af71e433>
 ColorRGBA faceColor;
 FLOAT power;
 ColorRGB specularColor;
 ColorRGB emissiveColor;
 [...]
}

template TextureFilename {
 <a42790e1-7810-11cf-8f52-0040333594a3>
 STRING filename;
}

template Frame {
 <3d82ab46-62da-11cf-ab39-0020af71e433>
 [...]
}

template Matrix4x4 {
 <f6f23f45-7686-11cf-8f52-0040333594a3>
 array FLOAT matrix[16];
}

template FrameTransformMatrix {
 <f6f23f41-7686-11cf-8f52-0040333594a3>
 Matrix4x4 frameMatrix;
}

template Vector {
 <3d82ab5e-62da-11cf-ab39-0020af71e433>
 FLOAT x;
 FLOAT y;
 FLOAT z;
}

template MeshFace {
 <3d82ab5f-62da-11cf-ab39-0020af71e433>
 DWORD nFaceVertexIndices;
 array DWORD faceVertexIndices[nFaceVertexIndices];
}

template Mesh {
 <3d82ab44-62da-11cf-ab39-0020af71e433>
 DWORD nVertices;
 array Vector vertices[nVertices];
 DWORD nFaces;
 array MeshFace faces[nFaces];
 [...]
}

template MeshNormals {
 <f6f23f43-7686-11cf-8f52-0040333594a3>
 DWORD nNormals;
 array Vector normals[nNormals];
 DWORD nFaceNormals;
 array MeshFace faceNormals[nFaceNormals];
}

template MeshMaterialList {
 <f6f23f42-7686-11cf-8f52-0040333594a3>
 DWORD nMaterials;
 DWORD nFaceIndexes;
 array DWORD faceIndexes[nFaceIndexes];
 [Material <3d82ab4d-62da-11cf-ab39-0020af71e433>]
}

template Coords2d {
 <f6f23f44-7686-11cf-8f52-0040333594a3>
 FLOAT u;
 FLOAT v;
}

template MeshTextureCoords {
 <f6f23f40-7686-11cf-8f52-0040333594a3>
 DWORD nTextureCoords;
 array Coords2d textureCoords[nTextureCoords];
}


Material MI_rockS_7 {
 1.000000;1.000000;1.000000;1.000000;;
 10.000000;
 0.000000;0.000000;0.000000;;
 0.000000;0.000000;0.000000;;

 TextureFilename {
  "rock2_1.tga";
 }
}

Frame SM_rockS_7 {
 

 FrameTransformMatrix {
  1.000000,0.000000,0.000000,0.000000,0.000000,1.000000,0.000000,0.000000,0.000000,0.000000,1.000000,0.000000,0.000000,0.000000,0.000000,1.000000;;
 }

 Mesh SM_rockS_7 {
  233;
  32.822602;-17.510358;19.204998;,
  25.801600;-20.987259;19.501000;,
  31.076800;-21.851891;15.900597;,
  28.212598;-22.596640;7.174198;,
  19.142901;-20.572258;7.278598;,
  25.098600;-22.101490;-0.508503;,
  18.062000;-20.535758;20.927098;,
  15.049299;-21.428859;-5.585503;,
  21.658899;-21.933520;-8.906303;,
  17.784800;-22.123619;-16.367405;,
  10.311600;-19.899360;13.623498;,
  8.322900;-19.391560;21.522698;,
  2.331570;-19.310160;21.633498;,
  7.738200;-19.258061;3.052799;,
  -0.077850;-18.765560;13.105598;,
  -2.353480;-18.928958;20.235197;,
  -8.998360;-17.683358;19.687099;,
  -2.168880;-17.616058;3.741398;,
  -10.945180;-16.891461;8.024799;,
  1.781900;-19.257160;-6.862103;,
  11.299999;-21.679459;-13.528301;,
  15.508400;-20.791458;-21.533200;,
  -6.186094;-17.315960;-6.043602;,
  11.820999;-21.149558;-23.052006;,
  13.367399;-18.000858;-25.548901;,
  -8.594950;-17.108558;-0.454304;,
  8.258500;-15.152960;-29.789302;,
  11.458700;-12.691759;-32.131200;,
  7.846200;-21.523158;-20.955501;,
  1.517160;-20.788960;-14.227702;,
  -3.229980;-18.764758;-10.116902;,
  -4.290160;-11.921058;-12.403401;,
  -0.233200;-15.208858;-19.715802;,
  -10.532930;-10.424660;-0.696003;,
  -11.361981;-3.883459;-0.881203;,
  -15.767901;-9.652158;10.017998;,
  -15.246939;-16.219459;15.116096;,
  -14.435550;-16.384461;21.030598;,
  -19.965901;-13.832158;23.366798;,
  -22.631398;-7.395960;19.692096;,
  -24.800200;-9.840358;27.417098;,
  -19.722400;-2.476660;12.570198;,
  -28.015299;-1.253359;23.532498;,
  -28.790899;-7.417459;30.402499;,
  -32.457702;-4.150860;31.739597;,
  -31.664800;2.472942;34.484899;,
  -34.297302;4.998241;31.174598;,
  -30.776301;7.946442;25.713398;,
  -25.421899;3.386341;18.897099;,
  -25.783899;10.076641;19.966698;,
  -18.780202;7.001942;11.861099;,
  -19.476798;13.929840;13.163197;,
  -13.937259;16.035942;7.706398;,
  -10.399290;12.898941;2.021797;,
  -12.065100;5.795040;2.487797;,
  -6.611710;11.331742;-5.878601;,
  -5.793600;4.145142;-9.386502;,
  -2.638260;10.147842;-16.017506;,
  -3.128840;-6.609959;-17.927205;,
  -1.063970;4.049042;-21.233798;,
  0.562860;8.999340;-25.444104;,
  -1.664820;-2.596359;-21.050205;,
  -0.717410;-8.349361;-24.672504;,
  2.765320;-2.851059;-31.036304;,
  3.597640;1.390442;-32.463603;,
  4.220420;7.092140;-32.398502;,
  7.048100;4.550140;-37.435101;,
  6.950300;0.960842;-37.548403;,
  12.099399;4.448341;-37.427501;,
  11.436199;-1.384459;-38.231901;,
  8.737200;-3.871159;-37.609402;,
  11.099600;-7.664059;-36.390704;,
  6.255700;-5.460159;-34.777302;,
  7.861200;-10.798858;-34.529706;,
  3.765550;-8.496960;-31.898701;,
  3.564780;-11.890759;-28.252301;,
  6.043100;-14.295661;-29.056301;,
  0.924140;-11.254660;-26.140598;,
  3.195780;-13.531558;-26.286998;,
  34.170899;-5.134760;15.781998;,
  34.297302;-5.972059;20.049997;,
  33.967597;-12.657259;20.028298;,
  31.948099;-7.543758;8.965298;,
  32.375901;-2.549559;9.972397;,
  32.822602;-17.510358;19.204998;,
  31.076800;-21.851891;15.900597;,
  31.716000;-0.894560;6.723900;,
  28.212598;-22.596640;7.174198;,
  29.120902;-4.048460;0.626598;,
  30.550198;2.823040;4.306797;,
  28.633901;4.428539;-2.594402;,
  26.775202;-15.739658;-0.843403;,
  25.098600;-22.101490;-0.508503;,
  21.658899;-21.933520;-8.906303;,
  26.538499;0.535442;-6.588703;,
  25.849699;6.232441;-8.290302;,
  24.066400;-8.465660;-9.253002;,
  20.427800;-16.318760;-14.456906;,
  17.784800;-22.123619;-16.367405;,
  15.508400;-20.791458;-21.533200;,
  21.330901;0.260639;-16.898701;,
  23.553800;7.339039;-13.681499;,
  19.885099;9.142040;-20.280102;,
  16.602301;7.370238;-25.881306;,
  15.056400;-13.790061;-25.824406;,
  13.367399;-18.000858;-25.548901;,
  11.458700;-12.691759;-32.131200;,
  15.343398;-2.269360;-28.800701;,
  11.099600;-7.664059;-36.390704;,
  14.450499;6.046143;-31.964406;,
  11.436199;-1.384459;-38.231901;,
  12.099399;4.448341;-37.427501;,
  -34.297302;4.998241;31.174598;,
  -31.664800;2.472942;34.484899;,
  -33.315699;8.279739;36.480896;,
  -31.199901;9.233440;30.698797;,
  -31.122899;12.175442;38.231901;,
  -30.776301;7.946442;25.713398;,
  -26.178000;15.220040;30.915398;,
  -25.232701;17.879341;36.027498;,
  -20.063899;21.083942;35.112598;,
  -25.102301;13.404240;25.134098;,
  -25.783899;10.076641;19.966698;,
  -18.960202;20.108440;29.276198;,
  -14.702890;22.596642;35.323398;,
  -20.446101;15.330941;19.710998;,
  -19.476798;13.929840;13.163197;,
  -10.912090;21.817040;31.974698;,
  -10.242360;19.692642;35.787696;,
  -16.748200;19.422142;20.801898;,
  -10.497920;21.079541;25.380398;,
  -8.977670;18.094440;29.606797;,
  -6.544330;13.802440;34.515696;,
  -8.806140;19.189842;19.192498;,
  -6.810840;14.868542;26.973197;,
  -1.732190;10.089542;32.089798;,
  -7.349800;15.495739;19.939499;,
  -2.766910;10.820839;26.102698;,
  4.911100;7.440941;31.142698;,
  -5.051435;13.732742;18.598099;,
  -11.167390;17.018643;14.255200;,
  -13.362010;20.119141;16.345398;,
  -12.821950;18.102341;11.750099;,
  -13.937259;16.035942;7.706398;,
  -9.355850;15.086040;7.565296;,
  -10.399290;12.898941;2.021797;,
  -6.675280;15.394840;10.591698;,
  -1.914300;12.020042;14.586696;,
  -6.436468;14.015042;1.933998;,
  2.123370;8.921741;23.259298;,
  11.284099;5.574940;29.027699;,
  -4.845331;13.148140;-3.483902;,
  -6.611710;11.331742;-5.878601;,
  11.915899;5.807640;20.489098;,
  20.325000;3.051041;25.409198;,
  1.431840;10.227039;11.974399;,
  18.550899;5.231541;9.843697;,
  -3.638760;13.493240;3.289898;,
  10.196900;8.645241;1.967197;,
  4.032190;11.647339;-6.035004;,
  1.487870;10.955940;-14.127499;,
  -2.638260;10.147842;-16.017506;,
  0.562860;8.999340;-25.444104;,
  6.006100;9.252342;-24.745800;,
  4.220420;7.092140;-32.398502;,
  10.552099;10.478741;-18.560902;,
  9.419599;7.501141;-30.115702;,
  7.048100;4.550140;-37.435101;,
  12.099399;4.448341;-37.427501;,
  14.450499;6.046143;-31.964406;,
  16.602301;7.370238;-25.881306;,
  16.736701;9.500542;-17.644405;,
  19.885099;9.142040;-20.280102;,
  23.553800;7.339039;-13.681499;,
  16.935400;8.097839;-8.486004;,
  25.849699;6.232441;-8.290302;,
  20.272699;6.627941;-0.428802;,
  28.633901;4.428539;-2.594402;,
  25.814400;3.914940;5.747799;,
  30.550198;2.823040;4.306797;,
  25.097000;2.686741;11.244598;,
  28.779200;1.153042;7.391499;,
  31.716000;-0.894560;6.723900;,
  32.375901;-2.549559;9.972397;,
  28.863002;-0.900759;13.340397;,
  34.170899;-5.134760;15.781998;,
  27.914899;0.660839;17.968197;,
  26.674398;-0.368259;23.759397;,
  30.629600;-3.811760;22.632797;,
  30.579501;-2.522459;18.138997;,
  34.297302;-5.972059;20.049997;,
  34.297302;-5.972059;20.049997;,
  31.506602;-12.326059;23.012197;,
  33.967597;-12.657259;20.028298;,
  32.822602;-17.510358;19.204998;,
  30.629600;-3.811760;22.632797;,
  25.801600;-20.987259;19.501000;,
  19.973101;-1.318659;26.533499;,
  26.674398;-0.368259;23.759397;,
  21.300000;-17.644360;22.641499;,
  18.062000;-20.535758;20.927098;,
  20.325000;3.051041;25.409198;,
  7.318200;-12.659858;24.765998;,
  8.322900;-19.391560;21.522698;,
  2.331570;-19.310160;21.633498;,
  -2.353480;-18.928958;20.235197;,
  10.290300;2.079239;29.920998;,
  11.284099;5.574940;29.027699;,
  4.911100;7.440941;31.142698;,
  8.792800;-6.695160;27.668899;,
  -6.693530;-12.149959;24.757198;,
  -8.998360;-17.683358;19.687099;,
  -14.435550;-16.384461;21.030598;,
  -1.846520;-3.181059;29.835197;,
  -13.113020;-9.339359;26.866698;,
  -19.965901;-13.832158;23.366798;,
  -24.800200;-9.840358;27.417098;,
  -1.842360;6.828041;33.752298;,
  -1.732190;10.089542;32.089798;,
  -6.544330;13.802440;34.515696;,
  -11.250120;1.389141;32.627898;,
  -23.170901;-2.915258;32.539696;,
  -28.790899;-7.417459;30.402499;,
  -32.457702;-4.150860;31.739597;,
  -31.664800;2.472942;34.484899;,
  -23.207600;5.732342;36.737197;,
  -33.315699;8.279739;36.480896;,
  -31.122899;12.175442;38.231901;,
  -25.232701;17.879341;36.027498;,
  -11.288401;15.557842;37.812298;,
  -20.063899;21.083942;35.112598;,
  -10.242360;19.692642;35.787696;,
  -14.702890;22.596642;35.323398;;
  334;
  3;0,1,2;,
  3;1,3,2;,
  3;4,3,1;,
  3;5,3,4;,
  3;6,4,1;,
  3;7,5,4;,
  3;5,7,8;,
  3;9,8,7;,
  3;10,4,6;,
  3;11,10,6;,
  3;10,11,12;,
  3;10,13,4;,
  3;13,7,4;,
  3;14,10,12;,
  3;13,10,14;,
  3;15,14,12;,
  3;14,15,16;,
  3;14,17,13;,
  3;18,14,16;,
  3;14,18,17;,
  3;19,7,13;,
  3;19,13,17;,
  3;7,20,9;,
  3;19,20,7;,
  3;20,21,9;,
  3;17,22,19;,
  3;23,21,20;,
  3;23,24,21;,
  3;17,25,22;,
  3;17,18,25;,
  3;23,26,24;,
  3;24,26,27;,
  3;20,28,23;,
  3;28,26,23;,
  3;19,29,20;,
  3;28,20,29;,
  3;19,30,29;,
  3;19,22,30;,
  3;29,30,31;,
  3;22,31,30;,
  3;29,32,28;,
  3;31,32,29;,
  3;33,22,25;,
  3;31,22,33;,
  3;33,25,18;,
  3;34,31,33;,
  3;35,33,18;,
  3;34,33,35;,
  3;36,35,18;,
  3;16,36,18;,
  3;16,37,36;,
  3;36,37,38;,
  3;36,38,39;,
  3;35,36,39;,
  3;39,38,40;,
  3;41,35,39;,
  3;34,35,41;,
  3;40,42,39;,
  3;41,39,42;,
  3;40,43,42;,
  3;43,44,42;,
  3;44,45,46;,
  3;42,44,46;,
  3;46,47,42;,
  3;47,48,42;,
  3;42,48,41;,
  3;47,49,48;,
  3;48,49,50;,
  3;50,41,48;,
  3;49,51,50;,
  3;50,51,52;,
  3;50,52,53;,
  3;50,54,41;,
  3;53,54,50;,
  3;54,34,41;,
  3;55,54,53;,
  3;54,55,56;,
  3;56,34,54;,
  3;57,56,55;,
  3;56,58,34;,
  3;58,31,34;,
  3;32,31,58;,
  3;56,57,59;,
  3;60,59,57;,
  3;61,58,56;,
  3;56,59,61;,
  3;61,62,58;,
  3;32,58,62;,
  3;63,61,59;,
  3;63,62,61;,
  3;60,64,59;,
  3;59,64,63;,
  3;65,64,60;,
  3;65,66,64;,
  3;66,67,64;,
  3;66,68,67;,
  3;69,67,68;,
  3;67,69,70;,
  3;71,70,69;,
  3;72,64,67;,
  3;72,67,70;,
  3;72,70,71;,
  3;72,63,64;,
  3;73,72,71;,
  3;71,27,73;,
  3;72,74,63;,
  3;73,74,72;,
  3;62,63,74;,
  3;73,27,26;,
  3;74,75,62;,
  3;75,74,73;,
  3;76,73,26;,
  3;73,76,75;,
  3;76,26,28;,
  3;75,77,62;,
  3;32,62,77;,
  3;76,78,75;,
  3;75,78,77;,
  3;28,78,76;,
  3;77,78,32;,
  3;32,78,28;,
  3;79,80,81;,
  3;82,79,81;,
  3;79,82,83;,
  3;84,82,81;,
  3;82,84,85;,
  3;82,86,83;,
  3;85,87,82;,
  3;86,82,88;,
  3;86,88,89;,
  3;89,88,90;,
  3;82,87,91;,
  3;91,88,82;,
  3;91,87,92;,
  3;91,92,93;,
  3;88,94,90;,
  3;90,94,95;,
  3;91,96,88;,
  3;96,94,88;,
  3;91,93,97;,
  3;96,91,97;,
  3;97,93,98;,
  3;99,97,98;,
  3;96,100,94;,
  3;95,94,100;,
  3;97,100,96;,
  3;100,101,95;,
  3;100,102,101;,
  3;103,102,100;,
  3;97,99,104;,
  3;104,100,97;,
  3;99,105,104;,
  3;104,105,106;,
  3;100,107,103;,
  3;100,104,107;,
  3;106,107,104;,
  3;108,107,106;,
  3;103,107,109;,
  3;110,107,108;,
  3;109,107,110;,
  3;110,111,109;,
  3;112,113,114;,
  3;114,115,112;,
  3;114,116,115;,
  3;112,115,117;,
  3;118,115,116;,
  3;119,118,116;,
  3;118,119,120;,
  3;121,117,115;,
  3;118,121,115;,
  3;122,117,121;,
  3;118,120,123;,
  3;123,121,118;,
  3;124,123,120;,
  3;121,125,122;,
  3;121,123,125;,
  3;125,126,122;,
  3;123,124,127;,
  3;128,127,124;,
  3;125,123,129;,
  3;126,125,129;,
  3;127,130,123;,
  3;129,123,130;,
  3;131,127,128;,
  3;127,131,130;,
  3;128,132,131;,
  3;129,130,133;,
  3;132,134,131;,
  3;135,134,132;,
  3;136,130,131;,
  3;131,134,136;,
  3;130,136,133;,
  3;135,137,134;,
  3;137,135,138;,
  3;139,136,134;,
  3;134,137,139;,
  3;140,133,136;,
  3;136,139,140;,
  3;133,141,129;,
  3;140,141,133;,
  3;129,141,126;,
  3;141,142,126;,
  3;141,140,142;,
  3;142,143,126;,
  3;142,144,143;,
  3;144,142,140;,
  3;143,144,145;,
  3;146,140,139;,
  3;146,144,140;,
  3;147,146,139;,
  3;147,139,137;,
  3;145,144,148;,
  3;137,149,147;,
  3;138,149,137;,
  3;149,138,150;,
  3;145,148,151;,
  3;145,151,152;,
  3;150,153,149;,
  3;154,153,150;,
  3;155,147,149;,
  3;153,155,149;,
  3;146,147,155;,
  3;154,156,153;,
  3;156,155,153;,
  3;157,146,155;,
  3;144,146,157;,
  3;144,157,148;,
  3;151,148,157;,
  3;158,157,155;,
  3;155,156,158;,
  3;157,159,151;,
  3;157,158,159;,
  3;160,152,151;,
  3;159,160,151;,
  3;152,160,161;,
  3;162,161,160;,
  3;160,163,162;,
  3;162,163,164;,
  3;165,160,159;,
  3;160,165,163;,
  3;164,163,166;,
  3;166,163,165;,
  3;167,164,166;,
  3;166,168,167;,
  3;168,166,169;,
  3;170,169,166;,
  3;171,170,166;,
  3;166,165,171;,
  3;170,171,172;,
  3;173,172,171;,
  3;174,171,165;,
  3;173,171,174;,
  3;159,174,165;,
  3;158,174,159;,
  3;175,173,174;,
  3;176,174,158;,
  3;174,176,175;,
  3;158,156,176;,
  3;177,175,176;,
  3;176,178,177;,
  3;156,178,176;,
  3;177,178,179;,
  3;156,180,178;,
  3;178,181,179;,
  3;181,178,180;,
  3;182,179,181;,
  3;183,182,181;,
  3;183,181,184;,
  3;180,184,181;,
  3;185,183,184;,
  3;186,180,156;,
  3;184,180,186;,
  3;154,186,156;,
  3;187,186,154;,
  3;186,187,188;,
  3;184,189,185;,
  3;186,189,184;,
  3;186,188,189;,
  3;185,189,190;,
  3;189,188,190;,
  3;191,192,193;,
  3;192,194,193;,
  3;192,191,195;,
  3;196,194,192;,
  3;192,195,197;,
  3;195,198,197;,
  3;199,196,192;,
  3;199,192,197;,
  3;199,200,196;,
  3;197,198,201;,
  3;200,199,202;,
  3;197,202,199;,
  3;202,203,200;,
  3;203,202,204;,
  3;205,204,202;,
  3;206,197,201;,
  3;201,207,206;,
  3;208,206,207;,
  3;197,209,202;,
  3;197,206,209;,
  3;202,210,205;,
  3;205,210,211;,
  3;212,211,210;,
  3;213,202,209;,
  3;202,213,210;,
  3;213,209,206;,
  3;210,214,212;,
  3;213,214,210;,
  3;212,214,215;,
  3;214,216,215;,
  3;206,217,213;,
  3;206,208,217;,
  3;208,218,217;,
  3;217,218,219;,
  3;213,220,214;,
  3;217,220,213;,
  3;214,221,216;,
  3;214,220,221;,
  3;222,216,221;,
  3;223,222,221;,
  3;224,223,221;,
  3;225,224,221;,
  3;225,221,220;,
  3;226,224,225;,
  3;225,227,226;,
  3;225,228,227;,
  3;229,225,220;,
  3;229,228,225;,
  3;220,217,229;,
  3;217,219,229;,
  3;229,230,228;,
  3;231,229,219;,
  3;229,232,230;,
  3;229,231,232;;

  MeshNormals {
   233;
   0.697714;-0.528112;0.484039;,
   0.114877;-0.818745;0.562548;,
   0.686848;-0.723487;0.069321;,
   0.514286;-0.838183;-0.181547;,
   -0.141634;-0.988903;0.044838;,
   0.504832;-0.836275;-0.213981;,
   -0.037177;-0.865624;0.499313;,
   -0.116945;-0.989908;0.080039;,
   0.540602;-0.803833;-0.248198;,
   0.495874;-0.803861;-0.328507;,
   -0.092907;-0.995644;-0.007793;,
   -0.027315;-0.832232;0.553754;,
   -0.168218;-0.800611;0.575087;,
   -0.145467;-0.988654;0.037445;,
   -0.129522;-0.989979;-0.056269;,
   -0.150920;-0.878441;0.453392;,
   -0.145763;-0.906783;0.395598;,
   -0.142549;-0.989702;-0.013040;,
   -0.532518;-0.816893;-0.221610;,
   -0.182707;-0.973513;0.137446;,
   -0.079607;-0.996163;0.036356;,
   0.555129;-0.705134;-0.441155;,
   -0.668013;-0.703148;-0.243599;,
   0.084089;-0.890972;-0.446204;,
   0.512573;-0.540826;-0.666915;,
   -0.616940;-0.762216;-0.195989;,
   -0.188978;-0.750460;-0.633322;,
   0.549669;-0.529228;-0.646361;,
   -0.269689;-0.912035;-0.308966;,
   -0.462016;-0.874182;-0.149491;,
   -0.609483;-0.750299;-0.256088;,
   -0.864347;-0.267851;-0.425629;,
   -0.778674;-0.492748;-0.388416;,
   -0.891052;-0.215074;-0.399712;,
   -0.881153;-0.021453;-0.472344;,
   -0.821101;-0.343658;-0.455733;,
   -0.576345;-0.783459;-0.232420;,
   -0.177003;-0.884994;0.430646;,
   -0.452416;-0.836384;0.309487;,
   -0.792143;-0.419419;-0.443393;,
   -0.480135;-0.839554;0.254204;,
   -0.810998;-0.135010;-0.569259;,
   -0.796378;-0.278937;-0.536635;,
   -0.487402;-0.831732;0.265820;,
   -0.693497;-0.581315;0.425600;,
   -0.645062;-0.329483;0.689447;,
   -0.992697;0.040090;-0.113778;,
   -0.826596;0.319315;-0.463441;,
   -0.778594;-0.035250;-0.626538;,
   -0.761662;0.388803;-0.518366;,
   -0.765707;0.062566;-0.640139;,
   -0.732896;0.426836;-0.529787;,
   -0.507049;0.613521;-0.605387;,
   -0.595868;0.634674;-0.492068;,
   -0.840163;0.125654;-0.527577;,
   -0.694055;0.564802;-0.446415;,
   -0.901240;0.103026;-0.420894;,
   -0.667782;0.666571;-0.331286;,
   -0.925885;-0.072828;-0.370719;,
   -0.928247;0.047666;-0.368898;,
   -0.635848;0.663650;-0.394038;,
   -0.922474;0.073230;-0.379052;,
   -0.900585;-0.128654;-0.415205;,
   -0.845527;-0.007889;-0.533875;,
   -0.864532;0.009151;-0.502494;,
   -0.512674;0.668144;-0.539211;,
   -0.292509;0.594640;-0.748894;,
   -0.526133;-0.020740;-0.850149;,
   0.428618;0.441608;-0.788207;,
   0.511746;-0.084152;-0.855005;,
   -0.338523;-0.297748;-0.892608;,
   0.449649;-0.387618;-0.804716;,
   -0.648913;-0.204566;-0.732847;,
   -0.300592;-0.522239;-0.798067;,
   -0.741459;-0.281299;-0.609188;,
   -0.683494;-0.478524;-0.551227;,
   -0.569569;-0.623655;-0.535392;,
   -0.730992;-0.285397;-0.619839;,
   -0.619859;-0.601118;-0.504413;,
   0.917846;0.393686;-0.050689;,
   0.888863;0.302944;0.343726;,
   0.955745;-0.178371;0.233957;,
   0.944267;-0.123833;-0.304999;,
   0.900067;0.435495;-0.014944;,
   0.697714;-0.528112;0.484039;,
   0.686848;-0.723487;0.069321;,
   0.913811;0.404849;0.032348;,
   0.514286;-0.838183;-0.181547;,
   0.923526;-0.096223;-0.371271;,
   0.849919;0.524477;0.050620;,
   0.798230;0.584930;-0.143826;,
   0.906795;-0.188848;-0.376909;,
   0.504832;-0.836275;-0.213981;,
   0.540602;-0.803833;-0.248198;,
   0.900958;-0.078625;-0.426723;,
   0.757536;0.617610;-0.211414;,
   0.895927;-0.125607;-0.426072;,
   0.880864;-0.181819;-0.437058;,
   0.495874;-0.803861;-0.328507;,
   0.555129;-0.705134;-0.441155;,
   0.888158;-0.074772;-0.453415;,
   0.760848;0.611844;-0.216233;,
   0.636913;0.659966;-0.398481;,
   0.663674;0.607632;-0.436258;,
   0.841206;-0.221719;-0.493166;,
   0.512573;-0.540826;-0.666915;,
   0.549669;-0.529228;-0.646361;,
   0.906675;-0.094295;-0.411155;,
   0.449649;-0.387618;-0.804716;,
   0.698759;0.576552;-0.423468;,
   0.511746;-0.084152;-0.855005;,
   0.428618;0.441608;-0.788207;,
   -0.992697;0.040090;-0.113778;,
   -0.645062;-0.329483;0.689447;,
   -0.769866;0.015315;0.638022;,
   -0.763634;0.602394;-0.232348;,
   -0.598774;0.425888;0.678298;,
   -0.826596;0.319315;-0.463441;,
   -0.660693;0.693894;-0.286349;,
   -0.466771;0.684193;0.560361;,
   -0.344496;0.812754;0.469844;,
   -0.654821;0.687520;-0.313888;,
   -0.761662;0.388803;-0.518366;,
   -0.412072;0.880428;-0.234614;,
   -0.016087;0.842232;0.538875;,
   -0.672778;0.691612;-0.262759;,
   -0.732896;0.426836;-0.529787;,
   0.498567;0.866817;0.007651;,
   0.607112;0.538507;0.584316;,
   -0.424088;0.882184;-0.204697;,
   0.429311;0.897483;-0.101076;,
   0.867441;0.496729;0.028412;,
   0.744698;0.516961;0.422109;,
   0.675457;0.699387;-0.233698;,
   0.762467;0.646641;0.022365;,
   0.569899;0.682106;0.458199;,
   0.751730;0.652534;-0.095399;,
   0.563717;0.824714;0.045506;,
   0.413350;0.685394;0.599480;,
   0.578140;0.814487;0.048635;,
   0.589033;0.777853;-0.219053;,
   -0.029349;0.962099;-0.271115;,
   0.066325;0.945222;-0.319620;,
   -0.507049;0.613521;-0.605387;,
   0.149408;0.945653;-0.288820;,
   -0.595868;0.634674;-0.492068;,
   0.353737;0.933264;-0.062364;,
   0.524758;0.846923;0.085738;,
   -0.009380;0.985119;-0.171619;,
   0.371406;0.925178;0.078127;,
   0.421113;0.673952;0.607003;,
   -0.126821;0.962845;-0.238424;,
   -0.694055;0.564802;-0.446415;,
   0.291277;0.952615;0.087653;,
   0.425644;0.671343;0.606734;,
   0.406599;0.908672;0.094828;,
   0.290165;0.945784;0.145933;,
   0.293975;0.955682;-0.015826;,
   0.285049;0.950682;0.122275;,
   0.212056;0.977256;0.001662;,
   -0.044227;0.987870;-0.148850;,
   -0.667782;0.666571;-0.331286;,
   -0.635848;0.663650;-0.394038;,
   0.021840;0.972808;-0.230583;,
   -0.512674;0.668144;-0.539211;,
   0.121922;0.985704;-0.116287;,
   0.108677;0.945390;-0.307291;,
   -0.292509;0.594640;-0.748894;,
   0.428618;0.441608;-0.788207;,
   0.698759;0.576552;-0.423468;,
   0.663674;0.607632;-0.436258;,
   0.146920;0.989140;-0.004106;,
   0.636913;0.659966;-0.398481;,
   0.760848;0.611844;-0.216233;,
   0.226106;0.968393;0.105312;,
   0.757536;0.617610;-0.211414;,
   0.245207;0.959837;0.136333;,
   0.798230;0.584930;-0.143826;,
   0.351773;0.901334;0.252693;,
   0.849919;0.524477;0.050620;,
   0.458623;0.870659;0.177816;,
   0.541473;0.734585;0.408892;,
   0.913811;0.404849;0.032348;,
   0.900067;0.435495;-0.014944;,
   0.652377;0.752407;0.091035;,
   0.917846;0.393686;-0.050689;,
   0.613373;0.784173;0.094054;,
   0.534316;0.514563;0.670620;,
   0.626153;0.455834;0.632573;,
   0.686172;0.719691;0.105896;,
   0.888863;0.302944;0.343726;,
   0.888863;0.302944;0.343726;,
   0.465407;-0.205995;0.860792;,
   0.955745;-0.178371;0.233957;,
   0.697714;-0.528112;0.484039;,
   0.626153;0.455834;0.632573;,
   0.114877;-0.818745;0.562548;,
   0.281145;-0.020055;0.959456;,
   0.534316;0.514563;0.670620;,
   0.093280;-0.423992;0.900850;,
   -0.037177;-0.865624;0.499313;,
   0.425644;0.671343;0.606734;,
   0.029765;-0.422235;0.905998;,
   -0.027315;-0.832232;0.553754;,
   -0.168218;-0.800611;0.575087;,
   -0.150920;-0.878441;0.453392;,
   0.277684;-0.082962;0.957084;,
   0.421113;0.673952;0.607003;,
   0.413350;0.685394;0.599480;,
   0.179726;-0.394018;0.901359;,
   -0.018840;-0.572980;0.819353;,
   -0.145763;-0.906783;0.395598;,
   -0.177003;-0.884994;0.430646;,
   0.067807;-0.414922;0.907327;,
   0.054308;-0.573560;0.817362;,
   -0.452416;-0.836384;0.309487;,
   -0.480135;-0.839554;0.254204;,
   0.279576;-0.040316;0.959277;,
   0.569899;0.682106;0.458199;,
   0.744698;0.516961;0.422109;,
   0.119897;-0.408638;0.904787;,
   0.072960;-0.485598;0.871132;,
   -0.487402;-0.831732;0.265820;,
   -0.693497;-0.581315;0.425600;,
   -0.645062;-0.329483;0.689447;,
   0.040175;-0.268824;0.962351;,
   -0.769866;0.015315;0.638022;,
   -0.598774;0.425888;0.678298;,
   -0.466771;0.684193;0.560361;,
   0.238058;0.088734;0.967189;,
   -0.344496;0.812754;0.469844;,
   0.607112;0.538507;0.584316;,
   -0.016087;0.842232;0.538875;;
   334;
   3;0,1,2;,
   3;1,3,2;,
   3;4,3,1;,
   3;5,3,4;,
   3;6,4,1;,
   3;7,5,4;,
   3;5,7,8;,
   3;9,8,7;,
   3;10,4,6;,
   3;11,10,6;,
   3;10,11,12;,
   3;10,13,4;,
   3;13,7,4;,
   3;14,10,12;,
   3;13,10,14;,
   3;15,14,12;,
   3;14,15,16;,
   3;14,17,13;,
   3;18,14,16;,
   3;14,18,17;,
   3;19,7,13;,
   3;19,13,17;,
   3;7,20,9;,
   3;19,20,7;,
   3;20,21,9;,
   3;17,22,19;,
   3;23,21,20;,
   3;23,24,21;,
   3;17,25,22;,
   3;17,18,25;,
   3;23,26,24;,
   3;24,26,27;,
   3;20,28,23;,
   3;28,26,23;,
   3;19,29,20;,
   3;28,20,29;,
   3;19,30,29;,
   3;19,22,30;,
   3;29,30,31;,
   3;22,31,30;,
   3;29,32,28;,
   3;31,32,29;,
   3;33,22,25;,
   3;31,22,33;,
   3;33,25,18;,
   3;34,31,33;,
   3;35,33,18;,
   3;34,33,35;,
   3;36,35,18;,
   3;16,36,18;,
   3;16,37,36;,
   3;36,37,38;,
   3;36,38,39;,
   3;35,36,39;,
   3;39,38,40;,
   3;41,35,39;,
   3;34,35,41;,
   3;40,42,39;,
   3;41,39,42;,
   3;40,43,42;,
   3;43,44,42;,
   3;44,45,46;,
   3;42,44,46;,
   3;46,47,42;,
   3;47,48,42;,
   3;42,48,41;,
   3;47,49,48;,
   3;48,49,50;,
   3;50,41,48;,
   3;49,51,50;,
   3;50,51,52;,
   3;50,52,53;,
   3;50,54,41;,
   3;53,54,50;,
   3;54,34,41;,
   3;55,54,53;,
   3;54,55,56;,
   3;56,34,54;,
   3;57,56,55;,
   3;56,58,34;,
   3;58,31,34;,
   3;32,31,58;,
   3;56,57,59;,
   3;60,59,57;,
   3;61,58,56;,
   3;56,59,61;,
   3;61,62,58;,
   3;32,58,62;,
   3;63,61,59;,
   3;63,62,61;,
   3;60,64,59;,
   3;59,64,63;,
   3;65,64,60;,
   3;65,66,64;,
   3;66,67,64;,
   3;66,68,67;,
   3;69,67,68;,
   3;67,69,70;,
   3;71,70,69;,
   3;72,64,67;,
   3;72,67,70;,
   3;72,70,71;,
   3;72,63,64;,
   3;73,72,71;,
   3;71,27,73;,
   3;72,74,63;,
   3;73,74,72;,
   3;62,63,74;,
   3;73,27,26;,
   3;74,75,62;,
   3;75,74,73;,
   3;76,73,26;,
   3;73,76,75;,
   3;76,26,28;,
   3;75,77,62;,
   3;32,62,77;,
   3;76,78,75;,
   3;75,78,77;,
   3;28,78,76;,
   3;77,78,32;,
   3;32,78,28;,
   3;79,80,81;,
   3;82,79,81;,
   3;79,82,83;,
   3;84,82,81;,
   3;82,84,85;,
   3;82,86,83;,
   3;85,87,82;,
   3;86,82,88;,
   3;86,88,89;,
   3;89,88,90;,
   3;82,87,91;,
   3;91,88,82;,
   3;91,87,92;,
   3;91,92,93;,
   3;88,94,90;,
   3;90,94,95;,
   3;91,96,88;,
   3;96,94,88;,
   3;91,93,97;,
   3;96,91,97;,
   3;97,93,98;,
   3;99,97,98;,
   3;96,100,94;,
   3;95,94,100;,
   3;97,100,96;,
   3;100,101,95;,
   3;100,102,101;,
   3;103,102,100;,
   3;97,99,104;,
   3;104,100,97;,
   3;99,105,104;,
   3;104,105,106;,
   3;100,107,103;,
   3;100,104,107;,
   3;106,107,104;,
   3;108,107,106;,
   3;103,107,109;,
   3;110,107,108;,
   3;109,107,110;,
   3;110,111,109;,
   3;112,113,114;,
   3;114,115,112;,
   3;114,116,115;,
   3;112,115,117;,
   3;118,115,116;,
   3;119,118,116;,
   3;118,119,120;,
   3;121,117,115;,
   3;118,121,115;,
   3;122,117,121;,
   3;118,120,123;,
   3;123,121,118;,
   3;124,123,120;,
   3;121,125,122;,
   3;121,123,125;,
   3;125,126,122;,
   3;123,124,127;,
   3;128,127,124;,
   3;125,123,129;,
   3;126,125,129;,
   3;127,130,123;,
   3;129,123,130;,
   3;131,127,128;,
   3;127,131,130;,
   3;128,132,131;,
   3;129,130,133;,
   3;132,134,131;,
   3;135,134,132;,
   3;136,130,131;,
   3;131,134,136;,
   3;130,136,133;,
   3;135,137,134;,
   3;137,135,138;,
   3;139,136,134;,
   3;134,137,139;,
   3;140,133,136;,
   3;136,139,140;,
   3;133,141,129;,
   3;140,141,133;,
   3;129,141,126;,
   3;141,142,126;,
   3;141,140,142;,
   3;142,143,126;,
   3;142,144,143;,
   3;144,142,140;,
   3;143,144,145;,
   3;146,140,139;,
   3;146,144,140;,
   3;147,146,139;,
   3;147,139,137;,
   3;145,144,148;,
   3;137,149,147;,
   3;138,149,137;,
   3;149,138,150;,
   3;145,148,151;,
   3;145,151,152;,
   3;150,153,149;,
   3;154,153,150;,
   3;155,147,149;,
   3;153,155,149;,
   3;146,147,155;,
   3;154,156,153;,
   3;156,155,153;,
   3;157,146,155;,
   3;144,146,157;,
   3;144,157,148;,
   3;151,148,157;,
   3;158,157,155;,
   3;155,156,158;,
   3;157,159,151;,
   3;157,158,159;,
   3;160,152,151;,
   3;159,160,151;,
   3;152,160,161;,
   3;162,161,160;,
   3;160,163,162;,
   3;162,163,164;,
   3;165,160,159;,
   3;160,165,163;,
   3;164,163,166;,
   3;166,163,165;,
   3;167,164,166;,
   3;166,168,167;,
   3;168,166,169;,
   3;170,169,166;,
   3;171,170,166;,
   3;166,165,171;,
   3;170,171,172;,
   3;173,172,171;,
   3;174,171,165;,
   3;173,171,174;,
   3;159,174,165;,
   3;158,174,159;,
   3;175,173,174;,
   3;176,174,158;,
   3;174,176,175;,
   3;158,156,176;,
   3;177,175,176;,
   3;176,178,177;,
   3;156,178,176;,
   3;177,178,179;,
   3;156,180,178;,
   3;178,181,179;,
   3;181,178,180;,
   3;182,179,181;,
   3;183,182,181;,
   3;183,181,184;,
   3;180,184,181;,
   3;185,183,184;,
   3;186,180,156;,
   3;184,180,186;,
   3;154,186,156;,
   3;187,186,154;,
   3;186,187,188;,
   3;184,189,185;,
   3;186,189,184;,
   3;186,188,189;,
   3;185,189,190;,
   3;189,188,190;,
   3;191,192,193;,
   3;192,194,193;,
   3;192,191,195;,
   3;196,194,192;,
   3;192,195,197;,
   3;195,198,197;,
   3;199,196,192;,
   3;199,192,197;,
   3;199,200,196;,
   3;197,198,201;,
   3;200,199,202;,
   3;197,202,199;,
   3;202,203,200;,
   3;203,202,204;,
   3;205,204,202;,
   3;206,197,201;,
   3;201,207,206;,
   3;208,206,207;,
   3;197,209,202;,
   3;197,206,209;,
   3;202,210,205;,
   3;205,210,211;,
   3;212,211,210;,
   3;213,202,209;,
   3;202,213,210;,
   3;213,209,206;,
   3;210,214,212;,
   3;213,214,210;,
   3;212,214,215;,
   3;214,216,215;,
   3;206,217,213;,
   3;206,208,217;,
   3;208,218,217;,
   3;217,218,219;,
   3;213,220,214;,
   3;217,220,213;,
   3;214,221,216;,
   3;214,220,221;,
   3;222,216,221;,
   3;223,222,221;,
   3;224,223,221;,
   3;225,224,221;,
   3;225,221,220;,
   3;226,224,225;,
   3;225,227,226;,
   3;225,228,227;,
   3;229,225,220;,
   3;229,228,225;,
   3;220,217,229;,
   3;217,219,229;,
   3;229,230,228;,
   3;231,229,219;,
   3;229,232,230;,
   3;229,231,232;;
  }

  MeshMaterialList {
   1;
   334;
   0,
   0,
   0,
   0,
   0,
   0,
   0,
   0,
   0,
   0,
   0,
   0,
   0,
   0,
   0,
   0,
   0,
   0,
   0,
   0,
   0,
   0,
   0,
   0,
   0,
   0,
   0,
   0,
   0,
   0,
   0,
   0,
   0,
   0,
   0,
   0,
   0,
   0,
   0,
   0,
   0,
   0,
   0,
   0,
   0,
   0,
   0,
   0,
   0,
   0,
   0,
   0,
   0,
   0,
   0,
   0,
   0,
   0,
   0,
   0,
   0,
   0,
   0,
   0,
   0,
   0,
   0,
   0,
   0,
   0,
   0,
   0,
   0,
   0,
   0,
   0,
   0,
   0,
   0,
   0,
   0,
   0,
   0,
   0,
   0,
   0,
   0,
   0,
   0,
   0,
   0,
   0,
   0,
   0,
   0,
   0,
   0,
   0,
   0,
   0,
   0,
   0,
   0,
   0,
   0,
   0,
   0,
   0,
   0,
   0,
   0,
   0,
   0,
   0,
   0,
   0,
   0,
   0,
   0,
   0,
   0,
   0,
   0,
   0,
   0,
   0,
   0,
   0,
   0,
   0,
   0,
   0,
   0,
   0,
   0,
   0,
   0,
   0,
   0,
   0,
   0,
   0,
   0,
   0,
   0,
   0,
   0,
   0,
   0,
   0,
   0,
   0,
   0,
   0,
   0,
   0,
   0,
   0,
   0,
   0,
   0,
   0,
   0,
   0,
   0,
   0,
   0,
   0,
   0,
   0,
   0,
   0,
   0,
   0,
   0,
   0,
   0,
   0,
   0,
   0,
   0,
   0,
   0,
   0,
   0,
   0,
   0,
   0,
   0,
   0,
   0,
   0,
   0,
   0,
   0,
   0,
   0,
   0,
   0,
   0,
   0,
   0,
   0,
   0,
   0,
   0,
   0,
   0,
   0,
   0,
   0,
   0,
   0,
   0,
   0,
   0,
   0,
   0,
   0,
   0,
   0,
   0,
   0,
   0,
   0,
   0,
   0,
   0,
   0,
   0,
   0,
   0,
   0,
   0,
   0,
   0,
   0,
   0,
   0,
   0,
   0,
   0,
   0,
   0,
   0,
   0,
   0,
   0,
   0,
   0,
   0,
   0,
   0,
   0,
   0,
   0,
   0,
   0,
   0,
   0,
   0,
   0,
   0,
   0,
   0,
   0,
   0,
   0,
   0,
   0,
   0,
   0,
   0,
   0,
   0,
   0,
   0,
   0,
   0,
   0,
   0,
   0,
   0,
   0,
   0,
   0,
   0,
   0,
   0,
   0,
   0,
   0,
   0,
   0,
   0,
   0,
   0,
   0,
   0,
   0,
   0,
   0,
   0,
   0,
   0,
   0,
   0,
   0,
   0,
   0,
   0,
   0,
   0,
   0,
   0,
   0,
   0,
   0,
   0,
   0,
   0,
   0,
   0,
   0,
   0,
   0,
   0,
   0,
   0,
   0,
   0,
   0,
   0,
   0;
   { MI_rockS_7 }
  }

  MeshTextureCoords c1 {
   233;
   0.832031;0.943359;,
   0.776855;0.922363;,
   0.820801;0.901856;,
   0.810547;0.833496;,
   0.741211;0.823730;,
   0.796387;0.772461;,
   0.717285;0.924316;,
   0.727539;0.723145;,
   0.780273;0.705566;,
   0.759766;0.644043;,
   0.667969;0.861328;,
   0.643555;0.917481;,
   0.598633;0.911133;,
   0.661133;0.779785;,
   0.589844;0.844727;,
   0.564941;0.895020;,
   0.515137;0.882324;,
   0.584961;0.773438;,
   0.513184;0.792480;,
   0.629395;0.700684;,
   0.709473;0.659668;,
   0.744629;0.598145;,
   0.567383;0.696289;,
   0.715820;0.586914;,
   0.725586;0.555664;,
   0.543457;0.733887;,
   0.679688;0.523438;,
   0.695801;0.491211;,
   0.688477;0.603516;,
   0.637207;0.647461;,
   0.596191;0.671875;,
   0.558105;0.632813;,
   0.612793;0.594727;,
   0.496338;0.711426;,
   0.453125;0.685547;,
   0.445068;0.784668;,
   0.473877;0.839844;,
   0.471680;0.884766;,
   0.423096;0.892578;,
   0.381836;0.849609;,
   0.371094;0.912109;,
   0.380127;0.780273;,
   0.315186;0.862793;,
   0.333740;0.930176;,
   0.295654;0.933594;,
   0.241577;0.935547;,
   0.234863;0.898926;,
   0.243164;0.845703;,
   0.307861;0.810547;,
   0.261230;0.789551;,
   0.324219;0.734375;,
   0.274170;0.715820;,
   0.291260;0.658203;,
   0.337891;0.628418;,
   0.378418;0.666016;,
   0.383545;0.579590;,
   0.443359;0.586914;,
   0.437012;0.515137;,
   0.546875;0.576172;,
   0.498047;0.506348;,
   0.488281;0.456787;,
   0.536133;0.537598;,
   0.586914;0.539063;,
   0.586426;0.472412;,
   0.569336;0.444336;,
   0.536621;0.416504;,
   0.580078;0.393799;,
   0.601074;0.410889;,
   0.607910;0.365234;,
   0.638672;0.400146;,
   0.635742;0.427734;,
   0.668457;0.443359;,
   0.626953;0.456055;,
   0.662109;0.478516;,
   0.625488;0.490967;,
   0.634277;0.525879;,
   0.661133;0.527832;,
   0.613770;0.539063;,
   0.636230;0.544922;,
   0.927734;0.686035;,
   0.926270;0.718750;,
   0.876465;0.725586;,
   0.900391;0.636230;,
   0.938965;0.637695;,
   0.838379;0.724121;,
   0.800781;0.702637;,
   0.946777;0.610840;,
   0.783203;0.635742;,
   0.914063;0.566406;,
   0.970215;0.585449;,
   0.972168;0.530273;,
   0.823730;0.566406;,
   0.774902;0.573730;,
   0.763184;0.506348;,
   0.937012;0.502930;,
   0.976074;0.481201;,
   0.864746;0.491211;,
   0.797363;0.456787;,
   0.748535;0.444824;,
   0.750000;0.401123;,
   0.917481;0.418457;,
   0.975586;0.436279;,
   0.977539;0.377930;,
   0.954590;0.333008;,
   0.796875;0.360352;,
   0.762695;0.363037;,
   0.793457;0.305420;,
   0.878418;0.323975;,
   0.825684;0.268066;,
   0.935059;0.287598;,
   0.870117;0.247314;,
   0.914551;0.246094;,
   0.203613;0.891113;,
   0.194214;0.926758;,
   0.156494;0.897461;,
   0.181763;0.857910;,
   0.124878;0.879883;,
   0.215698;0.838867;,
   0.144409;0.812500;,
   0.100891;0.820313;,
   0.081482;0.777832;,
   0.184204;0.788574;,
   0.230713;0.780762;,
   0.118347;0.751465;,
   0.059479;0.740234;,
   0.198608;0.734863;,
   0.240723;0.704102;,
   0.072754;0.705078;,
   0.040436;0.701660;,
   0.167236;0.707520;,
   0.114685;0.681641;,
   0.077759;0.668945;,
   0.030853;0.647461;,
   0.149658;0.649902;,
   0.087463;0.635254;,
   0.034607;0.597656;,
   0.139404;0.623535;,
   0.080383;0.592773;,
   0.025589;0.544434;,
   0.142822;0.600098;,
   0.191040;0.638672;,
   0.182495;0.668945;,
   0.213013;0.649414;,
   0.246582;0.642578;,
   0.235352;0.607910;,
   0.279785;0.599609;,
   0.206177;0.596680;,
   0.163330;0.564941;,
   0.267090;0.571289;,
   0.089294;0.548828;,
   0.026077;0.492432;,
   0.301514;0.545410;,
   0.326660;0.552734;,
   0.086243;0.469482;,
   0.030777;0.417725;,
   0.173218;0.531250;,
   0.148438;0.398193;,
   0.250244;0.553711;,
   0.225830;0.445313;,
   0.299316;0.475586;,
   0.363770;0.474609;,
   0.388184;0.499023;,
   0.447998;0.453613;,
   0.429688;0.416748;,
   0.490723;0.410400;,
   0.374023;0.399414;,
   0.461670;0.379150;,
   0.523438;0.376221;,
   0.511230;0.340332;,
   0.464844;0.337402;,
   0.415283;0.336914;,
   0.354248;0.356445;,
   0.365967;0.327637;,
   0.309326;0.314697;,
   0.286621;0.374023;,
   0.265381;0.309082;,
   0.220581;0.365967;,
   0.217773;0.299316;,
   0.162109;0.335693;,
   0.163940;0.297363;,
   0.121643;0.350586;,
   0.138672;0.312012;,
   0.132568;0.285156;,
   0.105591;0.283936;,
   0.092163;0.319824;,
   0.056488;0.278809;,
   0.065063;0.344238;,
   0.024063;0.362549;,
   0.017258;0.322510;,
   0.051971;0.316162;,
   0.024658;0.285889;,
   0.319824;0.069397;,
   0.324707;0.125000;,
   0.297852;0.116638;,
   0.286621;0.154907;,
   0.359131;0.071350;,
   0.318848;0.206543;,
   0.443359;0.097168;,
   0.398926;0.064148;,
   0.367188;0.198975;,
   0.373047;0.233276;,
   0.454346;0.064880;,
   0.477783;0.221436;,
   0.440674;0.264648;,
   0.478516;0.288086;,
   0.506836;0.310791;,
   0.522949;0.110962;,
   0.527344;0.083191;,
   0.578125;0.094604;,
   0.496582;0.174194;,
   0.567383;0.277344;,
   0.551758;0.334229;,
   0.592773;0.344727;,
   0.580078;0.192383;,
   0.623047;0.281982;,
   0.641602;0.346436;,
   0.695313;0.332031;,
   0.624512;0.124023;,
   0.631348;0.097107;,
   0.679688;0.092102;,
   0.661621;0.197998;,
   0.722168;0.271973;,
   0.736816;0.326416;,
   0.774414;0.319336;,
   0.799316;0.271240;,
   0.762207;0.211792;,
   0.835449;0.239258;,
   0.839356;0.202881;,
   0.822754;0.140259;,
   0.722656;0.103638;,
   0.802246;0.096436;,
   0.729492;0.069580;,
   0.770996;0.066040;;
  }

  MeshTextureCoords c2 {
   233;
   0.583008;0.565430;,
   0.529785;0.544922;,
   0.572266;0.525391;,
   0.562500;0.459229;,
   0.495850;0.449951;,
   0.548340;0.400635;,
   0.472900;0.546387;,
   0.482666;0.352783;,
   0.533203;0.335693;,
   0.513672;0.276611;,
   0.425049;0.485840;,
   0.401611;0.540039;,
   0.358398;0.534180;,
   0.418457;0.407715;,
   0.350098;0.470215;,
   0.325684;0.518555;,
   0.277832;0.505859;,
   0.345215;0.401367;,
   0.276123;0.419678;,
   0.387939;0.331055;,
   0.465088;0.291504;,
   0.499268;0.232422;,
   0.328369;0.326904;,
   0.471436;0.221802;,
   0.480713;0.191162;,
   0.304932;0.363281;,
   0.436279;0.160522;,
   0.451904;0.129272;,
   0.444824;0.237793;,
   0.395508;0.279785;,
   0.355713;0.303223;,
   0.319336;0.265869;,
   0.371826;0.229248;,
   0.259766;0.341553;,
   0.218140;0.316406;,
   0.210449;0.412109;,
   0.238037;0.465576;,
   0.235962;0.508301;,
   0.189087;0.516113;,
   0.149292;0.475098;,
   0.139038;0.535156;,
   0.147705;0.408203;,
   0.085144;0.487549;,
   0.103088;0.552246;,
   0.066528;0.556152;,
   0.014336;0.557129;,
   0.007813;0.522461;,
   0.015854;0.471191;,
   0.078125;0.437012;,
   0.033264;0.416992;,
   0.093994;0.363770;,
   0.045837;0.345703;,
   0.062225;0.290039;,
   0.107178;0.261475;,
   0.146118;0.297607;,
   0.151123;0.214355;,
   0.208740;0.221558;,
   0.202515;0.152100;,
   0.308350;0.211182;,
   0.261230;0.144043;,
   0.251953;0.095947;,
   0.298340;0.173950;,
   0.346924;0.175293;,
   0.346680;0.111023;,
   0.330078;0.083862;,
   0.298584;0.057220;,
   0.340576;0.035156;,
   0.360840;0.051819;,
   0.367432;0.007813;,
   0.396973;0.041382;,
   0.394287;0.067993;,
   0.425293;0.082947;,
   0.385742;0.095276;,
   0.419434;0.117004;,
   0.384277;0.128784;,
   0.392822;0.162476;,
   0.418457;0.164673;,
   0.372803;0.175415;,
   0.394531;0.181152;,
   0.617676;0.530273;,
   0.619141;0.498779;,
   0.667480;0.492188;,
   0.644043;0.578125;,
   0.606934;0.576660;,
   0.703613;0.493897;,
   0.739746;0.514160;,
   0.599609;0.602539;,
   0.756836;0.578613;,
   0.630859;0.645508;,
   0.576660;0.626953;,
   0.574707;0.679688;,
   0.717773;0.645020;,
   0.765137;0.638184;,
   0.776367;0.703125;,
   0.608887;0.706055;,
   0.571289;0.727539;,
   0.678223;0.717773;,
   0.743164;0.750488;,
   0.790039;0.762207;,
   0.788574;0.804199;,
   0.627930;0.787598;,
   0.571777;0.770508;,
   0.570313;0.826660;,
   0.592285;0.869629;,
   0.743652;0.843262;,
   0.776367;0.840820;,
   0.747070;0.896484;,
   0.665039;0.878418;,
   0.715820;0.932129;,
   0.610352;0.913574;,
   0.672852;0.952148;,
   0.630371;0.953613;,
   0.800293;0.597168;,
   0.809082;0.631836;,
   0.845703;0.603516;,
   0.821289;0.565430;,
   0.875977;0.586914;,
   0.788574;0.546875;,
   0.857422;0.521973;,
   0.898926;0.529297;,
   0.917969;0.488281;,
   0.818848;0.498779;,
   0.773926;0.491211;,
   0.882324;0.462891;,
   0.938965;0.452393;,
   0.805176;0.447266;,
   0.764160;0.417480;,
   0.926270;0.418213;,
   0.957520;0.415039;,
   0.834961;0.420654;,
   0.885742;0.395996;,
   0.921387;0.383789;,
   0.966797;0.362793;,
   0.852051;0.365234;,
   0.912109;0.351074;,
   0.962891;0.314941;,
   0.861816;0.339600;,
   0.918945;0.310059;,
   0.971680;0.263672;,
   0.858887;0.317139;,
   0.812500;0.354492;,
   0.820313;0.383789;,
   0.791016;0.364746;,
   0.758789;0.357910;,
   0.769531;0.324707;,
   0.726563;0.316650;,
   0.797852;0.313965;,
   0.838867;0.283203;,
   0.738770;0.289307;,
   0.910156;0.268066;,
   0.971191;0.213501;,
   0.705566;0.264648;,
   0.681641;0.271729;,
   0.913086;0.191406;,
   0.966797;0.141602;,
   0.829590;0.250977;,
   0.853516;0.122681;,
   0.755371;0.272705;,
   0.778809;0.168213;,
   0.708008;0.197266;,
   0.645996;0.196289;,
   0.622070;0.219971;,
   0.564941;0.176270;,
   0.582520;0.140747;,
   0.523438;0.134644;,
   0.635742;0.124084;,
   0.551758;0.104309;,
   0.492188;0.101624;,
   0.503906;0.066956;,
   0.548340;0.064270;,
   0.596191;0.063904;,
   0.655273;0.082520;,
   0.644043;0.054779;,
   0.698242;0.042328;,
   0.720215;0.099487;,
   0.740723;0.036987;,
   0.783691;0.091858;,
   0.786621;0.027664;,
   0.840332;0.062500;,
   0.838379;0.025711;,
   0.878906;0.076904;,
   0.862793;0.039856;,
   0.868652;0.013924;,
   0.894531;0.012733;,
   0.907715;0.047211;,
   0.941895;0.007813;,
   0.933594;0.070862;,
   0.973145;0.088562;,
   0.979492;0.050018;,
   0.946289;0.043854;,
   0.972656;0.014725;,
   0.507324;0.836426;,
   0.502441;0.782715;,
   0.528320;0.791016;,
   0.539063;0.754395;,
   0.469482;0.834473;,
   0.508301;0.704590;,
   0.388672;0.809570;,
   0.431152;0.841309;,
   0.461670;0.711914;,
   0.456055;0.678711;,
   0.377930;0.840820;,
   0.355469;0.690430;,
   0.391113;0.648926;,
   0.354492;0.626465;,
   0.327393;0.604492;,
   0.311768;0.796387;,
   0.307617;0.823242;,
   0.258789;0.812012;,
   0.337402;0.735840;,
   0.268799;0.636719;,
   0.284424;0.582031;,
   0.244629;0.571777;,
   0.256592;0.718262;,
   0.215820;0.631836;,
   0.197876;0.570313;,
   0.145996;0.583984;,
   0.214478;0.783691;,
   0.207520;0.809570;,
   0.161011;0.814453;,
   0.178467;0.712891;,
   0.120544;0.641602;,
   0.106384;0.589355;,
   0.070190;0.596191;,
   0.046265;0.642578;,
   0.081970;0.699707;,
   0.011467;0.673340;,
   0.007813;0.708008;,
   0.023499;0.768066;,
   0.119690;0.803223;,
   0.043152;0.810547;,
   0.113281;0.835938;,
   0.073425;0.839356;;
  }
 }
}