xof 0303txt 0032
template ColorRGBA {
 <35ff44e0-6c7c-11cf-8f52-0040333594a3>
 FLOAT red;
 FLOAT green;
 FLOAT blue;
 FLOAT alpha;
}

template ColorRGB {
 <d3e16e81-7835-11cf-8f52-0040333594a3>
 FLOAT red;
 FLOAT green;
 FLOAT blue;
}

template Material {
 <3d82ab4d-62da-11cf-ab39-0020af71e433>
 ColorRGBA faceColor;
 FLOAT power;
 ColorRGB specularColor;
 ColorRGB emissiveColor;
 [...]
}

template TextureFilename {
 <a42790e1-7810-11cf-8f52-0040333594a3>
 STRING filename;
}

template Frame {
 <3d82ab46-62da-11cf-ab39-0020af71e433>
 [...]
}

template Matrix4x4 {
 <f6f23f45-7686-11cf-8f52-0040333594a3>
 array FLOAT matrix[16];
}

template FrameTransformMatrix {
 <f6f23f41-7686-11cf-8f52-0040333594a3>
 Matrix4x4 frameMatrix;
}

template Vector {
 <3d82ab5e-62da-11cf-ab39-0020af71e433>
 FLOAT x;
 FLOAT y;
 FLOAT z;
}

template MeshFace {
 <3d82ab5f-62da-11cf-ab39-0020af71e433>
 DWORD nFaceVertexIndices;
 array DWORD faceVertexIndices[nFaceVertexIndices];
}

template Mesh {
 <3d82ab44-62da-11cf-ab39-0020af71e433>
 DWORD nVertices;
 array Vector vertices[nVertices];
 DWORD nFaces;
 array MeshFace faces[nFaces];
 [...]
}

template MeshNormals {
 <f6f23f43-7686-11cf-8f52-0040333594a3>
 DWORD nNormals;
 array Vector normals[nNormals];
 DWORD nFaceNormals;
 array MeshFace faceNormals[nFaceNormals];
}

template MeshMaterialList {
 <f6f23f42-7686-11cf-8f52-0040333594a3>
 DWORD nMaterials;
 DWORD nFaceIndexes;
 array DWORD faceIndexes[nFaceIndexes];
 [Material <3d82ab4d-62da-11cf-ab39-0020af71e433>]
}

template Coords2d {
 <f6f23f44-7686-11cf-8f52-0040333594a3>
 FLOAT u;
 FLOAT v;
}

template MeshTextureCoords {
 <f6f23f40-7686-11cf-8f52-0040333594a3>
 DWORD nTextureCoords;
 array Coords2d textureCoords[nTextureCoords];
}


Material MI_rockS_1 {
 1.000000;1.000000;1.000000;1.000000;;
 10.000000;
 0.000000;0.000000;0.000000;;
 0.000000;0.000000;0.000000;;

 TextureFilename {
  "rock2_1.tga";
 }
}

Frame SM_rockS_1 {
 

 FrameTransformMatrix {
  1.000000,0.000000,0.000000,0.000000,0.000000,1.000000,0.000000,0.000000,0.000000,0.000000,1.000000,0.000000,0.000000,0.000000,0.000000,1.000000;;
 }

 Mesh SM_rockS_1 {
  327;
  -8.572400;24.064349;-32.565478;,
  -16.267891;22.847750;-26.780979;,
  -9.319600;26.666547;-26.727482;,
  -7.985150;16.403848;-41.390781;,
  -18.575910;13.401350;-34.222285;,
  -29.432701;14.711550;-23.674885;,
  -13.945110;10.761149;-42.623280;,
  -6.046830;11.479150;-45.209683;,
  -20.121478;9.873148;-36.486781;,
  -15.311211;8.326250;-42.859280;,
  -22.912600;8.462351;-36.027981;,
  -7.935150;7.577848;-45.236979;,
  -4.994260;9.742750;-45.229680;,
  1.620700;1.606451;-44.839786;,
  -11.783980;6.998850;-44.222384;,
  -16.141158;5.709551;-40.108282;,
  -7.499840;1.597250;-42.208179;,
  4.097300;-1.245050;-42.471683;,
  -14.390770;6.775949;-42.618986;,
  -13.586099;4.799250;-41.762278;,
  -10.558565;0.551250;-39.641187;,
  -20.337811;7.979750;-36.150883;,
  -16.199920;4.050451;-38.269779;,
  -21.156101;4.508051;-35.358586;,
  -22.859200;6.568350;-35.386381;,
  -16.653549;-4.119551;-29.731181;,
  -22.751099;3.339048;-32.168781;,
  -18.861678;-2.758850;-30.673382;,
  -24.952899;7.564550;-34.129085;,
  -22.255901;-0.894550;-28.424883;,
  -26.422901;8.505547;-31.957683;,
  -23.486802;-3.063650;-22.379085;,
  -29.592202;10.839048;-24.150685;,
  -28.085398;13.324251;-16.785579;,
  -28.067002;5.751951;-23.018986;,
  -29.038602;9.102549;-26.038685;,
  -28.925597;10.109450;-17.979381;,
  -32.394499;8.775050;-4.052181;,
  -32.887901;8.462550;2.256516;,
  -33.740602;6.889849;1.058716;,
  -33.187699;5.908548;5.620018;,
  -30.673302;2.945848;-9.444183;,
  -27.831901;-1.599850;-13.067482;,
  -32.424998;1.476450;2.129017;,
  -22.435899;-12.524450;-8.973782;,
  -33.925098;-0.638851;9.527916;,
  -29.814800;-4.213150;-0.132084;,
  -25.090598;-9.692150;-5.557083;,
  -21.698398;-4.358650;-24.500080;,
  -23.166600;-12.785350;-6.015984;,
  -18.646360;-9.035950;-22.647579;,
  -17.744320;-16.458851;-14.068082;,
  -16.967051;-11.702751;-20.794384;,
  -24.396802;-14.796050;0.370316;,
  -5.784440;-5.911150;-33.660182;,
  -30.744499;-7.259651;7.934818;,
  2.258900;-3.798250;-39.533184;,
  -32.589299;-3.739450;11.280918;,
  7.376500;-4.013851;-38.431078;,
  7.389701;-1.115551;-40.157680;,
  5.195600;-8.321951;-31.960080;,
  12.981399;-3.634850;-33.843082;,
  13.888699;-1.816551;-33.561482;,
  10.766101;-6.479650;-31.997584;,
  3.155100;-8.397150;-30.793782;,
  19.472901;-4.005150;-25.472485;,
  17.743499;-1.470150;-28.006886;,
  20.760299;-2.757050;-23.623181;,
  20.042301;-3.936451;-23.425885;,
  15.607400;-8.125650;-23.415485;,
  3.236800;-18.033150;-13.751381;,
  9.591500;-11.487751;-23.195179;,
  7.498799;-14.506349;-18.950482;,
  -0.014200;-19.360050;-15.192181;,
  -2.934710;-22.223381;-9.450882;,
  1.745300;-13.552552;-23.264782;,
  -7.048770;-18.667851;-17.288280;,
  -2.364410;-19.047051;-16.718685;,
  -6.621860;-23.209301;-10.571682;,
  -10.039428;-14.149250;-21.922886;,
  -10.943466;-26.141320;-5.838783;,
  -13.366110;-27.860211;-1.933083;,
  -15.700430;-17.878349;-14.316982;,
  -15.129370;-25.498061;-4.480183;,
  -15.499890;-28.851053;2.618816;,
  -18.626600;-21.903779;-4.325584;,
  -18.490650;-26.181270;2.638718;,
  -15.788469;-28.710608;4.716316;,
  -23.880400;-17.439850;2.988617;,
  -25.339600;-15.704350;4.383316;,
  -24.745400;-18.310150;7.378819;,
  -22.932000;-21.078920;7.698917;,
  -16.692190;-26.853888;7.768116;,
  -15.949240;-25.257310;10.903816;,
  -23.493400;-18.785450;9.649818;,
  -19.507270;-19.572349;12.048218;,
  -10.133789;-21.550251;16.672515;,
  -22.830699;-15.070050;12.085918;,
  -13.356750;-9.922850;20.344618;,
  -4.803790;-16.549950;20.905718;,
  -2.099900;-9.419851;23.913618;,
  -26.376600;0.761650;18.209917;,
  -0.746620;-6.543751;26.204517;,
  0.270100;-7.693050;24.983917;,
  6.135301;-4.015350;31.701418;,
  -2.620620;-3.548651;27.627917;,
  2.545900;-4.800850;29.783917;,
  4.106500;-3.975851;31.120618;,
  -16.266090;-1.987650;22.700518;,
  -6.763270;0.415949;27.489018;,
  -17.595570;3.849051;23.691018;,
  -5.535410;7.995150;30.385018;,
  -7.447440;9.100550;28.356518;,
  -0.545700;19.944850;36.554416;,
  -20.309219;6.227148;20.725717;,
  -25.308400;4.562548;19.384216;,
  -23.706400;6.631151;18.929518;,
  -33.903600;5.290949;12.064617;,
  -32.268602;6.513651;12.324516;,
  -32.968602;6.004450;9.456615;,
  -33.731299;1.452551;12.600216;,
  12.421300;12.862349;42.996346;,
  14.169800;-1.769550;37.622416;,
  17.503502;0.784250;41.627376;,
  20.493099;2.930948;42.976966;,
  16.009301;13.217050;45.236976;,
  15.227099;15.381651;44.793907;,
  1.023500;21.807051;37.839818;,
  0.165600;22.067949;36.046115;,
  3.735900;24.229651;38.700614;,
  4.204600;26.295851;37.190518;,
  17.503502;0.784250;41.627376;,
  19.654800;0.973450;42.026877;,
  20.493099;2.930948;42.976966;,
  16.938099;-0.529951;39.116717;,
  20.142101;0.826950;39.631587;,
  14.169800;-1.769550;37.622416;,
  26.947299;4.385149;31.493315;,
  13.652899;-2.917450;36.252717;,
  6.135301;-4.015350;31.701418;,
  24.340099;4.300348;27.015318;,
  29.788701;7.849348;29.775517;,
  30.752998;8.879450;26.413717;,
  15.855000;-1.035950;36.564618;,
  23.375499;3.574148;25.601118;,
  31.699898;6.547850;17.383318;,
  31.713798;9.322950;25.044416;,
  32.385798;5.634951;15.729317;,
  21.751800;0.991550;25.434917;,
  25.071301;2.803949;21.687117;,
  31.314198;4.752748;13.481618;,
  19.431901;-0.662550;25.900218;,
  20.205501;0.582050;13.428718;,
  27.966099;4.732748;7.609116;,
  23.396000;1.952551;-2.441483;,
  3.898800;-6.158951;27.743216;,
  0.270100;-7.693050;24.983917;,
  4.449300;-7.774750;20.122418;,
  19.332501;-0.216450;6.148018;,
  22.324299;0.967449;-5.783482;,
  18.154800;-3.058250;-1.607182;,
  -1.187540;-13.970051;20.111618;,
  -2.099900;-9.419851;23.913618;,
  -4.803790;-16.549950;20.905718;,
  20.760299;-2.757050;-23.623181;,
  20.042301;-3.936451;-23.425885;,
  -3.942970;-17.227250;19.752818;,
  -10.133789;-21.550251;16.672515;,
  12.617200;-7.894550;-2.716583;,
  3.236800;-18.033150;-13.751381;,
  5.233700;-13.773350;1.626019;,
  -2.934710;-22.223381;-9.450882;,
  -9.114720;-22.472080;15.331418;,
  -15.949240;-25.257310;10.903816;,
  -15.788469;-28.710608;4.716316;,
  -13.796970;-28.467261;3.211617;,
  -13.366110;-27.860211;-1.933083;,
  -15.499890;-28.851053;2.618816;,
  -30.786701;8.073149;6.791718;,
  -33.187699;5.908548;5.620018;,
  -32.968602;6.004450;9.456615;,
  -32.268602;6.513651;12.324516;,
  -32.887901;8.462550;2.256516;,
  -28.064202;9.209349;2.401917;,
  -23.706400;6.631151;18.929518;,
  -26.888499;14.539549;-15.481786;,
  -28.085398;13.324251;-16.785579;,
  -17.570640;9.881151;13.781216;,
  -29.015498;14.932051;-21.912883;,
  -29.432701;14.711550;-23.674885;,
  -17.696350;14.288450;-4.916985;,
  -23.247200;18.406450;-23.306782;,
  -16.267891;22.847750;-26.780979;,
  -9.319600;26.666547;-26.727482;,
  -15.271150;15.922949;-5.005283;,
  -11.505436;13.980848;12.570618;,
  -18.016390;8.142050;20.160517;,
  -20.309219;6.227148;20.725717;,
  -7.447440;9.100550;28.356518;,
  -15.326450;21.595050;-20.573682;,
  -8.073660;11.292448;25.111816;,
  -9.901079;24.971450;-21.848584;,
  -11.396840;20.934149;-8.969284;,
  -4.611480;26.990950;-16.640682;,
  -8.080860;26.063947;-24.554386;,
  -5.800140;25.432349;-25.142781;,
  -8.572400;24.064349;-32.565478;,
  -7.812460;16.626349;12.023216;,
  -4.958380;17.393850;-38.276278;,
  -7.985150;16.403848;-41.390781;,
  -8.389680;13.030050;21.406317;,
  -0.711360;20.167848;10.548118;,
  0.114100;25.721048;-4.222282;,
  -3.670300;16.468650;20.153618;,
  -2.223150;26.544950;-12.712181;,
  -1.639440;18.038450;26.832818;,
  -1.705720;25.886648;-15.602886;,
  2.047900;28.289648;-6.405682;,
  0.614700;24.001952;-15.950085;,
  2.575200;28.067648;-8.951084;,
  4.988200;26.930048;-0.256382;,
  7.465600;18.055949;-15.184682;,
  5.875199;26.002848;4.512516;,
  8.122800;25.606451;3.216316;,
  4.806400;24.595350;-10.718082;,
  5.189200;26.106749;-7.581284;,
  8.929000;27.178352;10.433617;,
  16.612202;14.403051;-1.100883;,
  10.209300;27.488950;15.260216;,
  14.128101;22.186651;8.522018;,
  7.677600;27.104448;15.246418;,
  11.238700;28.851050;20.600918;,
  9.404799;28.395350;21.095618;,
  5.884900;26.348150;26.158018;,
  10.406100;28.781549;23.140717;,
  0.165600;22.067949;36.046115;,
  8.159699;27.612749;25.605016;,
  4.204600;26.295851;37.190518;,
  -3.677330;16.224650;33.076416;,
  -0.545700;19.944850;36.554416;,
  -5.535410;7.995150;30.385018;,
  -6.019870;10.641950;29.227018;,
  6.259801;26.504248;36.283120;,
  8.177899;24.780248;38.360416;,
  3.735900;24.229651;38.700614;,
  13.424701;18.245950;42.634406;,
  15.227099;15.381651;44.793907;,
  11.120200;22.872248;37.139818;,
  20.263402;12.307550;40.045827;,
  13.824000;22.550349;34.221318;,
  8.755700;26.474848;33.253715;,
  11.670600;26.690550;25.612818;,
  21.661800;18.034547;29.971718;,
  17.449200;24.512949;23.104317;,
  17.155701;21.480848;27.561318;,
  23.010998;21.150149;21.900618;,
  24.946800;13.154451;32.949120;,
  26.508099;17.070952;24.748618;,
  19.049301;21.552450;15.651416;,
  25.256198;20.436450;21.764218;,
  20.395402;20.109350;11.218918;,
  26.150398;19.187048;19.258418;,
  26.982899;19.367651;20.831218;,
  27.838602;18.036451;18.128018;,
  26.399498;18.077448;14.734115;,
  28.425498;15.427050;24.809717;,
  30.973402;15.510950;18.147216;,
  31.319699;14.601752;21.389418;,
  32.588496;12.575049;17.063717;,
  20.961498;18.099950;8.793918;,
  18.628299;18.127149;6.943016;,
  18.641400;15.529848;4.287418;,
  20.426602;12.286348;2.249317;,
  18.828800;11.971250;-1.311783;,
  17.239101;12.031950;-5.327682;,
  22.403198;7.337648;-4.104683;,
  13.929400;11.463251;-14.350682;,
  27.670899;6.480349;4.518719;,
  12.264600;11.162249;-18.101384;,
  32.347299;6.749548;11.429718;,
  15.250101;8.224550;-17.800786;,
  27.966099;4.732748;7.609116;,
  22.449498;4.303549;-11.231282;,
  31.314198;4.752748;13.481618;,
  27.109501;4.715551;1.981316;,
  23.396000;1.952551;-2.441483;,
  33.662499;7.501051;14.116818;,
  32.385798;5.634951;15.729317;,
  33.925098;10.545450;17.561518;,
  31.713798;9.322950;25.044416;,
  31.993699;11.717749;24.221117;,
  30.752998;8.879450;26.413717;,
  29.644099;9.275949;30.392115;,
  29.788701;7.849348;29.775517;,
  22.390198;11.013350;38.756618;,
  27.325398;5.627249;34.269818;,
  26.947299;4.385149;31.493315;,
  25.650101;5.116648;35.918019;,
  20.142101;0.826950;39.631587;,
  19.654800;0.973450;42.026877;,
  21.599400;3.865549;42.306915;,
  20.493099;2.930948;42.976966;,
  21.444698;9.845751;40.912765;,
  19.616501;10.613050;43.557926;,
  18.371101;9.085649;44.596358;,
  16.009301;13.217050;45.236976;,
  24.643798;4.549349;-3.072182;,
  23.155598;2.993650;-10.540283;,
  22.324299;0.967449;-5.783482;,
  20.760299;-2.757050;-23.623181;,
  17.743499;-1.470150;-28.006886;,
  10.076100;4.981951;-30.185085;,
  13.888699;-1.816551;-33.561482;,
  8.990800;3.313250;-34.098979;,
  7.389701;-1.115551;-40.157680;,
  2.478100;9.465551;-35.843181;,
  6.406501;5.399050;-35.165981;,
  2.233300;1.989851;-44.831782;,
  4.097300;-1.245050;-42.471683;,
  1.620700;1.606451;-44.839786;,
  -4.994260;9.742750;-45.229680;,
  1.619200;7.721251;-39.448186;,
  -0.458500;9.726648;-40.414784;,
  -2.288130;9.361750;-44.036784;,
  -4.094680;12.036249;-43.654781;,
  -5.116990;13.820550;-43.724080;,
  -6.046830;11.479150;-45.209683;;
  538;
  3;0,1,2;,
  3;3,1,0;,
  3;1,3,4;,
  3;5,1,4;,
  3;6,4,3;,
  3;7,6,3;,
  3;8,4,6;,
  3;6,7,9;,
  3;6,9,8;,
  3;4,10,5;,
  3;10,4,8;,
  3;7,11,9;,
  3;12,11,7;,
  3;11,12,13;,
  3;14,9,11;,
  3;13,14,11;,
  3;8,9,15;,
  3;16,14,13;,
  3;17,16,13;,
  3;18,9,14;,
  3;18,15,9;,
  3;18,14,19;,
  3;15,18,19;,
  3;20,14,16;,
  3;20,19,14;,
  3;15,21,8;,
  3;21,10,8;,
  3;19,22,15;,
  3;22,19,20;,
  3;15,23,21;,
  3;23,15,22;,
  3;10,21,24;,
  3;23,24,21;,
  3;20,25,22;,
  3;24,23,26;,
  3;22,27,23;,
  3;26,23,27;,
  3;22,25,27;,
  3;28,24,26;,
  3;28,10,24;,
  3;26,27,29;,
  3;26,29,28;,
  3;10,28,30;,
  3;30,5,10;,
  3;29,31,28;,
  3;30,32,5;,
  3;5,32,33;,
  3;30,28,34;,
  3;28,31,34;,
  3;32,30,35;,
  3;35,30,34;,
  3;35,36,32;,
  3;36,33,32;,
  3;36,35,34;,
  3;37,33,36;,
  3;34,37,36;,
  3;38,33,37;,
  3;39,38,37;,
  3;40,38,39;,
  3;37,34,41;,
  3;37,41,39;,
  3;41,34,42;,
  3;42,34,31;,
  3;41,43,39;,
  3;41,42,43;,
  3;39,43,40;,
  3;42,31,44;,
  3;40,43,45;,
  3;43,42,46;,
  3;46,45,43;,
  3;44,47,42;,
  3;42,47,46;,
  3;48,44,31;,
  3;31,29,48;,
  3;47,44,49;,
  3;29,50,48;,
  3;50,29,27;,
  3;44,48,51;,
  3;48,50,51;,
  3;51,49,44;,
  3;50,27,52;,
  3;52,51,50;,
  3;52,27,25;,
  3;53,47,49;,
  3;51,53,49;,
  3;46,47,53;,
  3;25,54,52;,
  3;20,54,25;,
  3;16,54,20;,
  3;54,16,17;,
  3;46,53,55;,
  3;55,45,46;,
  3;54,17,56;,
  3;57,45,55;,
  3;56,17,58;,
  3;59,58,17;,
  3;58,60,56;,
  3;59,61,58;,
  3;61,59,62;,
  3;60,58,63;,
  3;61,63,58;,
  3;56,60,64;,
  3;63,64,60;,
  3;56,64,54;,
  3;62,65,61;,
  3;66,65,62;,
  3;65,66,67;,
  3;67,68,65;,
  3;61,65,69;,
  3;65,68,69;,
  3;61,69,63;,
  3;69,68,70;,
  3;69,71,63;,
  3;64,63,71;,
  3;70,72,69;,
  3;72,71,69;,
  3;70,73,72;,
  3;74,73,70;,
  3;71,72,75;,
  3;71,75,64;,
  3;73,75,72;,
  3;76,64,75;,
  3;54,64,76;,
  3;75,73,77;,
  3;76,75,77;,
  3;78,77,73;,
  3;76,77,78;,
  3;74,78,73;,
  3;54,76,79;,
  3;79,52,54;,
  3;80,76,78;,
  3;74,80,78;,
  3;80,79,76;,
  3;80,74,81;,
  3;82,52,79;,
  3;79,80,82;,
  3;82,51,52;,
  3;80,81,83;,
  3;80,83,82;,
  3;51,82,83;,
  3;83,81,84;,
  3;83,85,51;,
  3;51,85,53;,
  3;83,84,86;,
  3;83,86,85;,
  3;86,53,85;,
  3;87,86,84;,
  3;53,86,88;,
  3;89,53,88;,
  3;89,55,53;,
  3;86,90,88;,
  3;88,90,89;,
  3;55,89,90;,
  3;87,90,86;,
  3;90,57,55;,
  3;90,87,91;,
  3;87,92,91;,
  3;93,92,87;,
  3;93,91,92;,
  3;94,90,91;,
  3;91,93,94;,
  3;57,90,94;,
  3;95,94,93;,
  3;93,96,95;,
  3;94,97,57;,
  3;97,94,95;,
  3;96,98,95;,
  3;98,97,95;,
  3;99,98,96;,
  3;99,100,98;,
  3;97,101,57;,
  3;101,97,98;,
  3;102,98,100;,
  3;103,102,100;,
  3;103,104,102;,
  3;98,102,105;,
  3;104,106,102;,
  3;102,106,105;,
  3;106,104,107;,
  3;107,105,106;,
  3;98,105,108;,
  3;108,101,98;,
  3;105,109,108;,
  3;109,105,107;,
  3;108,109,110;,
  3;110,101,108;,
  3;107,111,109;,
  3;110,109,111;,
  3;111,112,110;,
  3;107,113,111;,
  3;114,110,112;,
  3;114,115,110;,
  3;110,115,101;,
  3;115,114,116;,
  3;116,117,115;,
  3;117,101,115;,
  3;117,116,118;,
  3;118,119,117;,
  3;101,117,120;,
  3;119,120,117;,
  3;120,57,101;,
  3;40,120,119;,
  3;120,45,57;,
  3;120,40,45;,
  3;104,121,107;,
  3;113,107,121;,
  3;121,104,122;,
  3;123,121,122;,
  3;123,124,125;,
  3;125,121,123;,
  3;126,121,125;,
  3;127,113,121;,
  3;126,127,121;,
  3;127,128,113;,
  3;127,126,129;,
  3;128,127,129;,
  3;130,128,129;,
  3;131,132,133;,
  3;131,134,132;,
  3;132,134,135;,
  3;136,134,131;,
  3;135,134,137;,
  3;134,136,138;,
  3;136,139,138;,
  3;140,137,134;,
  3;137,140,141;,
  3;141,140,142;,
  3;143,140,134;,
  3;134,138,143;,
  3;144,142,140;,
  3;140,143,144;,
  3;145,142,144;,
  3;145,146,142;,
  3;146,145,147;,
  3;144,147,145;,
  3;148,144,143;,
  3;143,138,148;,
  3;147,144,149;,
  3;149,144,148;,
  3;147,149,150;,
  3;148,138,151;,
  3;151,149,148;,
  3;149,152,150;,
  3;151,152,149;,
  3;150,152,153;,
  3;153,152,154;,
  3;151,138,155;,
  3;139,155,138;,
  3;139,156,155;,
  3;155,157,151;,
  3;155,156,157;,
  3;152,151,157;,
  3;152,158,154;,
  3;157,158,152;,
  3;154,158,159;,
  3;158,157,160;,
  3;158,160,159;,
  3;157,156,161;,
  3;160,157,161;,
  3;162,161,156;,
  3;161,162,163;,
  3;164,159,165;,
  3;163,166,161;,
  3;167,166,163;,
  3;168,165,159;,
  3;160,168,159;,
  3;168,169,165;,
  3;161,170,160;,
  3;170,168,160;,
  3;170,169,168;,
  3;161,166,170;,
  3;170,171,169;,
  3;166,172,170;,
  3;172,171,170;,
  3;166,167,172;,
  3;172,167,173;,
  3;174,172,173;,
  3;171,172,175;,
  3;174,175,172;,
  3;176,171,175;,
  3;175,174,177;,
  3;175,177,176;,
  3;178,179,180;,
  3;180,181,178;,
  3;179,178,182;,
  3;178,181,183;,
  3;178,183,182;,
  3;183,181,184;,
  3;182,183,185;,
  3;186,182,185;,
  3;187,183,184;,
  3;186,185,188;,
  3;186,188,189;,
  3;185,183,190;,
  3;190,183,187;,
  3;191,189,188;,
  3;188,185,191;,
  3;189,191,192;,
  3;192,191,193;,
  3;185,190,194;,
  3;194,191,185;,
  3;187,195,190;,
  3;190,195,194;,
  3;184,196,187;,
  3;196,195,187;,
  3;197,196,184;,
  3;198,196,197;,
  3;191,194,199;,
  3;196,198,200;,
  3;201,191,199;,
  3;191,201,193;,
  3;199,194,202;,
  3;202,194,195;,
  3;199,203,201;,
  3;202,203,199;,
  3;204,193,201;,
  3;201,203,204;,
  3;205,193,204;,
  3;205,204,203;,
  3;206,193,205;,
  3;207,202,195;,
  3;205,208,206;,
  3;209,206,208;,
  3;210,207,195;,
  3;196,210,195;,
  3;210,196,200;,
  3;207,211,202;,
  3;211,207,210;,
  3;211,212,202;,
  3;202,212,203;,
  3;210,213,211;,
  3;212,214,203;,
  3;200,215,210;,
  3;215,213,210;,
  3;216,203,214;,
  3;205,203,216;,
  3;214,212,217;,
  3;216,218,205;,
  3;214,219,216;,
  3;219,214,217;,
  3;219,218,216;,
  3;212,220,217;,
  3;219,217,220;,
  3;211,220,212;,
  3;221,205,218;,
  3;221,208,205;,
  3;220,211,222;,
  3;213,222,211;,
  3;220,223,219;,
  3;223,220,222;,
  3;218,219,224;,
  3;218,224,221;,
  3;223,225,219;,
  3;224,219,225;,
  3;223,222,226;,
  3;224,225,227;,
  3;225,223,227;,
  3;222,228,226;,
  3;226,229,223;,
  3;228,229,226;,
  3;223,229,227;,
  3;228,222,230;,
  3;222,213,230;,
  3;213,215,230;,
  3;230,231,228;,
  3;231,229,228;,
  3;232,230,215;,
  3;231,230,232;,
  3;215,233,232;,
  3;232,234,231;,
  3;233,215,235;,
  3;236,232,233;,
  3;232,236,234;,
  3;235,237,233;,
  3;236,233,237;,
  3;215,238,235;,
  3;239,235,238;,
  3;238,240,239;,
  3;215,241,238;,
  3;240,238,241;,
  3;241,215,200;,
  3;240,241,198;,
  3;241,200,198;,
  3;237,242,236;,
  3;243,242,237;,
  3;244,243,237;,
  3;245,243,244;,
  3;245,244,246;,
  3;245,247,243;,
  3;242,243,247;,
  3;246,248,245;,
  3;247,245,248;,
  3;249,242,247;,
  3;247,248,249;,
  3;242,250,236;,
  3;250,242,249;,
  3;251,236,250;,
  3;251,234,236;,
  3;250,249,252;,
  3;251,253,234;,
  3;231,234,253;,
  3;250,254,251;,
  3;254,253,251;,
  3;254,250,252;,
  3;231,253,255;,
  3;253,254,255;,
  3;256,252,249;,
  3;256,249,248;,
  3;254,252,257;,
  3;252,256,257;,
  3;257,255,254;,
  3;255,258,231;,
  3;229,231,258;,
  3;255,257,259;,
  3;260,229,258;,
  3;260,258,255;,
  3;259,261,255;,
  3;255,261,260;,
  3;259,257,262;,
  3;262,261,259;,
  3;260,261,263;,
  3;262,263,261;,
  3;264,260,263;,
  3;265,262,257;,
  3;257,256,265;,
  3;266,263,262;,
  3;264,263,266;,
  3;267,266,262;,
  3;262,265,267;,
  3;266,268,264;,
  3;267,268,266;,
  3;260,264,269;,
  3;268,269,264;,
  3;260,269,229;,
  3;270,229,269;,
  3;270,227,229;,
  3;271,270,269;,
  3;227,270,271;,
  3;269,268,271;,
  3;227,271,272;,
  3;272,271,268;,
  3;227,272,273;,
  3;273,274,227;,
  3;272,275,273;,
  3;274,273,275;,
  3;274,276,227;,
  3;275,276,274;,
  3;227,276,224;,
  3;224,276,221;,
  3;275,272,277;,
  3;268,277,272;,
  3;221,276,278;,
  3;268,279,277;,
  3;276,280,278;,
  3;279,281,277;,
  3;280,276,282;,
  3;276,275,282;,
  3;279,283,281;,
  3;281,284,277;,
  3;284,275,277;,
  3;284,281,285;,
  3;286,283,279;,
  3;268,286,279;,
  3;283,286,287;,
  3;288,286,268;,
  3;287,286,288;,
  3;268,267,288;,
  3;288,289,287;,
  3;267,290,288;,
  3;289,288,290;,
  3;265,290,267;,
  3;290,291,289;,
  3;292,290,265;,
  3;291,290,292;,
  3;292,265,256;,
  3;292,293,291;,
  3;294,292,256;,
  3;293,292,295;,
  3;294,295,292;,
  3;295,296,293;,
  3;256,248,294;,
  3;296,295,297;,
  3;295,294,297;,
  3;297,298,296;,
  3;297,299,298;,
  3;300,299,297;,
  3;294,300,297;,
  3;300,301,299;,
  3;294,248,302;,
  3;302,300,294;,
  3;303,302,248;,
  3;300,302,303;,
  3;303,248,246;,
  3;300,304,301;,
  3;304,300,303;,
  3;304,303,246;,
  3;301,304,305;,
  3;246,305,304;,
  3;284,306,275;,
  3;285,306,284;,
  3;306,282,275;,
  3;307,306,285;,
  3;282,306,307;,
  3;285,308,307;,
  3;308,309,307;,
  3;282,307,309;,
  3;282,309,310;,
  3;282,310,280;,
  3;280,310,311;,
  3;280,311,278;,
  3;310,312,311;,
  3;278,311,221;,
  3;312,313,311;,
  3;313,312,314;,
  3;311,315,221;,
  3;208,221,315;,
  3;316,311,313;,
  3;316,315,311;,
  3;317,313,314;,
  3;313,317,316;,
  3;314,318,317;,
  3;317,318,319;,
  3;317,319,320;,
  3;315,316,321;,
  3;316,317,321;,
  3;321,322,315;,
  3;315,322,208;,
  3;323,321,317;,
  3;321,323,322;,
  3;323,317,320;,
  3;324,322,323;,
  3;323,320,324;,
  3;208,322,325;,
  3;325,322,324;,
  3;320,325,324;,
  3;325,209,208;,
  3;325,320,326;,
  3;325,326,209;;

  MeshNormals {
   327;
   0.049930;0.834617;-0.548563;,
   -0.535003;0.815274;-0.221585;,
   -0.194734;0.956518;-0.217146;,
   -0.111595;0.729626;-0.674679;,
   -0.534382;0.619392;-0.575142;,
   -0.816467;0.565369;-0.117214;,
   -0.482202;0.480432;-0.732575;,
   0.078881;0.336091;-0.938521;,
   -0.559188;0.347409;-0.752739;,
   -0.623810;-0.008169;-0.781533;,
   -0.454356;0.134541;-0.880602;,
   -0.173158;-0.092337;-0.980556;,
   0.240727;0.176770;-0.954360;,
   -0.013828;-0.433223;-0.901181;,
   -0.332550;-0.202528;-0.921082;,
   -0.651392;-0.448880;-0.611715;,
   -0.272462;-0.634022;-0.723727;,
   0.282872;-0.529645;-0.799662;,
   -0.520883;-0.464934;-0.715903;,
   -0.462752;-0.582974;-0.667833;,
   -0.381994;-0.679308;-0.626595;,
   -0.439696;-0.119440;-0.890170;,
   -0.477883;-0.632298;-0.609776;,
   -0.560252;-0.437622;-0.703281;,
   -0.459949;-0.396263;-0.794621;,
   -0.273542;-0.725643;-0.631361;,
   -0.622432;-0.559380;-0.547424;,
   -0.423155;-0.668040;-0.612097;,
   -0.777590;-0.173077;-0.604481;,
   -0.722124;-0.542146;-0.429668;,
   -0.860361;-0.037610;-0.508296;,
   -0.803945;-0.500936;-0.320523;,
   -0.992521;-0.076967;-0.094752;,
   -0.904820;0.417806;0.082095;,
   -0.913647;-0.346815;-0.212059;,
   -0.943102;-0.190451;-0.272558;,
   -0.988583;0.122309;-0.088003;,
   -0.932333;0.329604;-0.148717;,
   -0.656082;0.731283;0.186498;,
   -0.993086;0.111426;-0.036931;,
   -0.922075;0.370248;0.112669;,
   -0.942129;-0.259913;-0.211749;,
   -0.858816;-0.442311;-0.258448;,
   -0.951849;-0.246476;-0.182301;,
   -0.796322;-0.544138;-0.264170;,
   -0.981590;-0.187809;-0.034756;,
   -0.883183;-0.399664;-0.245474;,
   -0.838173;-0.479643;-0.259631;,
   -0.727437;-0.566871;-0.386642;,
   -0.817787;-0.498215;-0.288108;,
   -0.583658;-0.646958;-0.490702;,
   -0.665792;-0.609518;-0.430360;,
   -0.419357;-0.699440;-0.578725;,
   -0.835405;-0.460248;-0.300450;,
   -0.209175;-0.780356;-0.589313;,
   -0.886590;-0.443078;-0.132820;,
   -0.157295;-0.750075;-0.642375;,
   -0.815714;-0.423108;0.394450;,
   0.365977;-0.679543;-0.635832;,
   0.697620;-0.017332;-0.716259;,
   0.137018;-0.986588;-0.088713;,
   0.631033;-0.496448;-0.596102;,
   0.758398;0.186267;-0.624609;,
   0.392941;-0.800381;-0.452755;,
   0.018387;-0.883591;-0.467898;,
   0.778546;-0.440982;-0.446544;,
   0.791553;0.306143;-0.528886;,
   0.951242;-0.152152;-0.268308;,
   0.769848;-0.636914;-0.040911;,
   0.604647;-0.777705;-0.171977;,
   0.569104;-0.821462;-0.036331;,
   0.335440;-0.835497;-0.435229;,
   0.448078;-0.847656;-0.284087;,
   0.327627;-0.867889;-0.373401;,
   0.489306;-0.869223;-0.070926;,
   0.174315;-0.824633;-0.538140;,
   -0.110675;-0.796541;-0.594368;,
   0.113474;-0.823379;-0.556032;,
   0.147324;-0.890768;-0.429916;,
   -0.281939;-0.740057;-0.610595;,
   0.037722;-0.909854;-0.413211;,
   0.033539;-0.960329;-0.276847;,
   -0.415140;-0.720303;-0.555718;,
   -0.491955;-0.731171;-0.472620;,
   -0.230890;-0.964383;-0.129056;,
   -0.755142;-0.552116;-0.353453;,
   -0.744155;-0.652208;-0.144424;,
   -0.234746;-0.946898;0.219725;,
   -0.823491;-0.484337;-0.295430;,
   -0.849090;-0.455391;-0.267702;,
   -0.850323;-0.525523;0.027875;,
   -0.774863;-0.627653;0.075094;,
   -0.449793;-0.793095;0.410714;,
   -0.259415;-0.760621;0.595113;,
   -0.665090;-0.491914;0.561851;,
   -0.500674;-0.421538;0.756063;,
   -0.171094;-0.626085;0.760752;,
   -0.507529;-0.394118;0.766215;,
   -0.392177;-0.389527;0.833346;,
   0.052730;-0.513653;0.856376;,
   -0.002215;-0.559614;0.828750;,
   -0.552702;-0.232969;0.800153;,
   -0.208687;-0.656845;0.724572;,
   0.183538;-0.781883;0.595795;,
   -0.256295;-0.672528;0.694276;,
   -0.376290;-0.469814;0.798549;,
   -0.273570;-0.694655;0.665293;,
   -0.326904;-0.521305;0.788273;,
   -0.415565;-0.328781;0.848062;,
   -0.385976;-0.302812;0.871394;,
   -0.486515;0.042493;0.872639;,
   -0.629681;-0.037746;0.775936;,
   -0.613038;0.429970;0.662805;,
   -0.763487;0.115831;0.635351;,
   -0.391593;0.558981;0.730886;,
   -0.539559;0.222658;0.811973;,
   -0.372927;0.742313;0.556683;,
   -0.915960;0.328311;0.230714;,
   -0.446309;0.832882;0.327287;,
   -0.846486;0.532353;-0.007862;,
   -0.878585;-0.069188;0.472548;,
   -0.508163;-0.217277;0.833403;,
   -0.305424;-0.591339;0.746347;,
   -0.259992;-0.618743;0.741324;,
   0.118919;-0.383256;0.915955;,
   0.211927;0.132430;0.968271;,
   0.104433;0.391243;0.914343;,
   -0.648284;0.257769;0.716438;,
   -0.796043;0.564596;0.218053;,
   -0.309792;0.495356;0.811573;,
   -0.504589;0.737700;0.448541;,
   -0.259992;-0.618743;0.741324;,
   0.408455;-0.716552;0.565436;,
   0.118919;-0.383256;0.915955;,
   0.314903;-0.926407;0.206412;,
   0.546748;-0.830010;0.110227;,
   -0.305424;-0.591339;0.746347;,
   0.633968;-0.773117;-0.019335;,
   0.145113;-0.902342;0.405858;,
   -0.256295;-0.672528;0.694276;,
   0.543600;-0.836966;-0.063136;,
   0.854307;-0.512973;0.083769;,
   0.828303;-0.495203;0.262083;,
   0.609643;-0.792533;0.015073;,
   0.674341;-0.692209;0.257121;,
   0.220881;-0.848910;0.480170;,
   0.836597;-0.383941;0.390762;,
   0.694256;-0.692323;0.196716;,
   0.692351;-0.677259;0.248938;,
   0.550629;-0.808700;0.206913;,
   0.572215;-0.810373;-0.125957;,
   0.498151;-0.865058;0.059329;,
   0.447601;-0.894139;-0.013030;,
   0.596326;-0.771899;-0.220380;,
   0.713772;-0.696648;-0.072191;,
   0.157188;-0.931913;0.326848;,
   0.183538;-0.781883;0.595795;,
   0.550470;-0.788728;0.273664;,
   0.561987;-0.821674;0.094986;,
   0.773659;-0.633595;0.003092;,
   0.684491;-0.724593;0.080236;,
   0.621086;-0.611348;0.490414;,
   -0.002215;-0.559614;0.828750;,
   0.052730;-0.513653;0.856376;,
   0.951242;-0.152152;-0.268308;,
   0.769848;-0.636914;-0.040911;,
   0.520069;-0.709064;0.476190;,
   -0.171094;-0.626085;0.760752;,
   0.662943;-0.743788;0.085363;,
   0.569104;-0.821462;-0.036331;,
   0.643961;-0.747093;0.164824;,
   0.489306;-0.869223;-0.070926;,
   0.334369;-0.844896;0.417549;,
   -0.259415;-0.760621;0.595113;,
   -0.234746;-0.946898;0.219725;,
   0.399043;-0.911396;0.100609;,
   0.033539;-0.960329;-0.276847;,
   -0.230890;-0.964383;-0.129056;,
   -0.294509;0.925920;0.236511;,
   -0.922075;0.370248;0.112669;,
   -0.846486;0.532353;-0.007862;,
   -0.446309;0.832882;0.327287;,
   -0.656082;0.731283;0.186498;,
   -0.212370;0.949997;0.228922;,
   -0.372927;0.742313;0.556683;,
   -0.531087;0.822515;0.203507;,
   -0.904820;0.417806;0.082095;,
   -0.417312;0.884024;0.210602;,
   -0.797915;0.574697;0.181808;,
   -0.816467;0.565369;-0.117214;,
   -0.429003;0.850211;0.305118;,
   -0.472858;0.865328;0.166171;,
   -0.535003;0.815274;-0.221585;,
   -0.194734;0.956518;-0.217146;,
   -0.577636;0.771504;0.266681;,
   -0.526495;0.815991;0.238665;,
   -0.429330;0.805936;0.407605;,
   -0.391593;0.558981;0.730886;,
   -0.613038;0.429970;0.662805;,
   -0.474077;0.833562;0.283593;,
   -0.609362;0.650663;0.453119;,
   -0.435578;0.880856;0.185375;,
   -0.557471;0.790595;0.253349;,
   -0.049632;0.998713;0.010486;,
   0.031612;0.994158;0.103204;,
   0.484451;0.831318;-0.272429;,
   0.049930;0.834617;-0.548563;,
   -0.452582;0.847737;0.276608;,
   0.569402;0.667187;-0.480253;,
   -0.111595;0.729626;-0.674679;,
   -0.543858;0.791838;0.277869;,
   -0.501524;0.840020;0.206981;,
   -0.504724;0.807001;0.306601;,
   -0.609418;0.790224;0.064463;,
   -0.025282;0.998536;-0.047827;,
   -0.751779;0.659363;-0.008280;,
   0.423600;0.854952;-0.299367;,
   -0.160537;0.974995;0.153663;,
   0.584026;0.691184;-0.425652;,
   0.296487;0.914660;-0.274759;,
   -0.033799;0.982827;0.181409;,
   0.655195;0.615416;-0.438158;,
   -0.254282;0.964567;0.070368;,
   0.502285;0.851146;-0.152513;,
   0.659876;0.606842;-0.443064;,
   0.705087;0.659661;-0.260193;,
   0.097856;0.989759;-0.103928;,
   0.699870;0.638240;-0.320674;,
   0.231940;0.943452;-0.236858;,
   0.570446;0.750327;-0.334066;,
   -0.449639;0.892153;-0.043445;,
   0.214434;0.972535;-0.090520;,
   -0.455042;0.888778;-0.054867;,
   -0.641589;0.754035;-0.140695;,
   0.061212;0.968791;0.240202;,
   -0.796043;0.564596;0.218053;,
   -0.188197;0.973102;0.132870;,
   -0.504589;0.737700;0.448541;,
   -0.903177;0.277719;0.327327;,
   -0.763487;0.115831;0.635351;,
   -0.629681;-0.037746;0.775936;,
   -0.829766;0.323554;0.454754;,
   0.194660;0.932582;0.303972;,
   0.330434;0.765153;0.552588;,
   -0.309792;0.495356;0.811573;,
   0.418525;0.705021;0.572523;,
   0.104433;0.391243;0.914343;,
   0.581992;0.727048;0.364261;,
   0.677745;0.588541;0.440774;,
   0.577736;0.734256;0.356495;,
   0.393726;0.885702;0.245991;,
   0.436558;0.821686;0.366399;,
   0.570012;0.742748;0.351300;,
   0.526070;0.783520;0.330676;,
   0.545044;0.777774;0.313042;,
   0.476246;0.865898;0.153008;,
   0.653630;0.594705;0.468075;,
   0.546392;0.704499;0.452921;,
   0.462776;0.853092;-0.240982;,
   0.409951;0.891198;0.194180;,
   0.447683;0.824777;-0.345431;,
   0.397368;0.881168;-0.256206;,
   0.582014;0.811203;0.056657;,
   0.545860;0.808217;-0.220960;,
   0.564093;0.728917;-0.387916;,
   0.638099;0.629566;0.443256;,
   0.762971;0.621409;-0.178117;,
   0.791342;0.564747;0.234176;,
   0.792574;0.529402;-0.302589;,
   0.556651;0.613193;-0.560476;,
   0.504283;0.675528;-0.537923;,
   0.708556;0.531008;-0.464735;,
   0.642309;0.645416;-0.413373;,
   0.670425;0.672418;-0.313665;,
   0.677333;0.679603;-0.281708;,
   0.720768;0.623348;-0.303201;,
   0.693429;0.639037;-0.332848;,
   0.875255;0.252323;-0.412629;,
   0.661874;0.632697;-0.402017;,
   0.861045;-0.152474;-0.485132;,
   0.672045;0.627413;-0.393329;,
   0.596326;-0.771899;-0.220380;,
   0.799761;0.513057;-0.311697;,
   0.572215;-0.810373;-0.125957;,
   0.921770;-0.211479;-0.324987;,
   0.713772;-0.696648;-0.072191;,
   0.967807;-0.111429;-0.225685;,
   0.694256;-0.692323;0.196716;,
   0.989747;0.139955;-0.028514;,
   0.836597;-0.383941;0.390762;,
   0.873571;0.303796;0.380239;,
   0.828303;-0.495203;0.262083;,
   0.857717;0.222388;0.463535;,
   0.854307;-0.512973;0.083769;,
   0.734899;0.401186;0.546785;,
   0.786057;-0.366273;0.497954;,
   0.633968;-0.773117;-0.019335;,
   0.782456;-0.331517;0.527123;,
   0.546748;-0.830010;0.110227;,
   0.408455;-0.716552;0.565436;,
   0.766834;-0.198553;0.610363;,
   0.118919;-0.383256;0.915955;,
   0.823500;0.287009;0.489360;,
   0.695809;0.307461;0.649090;,
   0.124974;-0.136869;0.982674;,
   0.211927;0.132430;0.968271;,
   0.943003;0.048782;-0.329189;,
   0.985234;-0.014789;-0.170575;,
   0.773659;-0.633595;0.003092;,
   0.951242;-0.152152;-0.268308;,
   0.791553;0.306143;-0.528886;,
   0.661168;0.608691;-0.438581;,
   0.758398;0.186267;-0.624609;,
   0.666837;0.568541;-0.481757;,
   0.697620;-0.017332;-0.716259;,
   0.700928;0.570895;-0.427526;,
   0.674033;0.574096;-0.464858;,
   0.492988;0.078547;-0.866483;,
   0.282872;-0.529645;-0.799662;,
   -0.013828;-0.433223;-0.901181;,
   0.240727;0.176770;-0.954360;,
   0.711957;0.537423;-0.451990;,
   0.726535;0.540534;-0.424229;,
   0.595608;0.465074;-0.654948;,
   0.643625;0.394807;-0.655648;,
   0.374554;0.593983;-0.711964;,
   0.078881;0.336091;-0.938521;;
   538;
   3;0,1,2;,
   3;3,1,0;,
   3;1,3,4;,
   3;5,1,4;,
   3;6,4,3;,
   3;7,6,3;,
   3;8,4,6;,
   3;6,7,9;,
   3;6,9,8;,
   3;4,10,5;,
   3;10,4,8;,
   3;7,11,9;,
   3;12,11,7;,
   3;11,12,13;,
   3;14,9,11;,
   3;13,14,11;,
   3;8,9,15;,
   3;16,14,13;,
   3;17,16,13;,
   3;18,9,14;,
   3;18,15,9;,
   3;18,14,19;,
   3;15,18,19;,
   3;20,14,16;,
   3;20,19,14;,
   3;15,21,8;,
   3;21,10,8;,
   3;19,22,15;,
   3;22,19,20;,
   3;15,23,21;,
   3;23,15,22;,
   3;10,21,24;,
   3;23,24,21;,
   3;20,25,22;,
   3;24,23,26;,
   3;22,27,23;,
   3;26,23,27;,
   3;22,25,27;,
   3;28,24,26;,
   3;28,10,24;,
   3;26,27,29;,
   3;26,29,28;,
   3;10,28,30;,
   3;30,5,10;,
   3;29,31,28;,
   3;30,32,5;,
   3;5,32,33;,
   3;30,28,34;,
   3;28,31,34;,
   3;32,30,35;,
   3;35,30,34;,
   3;35,36,32;,
   3;36,33,32;,
   3;36,35,34;,
   3;37,33,36;,
   3;34,37,36;,
   3;38,33,37;,
   3;39,38,37;,
   3;40,38,39;,
   3;37,34,41;,
   3;37,41,39;,
   3;41,34,42;,
   3;42,34,31;,
   3;41,43,39;,
   3;41,42,43;,
   3;39,43,40;,
   3;42,31,44;,
   3;40,43,45;,
   3;43,42,46;,
   3;46,45,43;,
   3;44,47,42;,
   3;42,47,46;,
   3;48,44,31;,
   3;31,29,48;,
   3;47,44,49;,
   3;29,50,48;,
   3;50,29,27;,
   3;44,48,51;,
   3;48,50,51;,
   3;51,49,44;,
   3;50,27,52;,
   3;52,51,50;,
   3;52,27,25;,
   3;53,47,49;,
   3;51,53,49;,
   3;46,47,53;,
   3;25,54,52;,
   3;20,54,25;,
   3;16,54,20;,
   3;54,16,17;,
   3;46,53,55;,
   3;55,45,46;,
   3;54,17,56;,
   3;57,45,55;,
   3;56,17,58;,
   3;59,58,17;,
   3;58,60,56;,
   3;59,61,58;,
   3;61,59,62;,
   3;60,58,63;,
   3;61,63,58;,
   3;56,60,64;,
   3;63,64,60;,
   3;56,64,54;,
   3;62,65,61;,
   3;66,65,62;,
   3;65,66,67;,
   3;67,68,65;,
   3;61,65,69;,
   3;65,68,69;,
   3;61,69,63;,
   3;69,68,70;,
   3;69,71,63;,
   3;64,63,71;,
   3;70,72,69;,
   3;72,71,69;,
   3;70,73,72;,
   3;74,73,70;,
   3;71,72,75;,
   3;71,75,64;,
   3;73,75,72;,
   3;76,64,75;,
   3;54,64,76;,
   3;75,73,77;,
   3;76,75,77;,
   3;78,77,73;,
   3;76,77,78;,
   3;74,78,73;,
   3;54,76,79;,
   3;79,52,54;,
   3;80,76,78;,
   3;74,80,78;,
   3;80,79,76;,
   3;80,74,81;,
   3;82,52,79;,
   3;79,80,82;,
   3;82,51,52;,
   3;80,81,83;,
   3;80,83,82;,
   3;51,82,83;,
   3;83,81,84;,
   3;83,85,51;,
   3;51,85,53;,
   3;83,84,86;,
   3;83,86,85;,
   3;86,53,85;,
   3;87,86,84;,
   3;53,86,88;,
   3;89,53,88;,
   3;89,55,53;,
   3;86,90,88;,
   3;88,90,89;,
   3;55,89,90;,
   3;87,90,86;,
   3;90,57,55;,
   3;90,87,91;,
   3;87,92,91;,
   3;93,92,87;,
   3;93,91,92;,
   3;94,90,91;,
   3;91,93,94;,
   3;57,90,94;,
   3;95,94,93;,
   3;93,96,95;,
   3;94,97,57;,
   3;97,94,95;,
   3;96,98,95;,
   3;98,97,95;,
   3;99,98,96;,
   3;99,100,98;,
   3;97,101,57;,
   3;101,97,98;,
   3;102,98,100;,
   3;103,102,100;,
   3;103,104,102;,
   3;98,102,105;,
   3;104,106,102;,
   3;102,106,105;,
   3;106,104,107;,
   3;107,105,106;,
   3;98,105,108;,
   3;108,101,98;,
   3;105,109,108;,
   3;109,105,107;,
   3;108,109,110;,
   3;110,101,108;,
   3;107,111,109;,
   3;110,109,111;,
   3;111,112,110;,
   3;107,113,111;,
   3;114,110,112;,
   3;114,115,110;,
   3;110,115,101;,
   3;115,114,116;,
   3;116,117,115;,
   3;117,101,115;,
   3;117,116,118;,
   3;118,119,117;,
   3;101,117,120;,
   3;119,120,117;,
   3;120,57,101;,
   3;40,120,119;,
   3;120,45,57;,
   3;120,40,45;,
   3;104,121,107;,
   3;113,107,121;,
   3;121,104,122;,
   3;123,121,122;,
   3;123,124,125;,
   3;125,121,123;,
   3;126,121,125;,
   3;127,113,121;,
   3;126,127,121;,
   3;127,128,113;,
   3;127,126,129;,
   3;128,127,129;,
   3;130,128,129;,
   3;131,132,133;,
   3;131,134,132;,
   3;132,134,135;,
   3;136,134,131;,
   3;135,134,137;,
   3;134,136,138;,
   3;136,139,138;,
   3;140,137,134;,
   3;137,140,141;,
   3;141,140,142;,
   3;143,140,134;,
   3;134,138,143;,
   3;144,142,140;,
   3;140,143,144;,
   3;145,142,144;,
   3;145,146,142;,
   3;146,145,147;,
   3;144,147,145;,
   3;148,144,143;,
   3;143,138,148;,
   3;147,144,149;,
   3;149,144,148;,
   3;147,149,150;,
   3;148,138,151;,
   3;151,149,148;,
   3;149,152,150;,
   3;151,152,149;,
   3;150,152,153;,
   3;153,152,154;,
   3;151,138,155;,
   3;139,155,138;,
   3;139,156,155;,
   3;155,157,151;,
   3;155,156,157;,
   3;152,151,157;,
   3;152,158,154;,
   3;157,158,152;,
   3;154,158,159;,
   3;158,157,160;,
   3;158,160,159;,
   3;157,156,161;,
   3;160,157,161;,
   3;162,161,156;,
   3;161,162,163;,
   3;164,159,165;,
   3;163,166,161;,
   3;167,166,163;,
   3;168,165,159;,
   3;160,168,159;,
   3;168,169,165;,
   3;161,170,160;,
   3;170,168,160;,
   3;170,169,168;,
   3;161,166,170;,
   3;170,171,169;,
   3;166,172,170;,
   3;172,171,170;,
   3;166,167,172;,
   3;172,167,173;,
   3;174,172,173;,
   3;171,172,175;,
   3;174,175,172;,
   3;176,171,175;,
   3;175,174,177;,
   3;175,177,176;,
   3;178,179,180;,
   3;180,181,178;,
   3;179,178,182;,
   3;178,181,183;,
   3;178,183,182;,
   3;183,181,184;,
   3;182,183,185;,
   3;186,182,185;,
   3;187,183,184;,
   3;186,185,188;,
   3;186,188,189;,
   3;185,183,190;,
   3;190,183,187;,
   3;191,189,188;,
   3;188,185,191;,
   3;189,191,192;,
   3;192,191,193;,
   3;185,190,194;,
   3;194,191,185;,
   3;187,195,190;,
   3;190,195,194;,
   3;184,196,187;,
   3;196,195,187;,
   3;197,196,184;,
   3;198,196,197;,
   3;191,194,199;,
   3;196,198,200;,
   3;201,191,199;,
   3;191,201,193;,
   3;199,194,202;,
   3;202,194,195;,
   3;199,203,201;,
   3;202,203,199;,
   3;204,193,201;,
   3;201,203,204;,
   3;205,193,204;,
   3;205,204,203;,
   3;206,193,205;,
   3;207,202,195;,
   3;205,208,206;,
   3;209,206,208;,
   3;210,207,195;,
   3;196,210,195;,
   3;210,196,200;,
   3;207,211,202;,
   3;211,207,210;,
   3;211,212,202;,
   3;202,212,203;,
   3;210,213,211;,
   3;212,214,203;,
   3;200,215,210;,
   3;215,213,210;,
   3;216,203,214;,
   3;205,203,216;,
   3;214,212,217;,
   3;216,218,205;,
   3;214,219,216;,
   3;219,214,217;,
   3;219,218,216;,
   3;212,220,217;,
   3;219,217,220;,
   3;211,220,212;,
   3;221,205,218;,
   3;221,208,205;,
   3;220,211,222;,
   3;213,222,211;,
   3;220,223,219;,
   3;223,220,222;,
   3;218,219,224;,
   3;218,224,221;,
   3;223,225,219;,
   3;224,219,225;,
   3;223,222,226;,
   3;224,225,227;,
   3;225,223,227;,
   3;222,228,226;,
   3;226,229,223;,
   3;228,229,226;,
   3;223,229,227;,
   3;228,222,230;,
   3;222,213,230;,
   3;213,215,230;,
   3;230,231,228;,
   3;231,229,228;,
   3;232,230,215;,
   3;231,230,232;,
   3;215,233,232;,
   3;232,234,231;,
   3;233,215,235;,
   3;236,232,233;,
   3;232,236,234;,
   3;235,237,233;,
   3;236,233,237;,
   3;215,238,235;,
   3;239,235,238;,
   3;238,240,239;,
   3;215,241,238;,
   3;240,238,241;,
   3;241,215,200;,
   3;240,241,198;,
   3;241,200,198;,
   3;237,242,236;,
   3;243,242,237;,
   3;244,243,237;,
   3;245,243,244;,
   3;245,244,246;,
   3;245,247,243;,
   3;242,243,247;,
   3;246,248,245;,
   3;247,245,248;,
   3;249,242,247;,
   3;247,248,249;,
   3;242,250,236;,
   3;250,242,249;,
   3;251,236,250;,
   3;251,234,236;,
   3;250,249,252;,
   3;251,253,234;,
   3;231,234,253;,
   3;250,254,251;,
   3;254,253,251;,
   3;254,250,252;,
   3;231,253,255;,
   3;253,254,255;,
   3;256,252,249;,
   3;256,249,248;,
   3;254,252,257;,
   3;252,256,257;,
   3;257,255,254;,
   3;255,258,231;,
   3;229,231,258;,
   3;255,257,259;,
   3;260,229,258;,
   3;260,258,255;,
   3;259,261,255;,
   3;255,261,260;,
   3;259,257,262;,
   3;262,261,259;,
   3;260,261,263;,
   3;262,263,261;,
   3;264,260,263;,
   3;265,262,257;,
   3;257,256,265;,
   3;266,263,262;,
   3;264,263,266;,
   3;267,266,262;,
   3;262,265,267;,
   3;266,268,264;,
   3;267,268,266;,
   3;260,264,269;,
   3;268,269,264;,
   3;260,269,229;,
   3;270,229,269;,
   3;270,227,229;,
   3;271,270,269;,
   3;227,270,271;,
   3;269,268,271;,
   3;227,271,272;,
   3;272,271,268;,
   3;227,272,273;,
   3;273,274,227;,
   3;272,275,273;,
   3;274,273,275;,
   3;274,276,227;,
   3;275,276,274;,
   3;227,276,224;,
   3;224,276,221;,
   3;275,272,277;,
   3;268,277,272;,
   3;221,276,278;,
   3;268,279,277;,
   3;276,280,278;,
   3;279,281,277;,
   3;280,276,282;,
   3;276,275,282;,
   3;279,283,281;,
   3;281,284,277;,
   3;284,275,277;,
   3;284,281,285;,
   3;286,283,279;,
   3;268,286,279;,
   3;283,286,287;,
   3;288,286,268;,
   3;287,286,288;,
   3;268,267,288;,
   3;288,289,287;,
   3;267,290,288;,
   3;289,288,290;,
   3;265,290,267;,
   3;290,291,289;,
   3;292,290,265;,
   3;291,290,292;,
   3;292,265,256;,
   3;292,293,291;,
   3;294,292,256;,
   3;293,292,295;,
   3;294,295,292;,
   3;295,296,293;,
   3;256,248,294;,
   3;296,295,297;,
   3;295,294,297;,
   3;297,298,296;,
   3;297,299,298;,
   3;300,299,297;,
   3;294,300,297;,
   3;300,301,299;,
   3;294,248,302;,
   3;302,300,294;,
   3;303,302,248;,
   3;300,302,303;,
   3;303,248,246;,
   3;300,304,301;,
   3;304,300,303;,
   3;304,303,246;,
   3;301,304,305;,
   3;246,305,304;,
   3;284,306,275;,
   3;285,306,284;,
   3;306,282,275;,
   3;307,306,285;,
   3;282,306,307;,
   3;285,308,307;,
   3;308,309,307;,
   3;282,307,309;,
   3;282,309,310;,
   3;282,310,280;,
   3;280,310,311;,
   3;280,311,278;,
   3;310,312,311;,
   3;278,311,221;,
   3;312,313,311;,
   3;313,312,314;,
   3;311,315,221;,
   3;208,221,315;,
   3;316,311,313;,
   3;316,315,311;,
   3;317,313,314;,
   3;313,317,316;,
   3;314,318,317;,
   3;317,318,319;,
   3;317,319,320;,
   3;315,316,321;,
   3;316,317,321;,
   3;321,322,315;,
   3;315,322,208;,
   3;323,321,317;,
   3;321,323,322;,
   3;323,317,320;,
   3;324,322,323;,
   3;323,320,324;,
   3;208,322,325;,
   3;325,322,324;,
   3;320,325,324;,
   3;325,209,208;,
   3;325,320,326;,
   3;325,326,209;;
  }

  MeshMaterialList {
   1;
   538;
   0,
   0,
   0,
   0,
   0,
   0,
   0,
   0,
   0,
   0,
   0,
   0,
   0,
   0,
   0,
   0,
   0,
   0,
   0,
   0,
   0,
   0,
   0,
   0,
   0,
   0,
   0,
   0,
   0,
   0,
   0,
   0,
   0,
   0,
   0,
   0,
   0,
   0,
   0,
   0,
   0,
   0,
   0,
   0,
   0,
   0,
   0,
   0,
   0,
   0,
   0,
   0,
   0,
   0,
   0,
   0,
   0,
   0,
   0,
   0,
   0,
   0,
   0,
   0,
   0,
   0,
   0,
   0,
   0,
   0,
   0,
   0,
   0,
   0,
   0,
   0,
   0,
   0,
   0,
   0,
   0,
   0,
   0,
   0,
   0,
   0,
   0,
   0,
   0,
   0,
   0,
   0,
   0,
   0,
   0,
   0,
   0,
   0,
   0,
   0,
   0,
   0,
   0,
   0,
   0,
   0,
   0,
   0,
   0,
   0,
   0,
   0,
   0,
   0,
   0,
   0,
   0,
   0,
   0,
   0,
   0,
   0,
   0,
   0,
   0,
   0,
   0,
   0,
   0,
   0,
   0,
   0,
   0,
   0,
   0,
   0,
   0,
   0,
   0,
   0,
   0,
   0,
   0,
   0,
   0,
   0,
   0,
   0,
   0,
   0,
   0,
   0,
   0,
   0,
   0,
   0,
   0,
   0,
   0,
   0,
   0,
   0,
   0,
   0,
   0,
   0,
   0,
   0,
   0,
   0,
   0,
   0,
   0,
   0,
   0,
   0,
   0,
   0,
   0,
   0,
   0,
   0,
   0,
   0,
   0,
   0,
   0,
   0,
   0,
   0,
   0,
   0,
   0,
   0,
   0,
   0,
   0,
   0,
   0,
   0,
   0,
   0,
   0,
   0,
   0,
   0,
   0,
   0,
   0,
   0,
   0,
   0,
   0,
   0,
   0,
   0,
   0,
   0,
   0,
   0,
   0,
   0,
   0,
   0,
   0,
   0,
   0,
   0,
   0,
   0,
   0,
   0,
   0,
   0,
   0,
   0,
   0,
   0,
   0,
   0,
   0,
   0,
   0,
   0,
   0,
   0,
   0,
   0,
   0,
   0,
   0,
   0,
   0,
   0,
   0,
   0,
   0,
   0,
   0,
   0,
   0,
   0,
   0,
   0,
   0,
   0,
   0,
   0,
   0,
   0,
   0,
   0,
   0,
   0,
   0,
   0,
   0,
   0,
   0,
   0,
   0,
   0,
   0,
   0,
   0,
   0,
   0,
   0,
   0,
   0,
   0,
   0,
   0,
   0,
   0,
   0,
   0,
   0,
   0,
   0,
   0,
   0,
   0,
   0,
   0,
   0,
   0,
   0,
   0,
   0,
   0,
   0,
   0,
   0,
   0,
   0,
   0,
   0,
   0,
   0,
   0,
   0,
   0,
   0,
   0,
   0,
   0,
   0,
   0,
   0,
   0,
   0,
   0,
   0,
   0,
   0,
   0,
   0,
   0,
   0,
   0,
   0,
   0,
   0,
   0,
   0,
   0,
   0,
   0,
   0,
   0,
   0,
   0,
   0,
   0,
   0,
   0,
   0,
   0,
   0,
   0,
   0,
   0,
   0,
   0,
   0,
   0,
   0,
   0,
   0,
   0,
   0,
   0,
   0,
   0,
   0,
   0,
   0,
   0,
   0,
   0,
   0,
   0,
   0,
   0,
   0,
   0,
   0,
   0,
   0,
   0,
   0,
   0,
   0,
   0,
   0,
   0,
   0,
   0,
   0,
   0,
   0,
   0,
   0,
   0,
   0,
   0,
   0,
   0,
   0,
   0,
   0,
   0,
   0,
   0,
   0,
   0,
   0,
   0,
   0,
   0,
   0,
   0,
   0,
   0,
   0,
   0,
   0,
   0,
   0,
   0,
   0,
   0,
   0,
   0,
   0,
   0,
   0,
   0,
   0,
   0,
   0,
   0,
   0,
   0,
   0,
   0,
   0,
   0,
   0,
   0,
   0,
   0,
   0,
   0,
   0,
   0,
   0,
   0,
   0,
   0,
   0,
   0,
   0,
   0,
   0,
   0,
   0,
   0,
   0,
   0,
   0,
   0,
   0,
   0,
   0,
   0,
   0,
   0,
   0,
   0,
   0,
   0,
   0,
   0,
   0,
   0,
   0,
   0,
   0,
   0,
   0,
   0,
   0,
   0,
   0,
   0,
   0,
   0,
   0,
   0,
   0,
   0,
   0,
   0,
   0,
   0,
   0,
   0,
   0,
   0,
   0,
   0,
   0,
   0,
   0,
   0,
   0,
   0,
   0,
   0,
   0,
   0,
   0,
   0,
   0,
   0,
   0,
   0,
   0,
   0,
   0,
   0,
   0,
   0,
   0,
   0,
   0;
   { MI_rockS_1 }
  }

  MeshTextureCoords c1 {
   327;
   0.829102;0.541504;,
   0.762207;0.538086;,
   0.805176;0.504883;,
   0.859863;0.617188;,
   0.769531;0.618164;,
   0.664551;0.597168;,
   0.824219;0.658691;,
   0.881348;0.666992;,
   0.766113;0.648438;,
   0.813965;0.670898;,
   0.749512;0.654785;,
   0.861328;0.691895;,
   0.884766;0.687012;,
   0.894043;0.763672;,
   0.835449;0.686035;,
   0.794922;0.685547;,
   0.836426;0.735352;,
   0.887695;0.798340;,
   0.815430;0.682129;,
   0.812500;0.696777;,
   0.809082;0.734375;,
   0.763184;0.661133;,
   0.783203;0.696777;,
   0.748535;0.681152;,
   0.744141;0.665039;,
   0.726074;0.752930;,
   0.724121;0.687012;,
   0.724121;0.735840;,
   0.731934;0.653809;,
   0.701172;0.716797;,
   0.716309;0.647461;,
   0.659668;0.731445;,
   0.662598;0.625000;,
   0.610840;0.608398;,
   0.654297;0.662109;,
   0.674316;0.637695;,
   0.619141;0.631836;,
   0.521484;0.648926;,
   0.477539;0.651855;,
   0.485352;0.663574;,
   0.452637;0.672852;,
   0.561523;0.686523;,
   0.591797;0.718750;,
   0.482666;0.702148;,
   0.578125;0.806641;,
   0.435059;0.722168;,
   0.505859;0.743652;,
   0.550781;0.785156;,
   0.677734;0.742188;,
   0.558105;0.809570;,
   0.673340;0.782227;,
   0.622070;0.839356;,
   0.666992;0.806152;,
   0.515625;0.825195;,
   0.790039;0.799316;,
   0.454102;0.769043;,
   0.858398;0.809082;,
   0.429932;0.746094;,
   0.876953;0.838867;,
   0.896484;0.827637;,
   0.828125;0.864258;,
   0.886719;0.887207;,
   0.899902;0.892578;,
   0.859375;0.888184;,
   0.812500;0.860840;,
   0.883301;0.959473;,
   0.901367;0.939453;,
   0.890137;0.975586;,
   0.879883;0.974609;,
   0.843262;0.954102;,
   0.716797;0.955566;,
   0.803711;0.930664;,
   0.767578;0.944824;,
   0.702148;0.934082;,
   0.656738;0.950684;,
   0.760254;0.895996;,
   0.680176;0.889160;,
   0.698242;0.915527;,
   0.641602;0.928223;,
   0.698242;0.844727;,
   0.593262;0.932617;,
   0.559082;0.939453;,
   0.629395;0.854492;,
   0.568359;0.914063;,
   0.520996;0.941895;,
   0.558594;0.880859;,
   0.513672;0.915039;,
   0.501953;0.942871;,
   0.500977;0.845703;,
   0.489014;0.832031;,
   0.472168;0.852539;,
   0.473389;0.874512;,
   0.477783;0.931641;,
   0.451416;0.930176;,
   0.457520;0.862305;,
   0.435547;0.885254;,
   0.386963;0.938477;,
   0.431152;0.847656;,
   0.340088;0.864746;,
   0.327393;0.937500;,
   0.275879;0.913086;,
   0.363037;0.751465;,
   0.250244;0.903320;,
   0.254883;0.916016;,
   0.189331;0.918457;,
   0.241821;0.877930;,
   0.214966;0.906250;,
   0.199951;0.908691;,
   0.313721;0.809570;,
   0.245605;0.838379;,
   0.293701;0.771973;,
   0.201172;0.803711;,
   0.210938;0.785156;,
   0.112610;0.762695;,
   0.305664;0.741211;,
   0.341797;0.734863;,
   0.328125;0.724121;,
   0.406250;0.692383;,
   0.395996;0.685547;,
   0.420898;0.679199;,
   0.413818;0.715332;,
   0.057465;0.857910;,
   0.123596;0.941895;,
   0.084045;0.943359;,
   0.057404;0.945313;,
   0.032013;0.871582;,
   0.028961;0.855957;,
   0.094299;0.759766;,
   0.102539;0.749512;,
   0.069336;0.756348;,
   0.062988;0.739746;,
   0.547363;0.059479;,
   0.534668;0.066833;,
   0.520508;0.059143;,
   0.563477;0.071228;,
   0.541504;0.081360;,
   0.586426;0.066406;,
   0.527344;0.155762;,
   0.596680;0.073181;,
   0.656250;0.067078;,
   0.558105;0.173462;,
   0.510742;0.183350;,
   0.516113;0.206909;,
   0.579590;0.081848;,
   0.570313;0.177124;,
   0.554199;0.257568;,
   0.515625;0.217896;,
   0.561035;0.269043;,
   0.588867;0.168701;,
   0.582031;0.204590;,
   0.577148;0.275879;,
   0.603516;0.155518;,
   0.644531;0.230469;,
   0.617676;0.297363;,
   0.685547;0.333252;,
   0.687500;0.080872;,
   0.719238;0.079529;,
   0.719727;0.123779;,
   0.679199;0.267090;,
   0.706055;0.346924;,
   0.724609;0.302002;,
   0.770508;0.095581;,
   0.737793;0.071411;,
   0.792969;0.074097;,
   0.791504;0.437988;,
   0.798828;0.432129;,
   0.796875;0.083679;,
   0.851074;0.070496;,
   0.770996;0.282227;,
   0.890625;0.297119;,
   0.810059;0.223145;,
   0.917969;0.244995;,
   0.854981;0.082886;,
   0.912598;0.074341;,
   0.946777;0.109253;,
   0.942383;0.125854;,
   0.958008;0.157593;,
   0.954102;0.122437;,
   0.208618;0.176025;,
   0.191284;0.160156;,
   0.214844;0.149292;,
   0.234497;0.144897;,
   0.175171;0.183716;,
   0.195435;0.209839;,
   0.304199;0.165283;,
   0.102173;0.296631;,
   0.089233;0.290771;,
   0.300537;0.223511;,
   0.058350;0.310791;,
   0.046722;0.313232;,
   0.197144;0.302734;,
   0.073853;0.354736;,
   0.081055;0.415527;,
   0.109497;0.461914;,
   0.206299;0.319824;,
   0.319580;0.270508;,
   0.333984;0.192993;,
   0.327881;0.172974;,
   0.422119;0.212769;,
   0.120728;0.394287;,
   0.402832;0.231445;,
   0.135132;0.436768;,
   0.201172;0.369629;,
   0.185913;0.449951;,
   0.127319;0.460205;,
   0.133057;0.477051;,
   0.080994;0.494873;,
   0.331787;0.299072;,
   0.064880;0.557129;,
   0.034454;0.559570;,
   0.381592;0.250977;,
   0.352295;0.350342;,
   0.272949;0.422852;,
   0.394531;0.290283;,
   0.216553;0.447266;,
   0.444092;0.281494;,
   0.202637;0.463867;,
   0.269043;0.446289;,
   0.209595;0.484375;,
   0.256836;0.456055;,
   0.315186;0.437744;,
   0.242188;0.537598;,
   0.346436;0.424561;,
   0.347656;0.446289;,
   0.255615;0.483398;,
   0.273926;0.468506;,
   0.392822;0.423584;,
   0.359375;0.550293;,
   0.425537;0.414063;,
   0.401123;0.474121;,
   0.416504;0.398193;,
   0.460205;0.398438;,
   0.457764;0.388672;,
   0.478272;0.350586;,
   0.472168;0.387695;,
   0.516113;0.277588;,
   0.482910;0.367676;,
   0.545410;0.311279;,
   0.475098;0.246826;,
   0.513184;0.261963;,
   0.436768;0.201294;,
   0.433838;0.221558;,
   0.544922;0.327148;,
   0.565430;0.335693;,
   0.566406;0.305908;,
   0.622070;0.367432;,
   0.649414;0.377930;,
   0.570801;0.360352;,
   0.639648;0.429932;,
   0.560059;0.385254;,
   0.532715;0.350342;,
   0.494385;0.390137;,
   0.565430;0.452881;,
   0.498291;0.435547;,
   0.532715;0.426514;,
   0.510742;0.476807;,
   0.604004;0.475342;,
   0.546387;0.497559;,
   0.460449;0.477295;,
   0.516113;0.489014;,
   0.439697;0.502441;,
   0.506836;0.505371;,
   0.517090;0.501953;,
   0.507813;0.519531;,
   0.483643;0.522461;,
   0.554688;0.511719;,
   0.520020;0.542480;,
   0.541504;0.537109;,
   0.522949;0.563965;,
   0.429443;0.520508;,
   0.410889;0.516602;,
   0.396240;0.538574;,
   0.393311;0.567383;,
   0.367432;0.572266;,
   0.338623;0.577148;,
   0.367188;0.617676;,
   0.274414;0.592773;,
   0.438232;0.617676;,
   0.246582;0.598145;,
   0.496094;0.609375;,
   0.260498;0.623047;,
   0.460693;0.630371;,
   0.326416;0.651855;,
   0.510254;0.625488;,
   0.421387;0.630859;,
   0.388916;0.658691;,
   0.515137;0.601563;,
   0.531250;0.612793;,
   0.530762;0.576172;,
   0.581055;0.557129;,
   0.567383;0.544922;,
   0.593750;0.547363;,
   0.609375;0.521484;,
   0.615234;0.530762;,
   0.640625;0.450439;,
   0.646484;0.508301;,
   0.648926;0.528320;,
   0.658203;0.497559;,
   0.710449;0.482910;,
   0.715820;0.466797;,
   0.693359;0.459473;,
   0.702637;0.456299;,
   0.655762;0.441650;,
   0.663574;0.421143;,
   0.676758;0.417969;,
   0.664063;0.387939;,
   0.383057;0.638672;,
   0.333740;0.660156;,
   0.367920;0.670410;,
   0.251709;0.715332;,
   0.215088;0.709473;,
   0.171509;0.654297;,
   0.168823;0.712402;,
   0.145508;0.669922;,
   0.105774;0.704102;,
   0.109314;0.619141;,
   0.129150;0.652344;,
   0.059326;0.681152;,
   0.077881;0.704102;,
   0.055115;0.683105;,
   0.025085;0.617188;,
   0.086121;0.634766;,
   0.072327;0.619141;,
   0.044739;0.624023;,
   0.039398;0.602539;,
   0.035522;0.589844;,
   0.020721;0.602539;;
  }

  MeshTextureCoords c2 {
   327;
   0.765625;0.042877;,
   0.702148;0.039307;,
   0.742676;0.007813;,
   0.794922;0.114075;,
   0.708984;0.115356;,
   0.609375;0.095154;,
   0.760742;0.153320;,
   0.814941;0.161133;,
   0.706055;0.143555;,
   0.751465;0.165161;,
   0.689941;0.149658;,
   0.795898;0.184814;,
   0.818359;0.180298;,
   0.826660;0.252686;,
   0.771484;0.179443;,
   0.732910;0.179077;,
   0.772461;0.225952;,
   0.820801;0.285645;,
   0.752441;0.175537;,
   0.750000;0.189331;,
   0.746582;0.224854;,
   0.703125;0.155762;,
   0.722168;0.189575;,
   0.688965;0.174561;,
   0.685059;0.159302;,
   0.667969;0.242798;,
   0.666016;0.180054;,
   0.666016;0.226440;,
   0.673828;0.148804;,
   0.644531;0.208252;,
   0.658691;0.142578;,
   0.605469;0.222168;,
   0.607422;0.121399;,
   0.559082;0.105957;,
   0.600098;0.156860;,
   0.618652;0.133667;,
   0.566895;0.128296;,
   0.474121;0.144043;,
   0.432617;0.146851;,
   0.440186;0.158081;,
   0.409180;0.166748;,
   0.512207;0.179932;,
   0.540527;0.210449;,
   0.437500;0.194702;,
   0.527832;0.293457;,
   0.392578;0.213745;,
   0.459473;0.233643;,
   0.501953;0.272949;,
   0.622070;0.232544;,
   0.509277;0.295898;,
   0.618164;0.270264;,
   0.569336;0.324463;,
   0.611816;0.292725;,
   0.468994;0.310791;,
   0.728516;0.286377;,
   0.410400;0.257813;,
   0.793457;0.295654;,
   0.387451;0.236206;,
   0.811035;0.323730;,
   0.829590;0.313232;,
   0.764648;0.347656;,
   0.819824;0.369629;,
   0.832520;0.374512;,
   0.793945;0.370361;,
   0.750000;0.344482;,
   0.816895;0.438232;,
   0.833984;0.418945;,
   0.823242;0.453369;,
   0.813477;0.451904;,
   0.779297;0.433105;,
   0.659180;0.434082;,
   0.741211;0.410645;,
   0.707031;0.423828;,
   0.645508;0.413818;,
   0.602051;0.429443;,
   0.700195;0.377930;,
   0.624512;0.371338;,
   0.641602;0.396240;,
   0.587891;0.408447;,
   0.641602;0.329346;,
   0.541992;0.412598;,
   0.509766;0.418945;,
   0.576172;0.338379;,
   0.518555;0.395020;,
   0.473877;0.421387;,
   0.509277;0.363525;,
   0.467041;0.395752;,
   0.455811;0.421875;,
   0.455078;0.330078;,
   0.443359;0.317627;,
   0.427490;0.336914;,
   0.428711;0.357422;,
   0.432861;0.411621;,
   0.407959;0.409912;,
   0.413574;0.345947;,
   0.392822;0.367676;,
   0.346680;0.418213;,
   0.388672;0.332031;,
   0.302490;0.348145;,
   0.290527;0.416992;,
   0.241577;0.394043;,
   0.324219;0.241089;,
   0.217407;0.384521;,
   0.221680;0.396729;,
   0.159668;0.398926;,
   0.209351;0.360840;,
   0.183960;0.387695;,
   0.169800;0.389893;,
   0.277344;0.296387;,
   0.212891;0.323486;,
   0.258545;0.260742;,
   0.170898;0.290527;,
   0.180176;0.272949;,
   0.086975;0.251465;,
   0.269775;0.231689;,
   0.304199;0.225708;,
   0.291260;0.215088;,
   0.364990;0.185303;,
   0.355469;0.178711;,
   0.378906;0.172729;,
   0.372314;0.207031;,
   0.034821;0.341797;,
   0.097412;0.421143;,
   0.059998;0.422852;,
   0.034729;0.424561;,
   0.010712;0.354736;,
   0.007813;0.339844;,
   0.069641;0.249146;,
   0.077515;0.239258;,
   0.046051;0.245850;,
   0.040070;0.230103;,
   0.990234;0.847168;,
   0.982910;0.859375;,
   0.990234;0.872559;,
   0.979004;0.832520;,
   0.969238;0.853027;,
   0.983398;0.810547;,
   0.898926;0.866211;,
   0.977051;0.800781;,
   0.982910;0.745117;,
   0.882324;0.837402;,
   0.873047;0.881836;,
   0.850586;0.876953;,
   0.968750;0.816895;,
   0.878906;0.825684;,
   0.802734;0.840820;,
   0.840332;0.877441;,
   0.791992;0.834473;,
   0.886719;0.808105;,
   0.853027;0.814941;,
   0.785645;0.819336;,
   0.899414;0.794434;,
   0.828613;0.755859;,
   0.765625;0.781250;,
   0.731445;0.716797;,
   0.969727;0.715332;,
   0.971191;0.685547;,
   0.929199;0.685059;,
   0.793945;0.723145;,
   0.718262;0.697754;,
   0.760742;0.680664;,
   0.956055;0.637207;,
   0.978516;0.667969;,
   0.976074;0.615723;,
   0.632813;0.617676;,
   0.638184;0.610352;,
   0.967285;0.612305;,
   0.979492;0.561035;,
   0.779785;0.636719;,
   0.765625;0.523926;,
   0.835449;0.600098;,
   0.814941;0.498291;,
   0.967773;0.557617;,
   0.976074;0.502930;,
   0.942871;0.471191;,
   0.927246;0.475586;,
   0.897461;0.460938;,
   0.930664;0.464355;,
   0.185181;0.474609;,
   0.168823;0.459473;,
   0.191040;0.449463;,
   0.209595;0.445313;,
   0.153564;0.481934;,
   0.172729;0.506348;,
   0.275146;0.464355;,
   0.084717;0.588379;,
   0.072449;0.583008;,
   0.271973;0.519531;,
   0.043304;0.602051;,
   0.032349;0.604492;,
   0.174316;0.594238;,
   0.057953;0.643555;,
   0.064758;0.700684;,
   0.091614;0.744629;,
   0.182861;0.610352;,
   0.289795;0.563965;,
   0.303467;0.490723;,
   0.297852;0.471680;,
   0.386719;0.509277;,
   0.102173;0.680664;,
   0.368652;0.526855;,
   0.115845;0.721191;,
   0.178101;0.657715;,
   0.163696;0.733398;,
   0.108398;0.743164;,
   0.113831;0.759277;,
   0.064697;0.775879;,
   0.301514;0.590820;,
   0.049500;0.834961;,
   0.020782;0.837402;,
   0.348389;0.545410;,
   0.320801;0.639160;,
   0.245972;0.708008;,
   0.360596;0.582520;,
   0.192627;0.730957;,
   0.407471;0.574219;,
   0.179565;0.746582;,
   0.242310;0.729980;,
   0.186035;0.766113;,
   0.230713;0.739258;,
   0.285645;0.721680;,
   0.216797;0.816406;,
   0.315186;0.709473;,
   0.316162;0.729980;,
   0.229492;0.765137;,
   0.246826;0.750977;,
   0.359131;0.708496;,
   0.327393;0.828125;,
   0.389893;0.699707;,
   0.366699;0.756348;,
   0.381348;0.684570;,
   0.422363;0.685059;,
   0.420166;0.675293;,
   0.439697;0.639648;,
   0.433838;0.674805;,
   0.475586;0.570801;,
   0.443848;0.655762;,
   0.502930;0.602539;,
   0.436768;0.541504;,
   0.472412;0.555664;,
   0.400635;0.498535;,
   0.397705;0.517578;,
   0.502441;0.617188;,
   0.521973;0.625488;,
   0.522949;0.597168;,
   0.575195;0.655273;,
   0.601074;0.665527;,
   0.526855;0.648926;,
   0.591797;0.714355;,
   0.516602;0.672363;,
   0.490967;0.639160;,
   0.454834;0.677246;,
   0.521973;0.736328;,
   0.458496;0.719727;,
   0.491211;0.711426;,
   0.470459;0.758789;,
   0.558105;0.757324;,
   0.503906;0.778320;,
   0.422852;0.759277;,
   0.475586;0.770508;,
   0.403320;0.783203;,
   0.466553;0.786133;,
   0.476563;0.782715;,
   0.467529;0.799316;,
   0.444824;0.801758;,
   0.511719;0.791992;,
   0.479248;0.820801;,
   0.499268;0.815918;,
   0.481934;0.841309;,
   0.393555;0.800293;,
   0.375977;0.796875;,
   0.362061;0.816895;,
   0.359375;0.844727;,
   0.334961;0.849121;,
   0.307617;0.854004;,
   0.334717;0.892090;,
   0.247314;0.868164;,
   0.401855;0.891602;,
   0.220947;0.873535;,
   0.456299;0.884277;,
   0.234131;0.896973;,
   0.423096;0.904297;,
   0.296387;0.924316;,
   0.469971;0.899414;,
   0.385986;0.904785;,
   0.355225;0.931152;,
   0.474609;0.876953;,
   0.489502;0.887695;,
   0.489502;0.852539;,
   0.536621;0.834961;,
   0.523926;0.823242;,
   0.548340;0.825684;,
   0.563477;0.801270;,
   0.568848;0.810059;,
   0.592773;0.733887;,
   0.598145;0.788574;,
   0.600586;0.807617;,
   0.609375;0.778320;,
   0.658691;0.764648;,
   0.663574;0.749512;,
   0.642578;0.742676;,
   0.651367;0.739258;,
   0.606934;0.725586;,
   0.614746;0.706055;,
   0.626953;0.703125;,
   0.614746;0.674805;,
   0.349854;0.912109;,
   0.303223;0.932129;,
   0.335449;0.941895;,
   0.225952;0.984375;,
   0.191162;0.978516;,
   0.150146;0.926758;,
   0.147583;0.981445;,
   0.125610;0.941406;,
   0.088074;0.974121;,
   0.091431;0.893555;,
   0.110168;0.924805;,
   0.044250;0.951660;,
   0.061737;0.974121;,
   0.040283;0.953613;,
   0.011925;0.891602;,
   0.069519;0.908203;,
   0.056549;0.893555;,
   0.030472;0.897949;,
   0.025452;0.877930;,
   0.021774;0.865723;,
   0.007813;0.877930;;
  }
 }
}