xof 0303txt 0032
template ColorRGBA {
 <35ff44e0-6c7c-11cf-8f52-0040333594a3>
 FLOAT red;
 FLOAT green;
 FLOAT blue;
 FLOAT alpha;
}

template ColorRGB {
 <d3e16e81-7835-11cf-8f52-0040333594a3>
 FLOAT red;
 FLOAT green;
 FLOAT blue;
}

template Material {
 <3d82ab4d-62da-11cf-ab39-0020af71e433>
 ColorRGBA faceColor;
 FLOAT power;
 ColorRGB specularColor;
 ColorRGB emissiveColor;
 [...]
}

template TextureFilename {
 <a42790e1-7810-11cf-8f52-0040333594a3>
 STRING filename;
}

template Frame {
 <3d82ab46-62da-11cf-ab39-0020af71e433>
 [...]
}

template Matrix4x4 {
 <f6f23f45-7686-11cf-8f52-0040333594a3>
 array FLOAT matrix[16];
}

template FrameTransformMatrix {
 <f6f23f41-7686-11cf-8f52-0040333594a3>
 Matrix4x4 frameMatrix;
}

template Vector {
 <3d82ab5e-62da-11cf-ab39-0020af71e433>
 FLOAT x;
 FLOAT y;
 FLOAT z;
}

template MeshFace {
 <3d82ab5f-62da-11cf-ab39-0020af71e433>
 DWORD nFaceVertexIndices;
 array DWORD faceVertexIndices[nFaceVertexIndices];
}

template Mesh {
 <3d82ab44-62da-11cf-ab39-0020af71e433>
 DWORD nVertices;
 array Vector vertices[nVertices];
 DWORD nFaces;
 array MeshFace faces[nFaces];
 [...]
}

template MeshMaterialList {
 <f6f23f42-7686-11cf-8f52-0040333594a3>
 DWORD nMaterials;
 DWORD nFaceIndexes;
 array DWORD faceIndexes[nFaceIndexes];
 [Material <3d82ab4d-62da-11cf-ab39-0020af71e433>]
}

template VertexElement {
 <f752461c-1e23-48f6-b9f8-8350850f336f>
 DWORD Type;
 DWORD Method;
 DWORD Usage;
 DWORD UsageIndex;
}

template DeclData {
 <bf22e553-292c-4781-9fea-62bd554bdd93>
 DWORD nElements;
 array VertexElement Elements[nElements];
 DWORD nDWords;
 array DWORD data[nDWords];
}


Material MI_FarmHouseFloor02 {
 1.000000;1.000000;1.000000;1.000000;;
 10.000000;
 0.000000;0.000000;0.000000;;
 0.000000;0.000000;0.000000;;

 TextureFilename {
  "WoodPlank05_D.tga";
 }
}

Frame SM_Farmhouse02_Floor02 {
 

 FrameTransformMatrix {
  1.000000,0.000000,0.000000,0.000000,0.000000,1.000000,0.000000,0.000000,0.000000,0.000000,1.000000,0.000000,0.000000,0.000000,0.000000,1.000000;;
 }

 Mesh SM_Farmhouse02_Floor02 {
  25;
  1026.56346;260.487296;669.42381;,
  676.56397;260.487296;669.42381;,
  678.18509;260.487296;1027.88186;,
  1026.56346;260.487296;1027.88186;,
  80.413088;260.487296;688.58771;,
  -338.646477;260.487296;688.58938;,
  -338.646477;260.487296;783.41357;,
  80.413088;260.487296;885.80224;,
  -343.824230;260.487296;1131.90630;,
  -370.988288;260.487296;783.41357;,
  -370.988288;260.487296;1131.90630;,
  -338.646477;260.487296;1225.29101;,
  678.18483;260.487296;1226.98880;,
  678.18483;260.487296;1089.03424;,
  677.18381;260.487296;1083.26874;,
  583.15040;260.487296;885.80198;,
  677.18381;260.487296;1077.98733;,
  676.56397;260.487296;669.42381;,
  583.15040;260.487296;669.42381;,
  678.18509;260.487296;1027.88186;,
  677.44627;260.487296;1051.80102;,
  678.18509;260.487296;1049.57517;,
  677.44627;260.487296;1053.71168;,
  678.18483;260.487296;1073.80186;,
  678.18509;260.487296;1054.72813;;
  21;
  3;0,1,2;,
  3;2,3,0;,
  3;4,5,6;,
  3;6,7,4;,
  3;8,7,6;,
  3;6,9,8;,
  3;9,10,8;,
  3;8,11,7;,
  3;7,11,12;,
  3;12,13,7;,
  3;13,14,7;,
  3;15,7,14;,
  3;14,16,15;,
  3;17,18,15;,
  3;15,19,17;,
  3;20,21,19;,
  3;19,15,20;,
  3;15,22,20;,
  3;22,15,16;,
  3;16,23,22;,
  3;22,23,24;;

  MeshMaterialList {
   1;
   21;
   0,
   0,
   0,
   0,
   0,
   0,
   0,
   0,
   0,
   0,
   0,
   0,
   0,
   0,
   0,
   0,
   0,
   0,
   0,
   0,
   0;
   { MI_FarmHouseFloor02 }
  }

  DeclData {
   3;
   2;0;3;0;,
   1;0;5;0;,
   1;0;5;1;;
   175;
   0,
   1065353216,
   0,
   1079025664,
   1069858816,
   1059364864,
   1050501120,
   0,
   1065353216,
   0,
   1073823744,
   1069850624,
   1057988608,
   1050501120,
   0,
   1065353216,
   0,
   1073848320,
   1058947072,
   1057988608,
   1047166976,
   0,
   1065353216,
   0,
   1079025664,
   1058955264,
   1059364864,
   1047166976,
   0,
   1065353216,
   0,
   3182903296,
   1069424640,
   1058455552,
   1057873920,
   0,
   1065353216,
   0,
   3217637376,
   1069416448,
   1058455552,
   1055711232,
   0,
   1065353216,
   0,
   3217637376,
   1067376640,
   1058824192,
   1055711232,
   0,
   1065353216,
   0,
   3182903296,
   1065050112,
   1059233792,
   1057873920,
   0,
   1065353216,
   0,
   3217793024,
   1051893760,
   1060200448,
   1055670272,
   0,
   1065353216,
   0,
   3218604032,
   1067376640,
   1058824192,
   1055473664,
   0,
   1065353216,
   0,
   3218604032,
   1051893760,
   1060200448,
   1055473664,
   0,
   1065353216,
   0,
   3217637376,
   1038131200,
   1060569088,
   1055711232,
   0,
   1065353216,
   0,
   1073848320,
   1037926400,
   1060577280,
   1060069376,
   0,
   1065353216,
   0,
   1073848320,
   1055670272,
   1060028416,
   1060069376,
   0,
   1065353216,
   0,
   1073831936,
   1056161792,
   1060012032,
   1060061184,
   0,
   1065353216,
   0,
   1071136768,
   1065050112,
   1059233792,
   1059717120,
   0,
   1065353216,
   0,
   1073831936,
   1056620544,
   1059987456,
   1060061184,
   0,
   1065353216,
   0,
   1073823744,
   1069850624,
   1058381824,
   1060061184,
   0,
   1065353216,
   0,
   1071136768,
   1069850624,
   1058381824,
   1059717120,
   0,
   1065353216,
   0,
   1073848320,
   1058947072,
   1059790848,
   1060069376,
   0,
   1065353216,
   0,
   1073840128,
   1057914880,
   1059880960,
   1060061184,
   0,
   1065353216,
   0,
   1073848320,
   1058013184,
   1059872768,
   1060069376,
   0,
   1065353216,
   0,
   1073840128,
   1057832960,
   1059889152,
   1060061184,
   0,
   1065353216,
   0,
   1073848320,
   1056972800,
   1059971072,
   1060069376,
   0,
   1065353216,
   0,
   1073848320,
   1057792000,
   1059897344,
   1060069376;
  }
 }
}